<?xml version="1.0" encoding="utf-8"?>
<!-- Generator: Adobe Illustrator 22.0.0, SVG Export Plug-In . SVG Version: 6.00 Build 0)  -->
<svg version="1.1" id="Layer_4" xmlns="http://www.w3.org/2000/svg" xmlns:xlink="http://www.w3.org/1999/xlink" x="0px" y="0px"
	 viewBox="0 0 1920 1080" enable-background="new 0 0 1920 1080" xml:space="preserve">
<rect fill="#FFFFFF" width="1920" height="1080"/>
<g>
	<linearGradient id="SVGID_1_" gradientUnits="userSpaceOnUse" x1="937.8495" y1="1040.9281" x2="937.8495" y2="227.6748">
		<stop  offset="0" style="stop-color:#FFFFFF"/>
		<stop  offset="1" style="stop-color:#CFCFCF"/>
	</linearGradient>
	<path fill="url(#SVGID_1_)" d="M514.906,312.381c160.788,48.432,288.814-70.39,445.226-82.205
		c147.566-11.147,268.869,15.657,404.114,66.592c119.672,45.07,239.701,39.776,324.9,145.706
		c32.717,40.678,64.744,94.003,65.17,147.922c0.695,87.969-61.572,109.915-122.838,157.433
		c-83.389,64.677-84.692,157.891-155.339,225.758c-160.005,153.71-323.938,4.907-480.642-58.51
		c-139.186-56.327-263.423-45.417-406.715-26.641c-133.163,17.449-311.492,10.584-395.654-109.185
		c-76.611-109.024-99.509-293.176-30.917-410.747c38.028-65.182,116.493-122.257,193.843-124.706
		C426.875,241.557,455.525,294.494,514.906,312.381z"/>
	<linearGradient id="SVGID_2_" gradientUnits="userSpaceOnUse" x1="480.299" y1="385.916" x2="701.4824" y2="385.916">
		<stop  offset="0" style="stop-color:#FFFFFF"/>
		<stop  offset="1" style="stop-color:#CFCFCF"/>
	</linearGradient>
	<path opacity="0.63" fill="url(#SVGID_2_)" d="M679.625,398.275c-0.037,0-0.073,0.003-0.11,0.003
		c-2.751-18.297-18.537-32.326-37.6-32.326c-3.075,0-6.062,0.375-8.926,1.064c-8.24-9.208-20.209-15.007-33.538-15.007
		c-17.145,0-32.047,9.59-39.643,23.697c-5.915-4.145-13.112-6.585-20.883-6.585c-17.413,0-31.964,12.216-35.574,28.542
		c-0.289-0.011-0.577-0.022-0.869-0.022c-12.251,0-22.183,9.931-22.183,22.183h221.183
		C701.312,407.894,691.595,398.275,679.625,398.275z"/>
	<linearGradient id="SVGID_3_" gradientUnits="userSpaceOnUse" x1="1598.0698" y1="634.3015" x2="1861.8206" y2="634.3015">
		<stop  offset="0" style="stop-color:#FFFFFF"/>
		<stop  offset="1" style="stop-color:#CFCFCF"/>
	</linearGradient>
	<path opacity="0.63" fill="url(#SVGID_3_)" d="M1835.756,649.039c-0.044,0-0.087,0.003-0.131,0.003
		c-3.281-21.818-22.104-38.547-44.837-38.547c-3.667,0-7.229,0.447-10.643,1.269c-9.825-10.98-24.099-17.895-39.993-17.895
		c-20.444,0-38.215,11.436-47.273,28.258c-7.053-4.943-15.636-7.852-24.902-7.852c-20.764,0-38.115,14.567-42.42,34.035
		c-0.344-0.013-0.688-0.026-1.036-0.026c-14.609,0-26.452,11.843-26.452,26.452h263.751
		C1861.618,660.509,1850.03,649.039,1835.756,649.039z"/>
	<g>
		<g>
			
				<line display="none" fill="none" stroke="#BDBDBD" stroke-width="5" stroke-miterlimit="10" stroke-dasharray="40,45" x1="386.373" y1="1003.555" x2="1528.893" y2="1003.555"/>
		</g>
	</g>
	<g>
		<g>
			<path fill="#E6E6E6" d="M1576.482,982.498v-7.846H333.369c0.566,0.629,0.566,2.26,0.566,3.475v4.371H1576.482z"/>
			<rect x="333.935" y="983.072" fill="#BDBDBD" width="1242.547" height="4.693"/>
		</g>
		
			<line display="none" fill="none" stroke="#BDBDBD" stroke-width="5" stroke-miterlimit="10" stroke-dasharray="40,45" x1="386.373" y1="1003.555" x2="1528.893" y2="1003.555"/>
	</g>
	<g>
		<g opacity="0.2">
			<path fill="#191919" d="M815.066,515.887c7.305-4.104,15.639-6.158,24.999-6.158c15.924,0,29.47,6.734,40.638,20.195
				l31.031-28.078c-8.373-10.504-18.883-18.551-31.524-24.135c-12.645-5.581-26.845-8.374-42.608-8.374
				c-18.064,0-34.277,3.817-48.643,11.452c-14.369,7.636-25.657,18.269-33.865,31.898c-8.213,13.63-12.314,29.06-12.314,46.3
				c0,17.242,4.102,32.678,12.314,46.305c8.208,13.629,19.496,24.258,33.865,31.894c14.365,7.637,30.579,11.451,48.643,11.451
				c15.764,0,29.963-2.793,42.608-8.373c12.642-5.58,23.151-13.627,31.524-24.137l-31.031-28.078
				c-11.168,13.465-24.714,20.197-40.638,20.197c-9.36,0-17.694-2.051-24.999-6.156c-7.309-4.104-12.973-9.893-16.994-17.363
				c-4.025-7.471-6.034-16.051-6.034-25.74c0-9.685,2.009-18.263,6.034-25.736C802.093,525.779,807.757,519.992,815.066,515.887z
				 M815.066,515.887c7.305-4.104,15.639-6.158,24.999-6.158c15.924,0,29.47,6.734,40.638,20.195l31.031-28.078
				c-8.373-10.504-18.883-18.551-31.524-24.135c-12.645-5.581-26.845-8.374-42.608-8.374c-18.064,0-34.277,3.817-48.643,11.452
				c-14.369,7.636-25.657,18.269-33.865,31.898c-8.213,13.63-12.314,29.06-12.314,46.3c0,17.242,4.102,32.678,12.314,46.305
				c8.208,13.629,19.496,24.258,33.865,31.894c14.365,7.637,30.579,11.451,48.643,11.451c15.764,0,29.963-2.793,42.608-8.373
				c12.642-5.58,23.151-13.627,31.524-24.137l-31.031-28.078c-11.168,13.465-24.714,20.197-40.638,20.197
				c-9.36,0-17.694-2.051-24.999-6.156c-7.309-4.104-12.973-9.893-16.994-17.363c-4.025-7.471-6.034-16.051-6.034-25.74
				c0-9.685,2.009-18.263,6.034-25.736C802.093,525.779,807.757,519.992,815.066,515.887z"/>
			<path fill="#191919" d="M1065.791,480.912c-14.532-7.716-30.909-11.576-49.135-11.576c-18.225,0-34.605,3.86-49.137,11.576
				c-14.531,7.719-25.945,18.391-34.234,32.018c-8.293,13.63-12.438,28.982-12.438,46.056c0,17.08,4.144,32.432,12.438,46.059
				c8.289,13.631,19.703,24.303,34.234,32.018c14.532,7.719,30.912,11.574,49.137,11.574c18.226,0,34.602-3.856,49.135-11.574
				c14.529-7.715,25.94-18.387,34.234-32.018c8.29-13.627,12.438-28.978,12.438-46.059c0-17.074-4.147-32.426-12.438-46.056
				C1091.731,499.303,1080.32,488.631,1065.791,480.912z M1057.047,584.726c-4.107,7.471-9.691,13.26-16.749,17.363
				c-7.061,4.106-14.943,6.156-23.643,6.156c-8.708,0-16.588-2.051-23.646-6.156c-7.06-4.104-12.645-9.893-16.749-17.363
				c-4.104-7.471-6.156-16.051-6.156-25.74c0-9.685,2.053-18.263,6.156-25.736c4.104-7.471,9.689-13.258,16.749-17.363
				c7.058-4.104,14.938-6.158,23.646-6.158c8.699,0,16.582,2.055,23.643,6.158c7.058,4.105,12.642,9.892,16.749,17.363
				c4.102,7.473,6.158,16.051,6.158,25.736C1063.205,568.675,1061.149,577.255,1057.047,584.726z"/>
			<path d="M742.779,558.986 M1210.98,585.095l-46.795-112.311h-52.706l73.642,172.407h48.025l73.89-172.407h-48.274
				L1210.98,585.095z"/>
			<path fill="#191919" d="M1604.307,591.003c10.839-5.252,19.169-12.518,25-21.795c5.827-9.275,8.743-20.155,8.743-32.634
				c0-12.971-3.12-24.26-9.359-33.865c-6.241-9.605-15.107-16.995-26.6-22.166c-11.496-5.172-25.039-7.759-40.639-7.759h-78.813
				v172.407h48.765v-45.813h26.601l31.277,45.813h52.217L1604.307,591.003z M1581.155,555.169
				c-5.09,4.354-12.644,6.525-22.659,6.525h-27.091v-50.491h27.091c10.016,0,17.569,2.219,22.659,6.653
				c5.089,4.432,7.638,10.673,7.638,18.717C1588.792,544.621,1586.244,550.821,1581.155,555.169z"/>
			<polygon fill="#191919" points="1365.407,575.98 1442.001,575.98 1442.001,539.527 1365.407,539.527 1365.407,510.467 
				1452.347,510.467 1452.347,472.784 1317.132,472.784 1317.132,645.191 1455.548,645.191 1455.548,607.507 1365.407,607.507 			
				"/>
		</g>
		<g>
			<path fill="#191919" d="M801.631,502.452c7.305-4.104,15.639-6.158,24.999-6.158c15.924,0,29.47,6.734,40.638,20.195
				l31.031-28.078c-8.373-10.504-18.883-18.551-31.524-24.135c-12.645-5.581-26.845-8.374-42.608-8.374
				c-18.064,0-34.277,3.817-48.643,11.452c-14.369,7.636-25.657,18.269-33.865,31.898c-8.213,13.63-12.314,29.06-12.314,46.3
				c0,17.242,4.101,32.678,12.314,46.305c8.208,13.629,19.496,24.258,33.865,31.894c14.365,7.637,30.579,11.451,48.643,11.451
				c15.764,0,29.963-2.793,42.608-8.373c12.642-5.58,23.151-13.627,31.524-24.137l-31.031-28.078
				c-11.168,13.465-24.714,20.197-40.638,20.197c-9.36,0-17.694-2.051-24.999-6.156c-7.309-4.104-12.973-9.893-16.994-17.363
				c-4.025-7.471-6.034-16.051-6.034-25.74c0-9.685,2.009-18.263,6.034-25.736C788.658,512.344,794.322,506.557,801.631,502.452z
				 M801.631,502.452c7.305-4.104,15.639-6.158,24.999-6.158c15.924,0,29.47,6.734,40.638,20.195l31.031-28.078
				c-8.373-10.504-18.883-18.551-31.524-24.135c-12.645-5.581-26.845-8.374-42.608-8.374c-18.064,0-34.277,3.817-48.643,11.452
				c-14.369,7.636-25.657,18.269-33.865,31.898c-8.213,13.63-12.314,29.06-12.314,46.3c0,17.242,4.101,32.678,12.314,46.305
				c8.208,13.629,19.496,24.258,33.865,31.894c14.365,7.637,30.579,11.451,48.643,11.451c15.764,0,29.963-2.793,42.608-8.373
				c12.642-5.58,23.151-13.627,31.524-24.137l-31.031-28.078c-11.168,13.465-24.714,20.197-40.638,20.197
				c-9.36,0-17.694-2.051-24.999-6.156c-7.309-4.104-12.973-9.893-16.994-17.363c-4.025-7.471-6.034-16.051-6.034-25.74
				c0-9.685,2.009-18.263,6.034-25.736C788.658,512.344,794.322,506.557,801.631,502.452z"/>
			<path fill="#191919" d="M1052.355,467.477c-14.532-7.716-30.909-11.576-49.135-11.576c-18.225,0-34.605,3.86-49.137,11.576
				c-14.531,7.719-25.945,18.391-34.234,32.017c-8.293,13.63-12.438,28.983-12.438,46.056c0,17.08,4.145,32.432,12.438,46.059
				c8.289,13.631,19.703,24.303,34.234,32.018c14.532,7.719,30.912,11.574,49.137,11.574c18.226,0,34.603-3.855,49.135-11.574
				c14.529-7.715,25.94-18.387,34.234-32.018c8.29-13.627,12.438-28.978,12.438-46.059c0-17.074-4.147-32.426-12.438-46.056
				C1078.296,485.868,1066.885,475.196,1052.355,467.477z M1043.612,571.291c-4.107,7.471-9.691,13.26-16.749,17.363
				c-7.061,4.106-14.943,6.156-23.643,6.156c-8.708,0-16.588-2.051-23.646-6.156c-7.06-4.104-12.645-9.893-16.749-17.363
				c-4.104-7.471-6.156-16.051-6.156-25.74c0-9.685,2.053-18.263,6.156-25.736c4.104-7.471,9.689-13.258,16.749-17.363
				c7.058-4.104,14.938-6.158,23.646-6.158c8.699,0,16.582,2.055,23.643,6.158c7.058,4.105,12.642,9.892,16.749,17.363
				c4.102,7.473,6.158,16.051,6.158,25.736C1049.771,555.24,1047.714,563.82,1043.612,571.291z"/>
			<polygon fill="#191919" points="1245.326,459.349 1197.545,571.66 1150.75,459.349 1098.044,459.349 1171.686,631.756 
				1219.711,631.756 1293.601,459.349 			"/>
			<path fill="#191919" d="M1590.872,577.568c10.839-5.252,19.169-12.518,25-21.795c5.827-9.275,8.743-20.155,8.743-32.634
				c0-12.971-3.12-24.26-9.359-33.865c-6.241-9.605-15.107-16.995-26.6-22.166c-11.496-5.172-25.039-7.759-40.639-7.759h-78.813
				v172.407h48.765v-45.813h26.601l31.277,45.813h52.217L1590.872,577.568z M1567.72,541.734c-5.09,4.354-12.644,6.525-22.659,6.525
				h-27.091v-50.491h27.091c10.016,0,17.569,2.219,22.659,6.653c5.089,4.432,7.638,10.673,7.638,18.717
				C1575.357,531.186,1572.809,537.386,1567.72,541.734z"/>
			<polygon fill="#191919" points="1351.972,562.545 1428.566,562.545 1428.566,526.092 1351.972,526.092 1351.972,497.032 
				1438.912,497.032 1438.912,459.349 1303.697,459.349 1303.697,631.756 1442.113,631.756 1442.113,594.072 1351.972,594.072 			
				"/>
		</g>
		<g>
			<g>
				<path fill="#CCCCCC" d="M762.809,728.837l-1.627-18.703c0,0,19.016,1.02,23.645,3.719l0.254-18.246
					c0,0,13.621-5.408,21.584-10.814c0,0-7.705-21.623-52.674-38.184c0,0-1.545-13.516-1.545-21.627c0,0,16.7,1.016,19.274,2.363
					v-18.242c0,0,10.02-3.719,13.875-7.438c0,0-12.849-16.557-40.088-29.395v-13.18c0,0,4.629-0.676,10.021,2.698l1.028-16.553
					c0,0,9.766-3.042,15.163-6.085c0,0-3.341-8.107-33.92-25.34v-14.194c0,0,7.838,2.534,9.895,3.211
					c2.053,0.675,2.053,0.675,2.053,0.675l-0.128-14.359c0,0,16.661-4.73,17.427-5.915c0,0-6.762-11.551-34.257-23.208
					l-0.648-12.893c0,0,9.514,1.127,10.412,2.309l-0.259-12.164c0,0,10.668-0.677,16.188-6.927c0,0-20.557-14.701-31.092-20.107
					v-8.278c0,0,5.65,1.858,8.352,2.026l-0.643-10.645c0,0,7.453,0,12.976-5.067c0,0-15.287-13.349-25.054-17.91v-10.981
					c0,0,6.037,2.026,8.354,2.026l0.129-8.785c0,0,7.195-0.845,13.875-3.886c0,0-13.492-13.516-26.212-16.896v-8.953h8.092
					l0.132-5.747c0,0,8.992-2.364,10.666-4.224c0,0-13.109-12.501-22.102-14.192l-0.645-10.981h8.227v-4.393
					c0,0,6.808-1.352,9.377-2.196c0,0-2.823-6.253-19.918-12.673v-11.997c0,0,6.941,1.184,7.326,1.014
					c0.388-0.168,1.158-5.066,1.158-5.066s6.807-3.21,7.838-3.21c1.026,0-9.641-11.998-24.025-13.519l-0.645-16.219
					c0,0-0.127-1.775-2.248-3.21c-2.383-1.614-3.406-0.845-3.406-0.845s-1.025-0.77-3.406,0.845c-2.119,1.436-2.246,3.21-2.246,3.21
					l-0.646,16.219c-14.386,1.521-25.054,13.519-24.023,13.519c1.026,0,7.841,3.21,7.841,3.21s0.767,4.898,1.15,5.066
					c0.387,0.17,7.324-1.014,7.324-1.014v11.997c-17.088,6.42-19.916,12.673-19.916,12.673c2.57,0.844,9.379,2.196,9.379,2.196
					v4.393h8.229l-0.646,10.981c-8.994,1.691-22.1,14.192-22.1,14.192c1.674,1.86,10.665,4.224,10.665,4.224l0.129,5.747h8.096
					v8.953c-12.721,3.38-26.213,16.896-26.213,16.896c6.68,3.041,13.876,3.886,13.876,3.886l0.128,8.785
					c2.317,0,8.356-2.026,8.356-2.026v10.981c-9.768,4.561-25.058,17.91-25.058,17.91c5.525,5.067,12.976,5.067,12.976,5.067
					l-0.645,10.645c2.702-0.168,8.356-2.026,8.356-2.026v8.278c-10.537,5.406-31.094,20.107-31.094,20.107
					c5.526,6.25,16.189,6.927,16.189,6.927l-0.257,12.164c0.899-1.182,10.407-2.309,10.407-2.309l-0.643,12.893
					c-27.497,11.657-34.266,23.208-34.266,23.208c0.775,1.184,17.434,5.915,17.434,5.915l-0.129,14.359c0,0,0,0,2.057-0.675
					c2.056-0.677,9.897-3.211,9.897-3.211v14.194c-30.58,17.233-33.924,25.34-33.924,25.34c5.396,3.043,15.164,6.085,15.164,6.085
					l1.025,16.553c5.396-3.374,10.023-2.698,10.023-2.698v13.18c-27.241,12.838-40.092,29.395-40.092,29.395
					c3.855,3.72,13.879,7.438,13.879,7.438v18.242c2.57-1.348,19.273-2.363,19.273-2.363c0,8.111-1.545,21.627-1.545,21.627
					c-44.97,16.56-52.68,38.184-52.68,38.184c7.969,5.406,21.591,10.814,21.591,10.814l0.253,18.246
					c4.625-2.699,23.643-3.719,23.643-3.719l-1.628,18.703c-54.134,0-133.284,62.176-133.284,62.176
					c11.995,22.977,53.794,28.832,53.794,28.832v23.432l61.849-6.758v87.176h81.456h75.805v-87.176l67.504,6.758v-23.432
					c0,0,41.793-5.855,53.787-28.832C896.09,791.013,816.943,728.837,762.809,728.837z"/>
				<g>
					<g>
						<path fill="#9E9E9E" d="M758.869,726.218c1.172,0,2.438,2.414,3.737,2.619l-1.425-18.703c0,0,19.016,1.02,23.645,3.719
							l0.254-18.246c0,0,9.602-3.82,17.4-8.24c-13.732-0.092-30.079-2.461-46.84-8.666c-33.809-12.519-42.129-22.967-42.129-22.967
							c-37.69,34.418-113.66,33.959-113.66,33.959l13.06,5.914l0.253,18.246c5.941-2.324,23.643-3.719,23.643-3.719l-1.626,18.67
							l16.68,0.348l1.135-20.611l65.615-8.846v18.33C734.111,716.606,758.869,726.218,758.869,726.218z M717.066,689.087
							l-93.193,16.029v-6.6l93.193-16.027V689.087z"/>
					</g>
					<path fill="#9E9E9E" d="M777.465,791.804c-52.938-19.604-57.143-14.76-57.143-14.76
						c-87.807,35.236-210.194,24.15-210.194,24.15l10.403,7.148c16.072,8.824,35.158,11.502,35.158,11.502v23.432l61.849-6.758
						v71.424v12.82h157.261v-84.244l67.504,6.758v-23.432c0,0,16.094-2.26,31.18-9.469l6.672-7.293
						C855.484,807.513,817.17,806.511,777.465,791.804z M717.066,808.063l-145.92,25.102v-10.328l145.92-25.096V808.063z"/>
					<path fill="#9E9E9E" d="M717.066,627.345c13.33,2.592,23.808,9.078,23.808,9.078c1.101,0,11.839,9.914,13.116,10.185
						c-0.455-4.678-1.545-16.644-1.545-21.627c0,0,16.7,1.016,19.274,2.363v-18.242c0,0,4.621-1.721,8.797-3.986
						c-9.975,0.174-21.053-0.935-32.336-4.937c-29.465-10.426-36.716-19.125-36.716-19.125
						c-32.842,28.661-96.38,22.662-96.38,22.662l11.188,5.386v18.242c4.531-1.152,19.273-2.363,19.273-2.363
						c0,5.729-1.09,17.172-1.545,21.627l15.678-1.855l0.813-19.951l55.423-7.135L717.066,627.345z M714.566,608.835l-81.225,13.348
						v-5.494l81.225-13.35V608.835z"/>
					<path fill="#9E9E9E" d="M714.766,559.023c10.654,1.992,26.214,10.664,26.214,10.664c1.351,0,2.925,0.299,4.526,0.744V559.09
						c0,0,4.629-0.676,10.021,2.698l1.028-16.553c0,0,9.343-2.913,14.804-5.891c-9.518,0.836-20.781,0.639-32.143-3.23
						c-23.537-8.031-28.93-12.733-28.93-12.733c-27.207,14.251-78.37,18.424-78.37,18.424l9.518,3.431l1.125,16.503
						c5.352-3.307,9.924-2.648,9.924-2.648v12.912l16.423-1.273l0.65-13.665l44.284-5.492L714.766,559.023z M712.766,544.769
						l-64.894,10.278v-4.227l64.894-10.285V544.769z"/>
					<path fill="#9E9E9E" d="M714.156,504.352c9.625,1.8,23.68,9.635,23.68,9.635c0.19,0-0.238-3.95-0.037-3.936v-10.435
						c0,0,7.838,2.534,9.895,3.211c2.053,0.675,2.053,0.675,2.053,0.675l-0.128-14.359c0,0,16.661-4.73,17.427-5.915
						c0,0-0.16-0.283-0.54-0.795c-8.968,0.94-19.881,1.005-30.886-2.748c-21.266-7.25-26.133-11.501-26.133-11.501
						c-24.578,12.876-72.23,17.586-72.23,17.586l11.115,3.373l-0.129,14.229c0.286-0.092,1.166-0.253,2.057-0.545
						c2.056-0.677,9.897-3.211,9.897-3.211v14.194l11.91-1.69l0.58-13.506l40.006-4.966L714.156,504.352z M711.723,487.504
						l-58.629,9.285v-3.818l58.629-9.289V487.504z"/>
					<path fill="#9E9E9E" d="M713.129,451.296c7.989,1.498,19.659,8.725,19.659,8.725c0.122,0-0.438-6.151-0.308-6.146l-0.34-6.747
						c0,0,9.514,1.127,10.412,2.309l-0.259-12.164c0,0,8.417-0.544,14.167-5.054c-7.957,0.098-17.435-0.738-25.691-3.553
						c-17.658-6.021-21.701-9.548-21.701-9.548c-20.411,10.691-64.979,14.793-64.979,14.793l11.606,3.361l-0.257,12.164
						c3.067-0.667,10.407-2.309,10.407-2.309l-0.635,12.718l12.816-1.341l0.483-14.124l33.217-4.121L713.129,451.296z
						 M710.923,435.158l-48.679,7.714v-3.174l48.679-7.712V435.158z"/>
					<path fill="#9E9E9E" d="M712.102,405.172c5.263,1,11.99,3.335,15.288,5.068v-8.278c0,0,5.65,1.858,8.352,2.026l-0.643-10.645
						c0,0,6.047-0.012,11.285-3.717c-5.792-0.514-12.218-1.721-18.328-3.84c-15.685-5.428-16.334-10.18-16.334-10.18
						c-18.124,9.637-57.283,15.678-57.283,15.678l8.449,2.06l-0.512,10.279c4.414-0.413,8.223-1.66,8.223-1.66v8.278
						c-1.809,0.924,2.242-1.354,0,0l10.727-0.816l0.319-9.472l29.503-3.714L712.102,405.172z M710.43,388.986l-43.231,7.461v-3.068
						l43.231-7.463V388.986z"/>
					<path fill="#9E9E9E" d="M708.9,362.528c5.705,1.257,14.043,6.71,14.043,6.71c0.023,0,0.051,0.01,0.078,0.012v-9.865
						c0,0,6.037,2.026,8.354,2.026l0.129-8.785c0,0,6.072-0.719,12.239-3.192c-5.933,0.484-13.486,0.234-20.161-2.438
						c-12.608-5.048-14.712-8.338-14.712-8.338c-14.572,8.962-51.255,11.974-51.255,11.974l8.872,1.994l0.128,8.785
						c2.031-0.551,8.356-2.026,8.356-2.026v10.981c-1.809,0.846-3.808,1.992-5.861,3.298l5.861-3.298l9.824-1.35l-0.105-7.72
						l23.717-3.451L708.9,362.528z M706.758,349.868l-34.753,6.936v-2.857l34.753-6.938V349.868z"/>
					<path fill="#9E9E9E" d="M708.555,327.122c3.529,0.755,8.203,3.31,10.612,4.723v-8.953h8.092l0.132-5.747
						c0,0,7.308-1.925,9.961-3.666c-4.897,0.256-10.779-0.104-16.048-2.161c-10.956-4.275-12.78-7.062-12.78-7.062
						c-12.66,7.592-44.363,10.864-44.363,10.864l6.439,2.025l0.129,5.747h8.096v8.953c-1.594,0.421-3.201,1.006-4.785,1.699
						l4.785-1.699l8.895-1.296l-0.09-7.112l20.494-2.925L708.555,327.122z M707.623,314.798l-30.197,5.877v-2.419l30.197-5.875
						V314.798z"/>
					<path fill="#9E9E9E" d="M707.16,265.274c1.783,0.571,4.178,2.079,5.836,3.211v-11.997c0,0,6.941,1.184,7.326,1.014
						c0.388-0.168,1.158-5.066,1.158-5.066s2.225-1.051,4.324-1.951c-3.77,0.007-12.646-0.506-15.375-2.102
						c-6.62-3.864-8.057-5.475-8.057-5.475c-7.646,6.863-30.867,7.292-30.867,7.292l5.008,2.235l1.15,5.066l7.324-1.014v11.997
						l5.01-0.554l-0.018-7.688l16.8-2.644L707.16,265.274z M704.699,249.321l-22.703,5.312v-2.187l22.703-5.312V249.321z"/>
					<path fill="#9E9E9E" d="M714.787,280.329c-8.561-3.701-9.986-6.108-9.986-6.108c-9.891,6.569-36.326,7.842-36.326,7.842
						l5.977,1.292v4.393h8.107l0.082,0.659l-0.606,10.322l7.11-0.557l-0.027-7.359l15.367-2.533l0.677,5.869
						c3.87,0.921,9.251,3.633,9.251,3.633c0.371,0,0.94,1.395,1.543,1.52l-0.645-11.554h8.227v-4.393c0,0,3.541-0.704,6.489-1.416
						C725.824,282.484,719.932,282.556,714.787,280.329z M705.554,280.323l-26.47,5.313v-2.186l26.47-5.311V280.323z"/>
				</g>
				<path fill="#CCCCCC" d="M1009.736,867.812c-1.801,0.51-2.957,4.057-2.957,4.057h-7.063v-4.389h-1.93l-0.775-9.635h-5.26
					l-0.649-6.42l-3.342-2.369v-7.09h-1.324h-0.34h-1.334v7.09l-3.34,2.369l-0.643,6.42h-5.27l-0.768,9.635h-1.93v4.389h-7.062
					c0,0-1.155-3.547-2.957-4.057c-1.799-0.506-2.865,3.379-0.559,3.549l-0.084,17.402h9.379v29H895.3v-21.4h-25.183v21.4h-93.198
					v-29h9.382l-0.084-17.402c2.303-0.17,1.24-4.055-0.559-3.549c-1.801,0.51-2.957,4.057-2.957,4.057h-7.066v-4.389h-1.928
					l-0.768-9.635h-5.268l-0.646-6.42l-3.341-2.369v-7.09h-1.326h-0.34h-1.334v7.09l-3.334,2.369l-0.646,6.42h-5.265l-0.776,9.635
					h-1.927v4.389h-7.066c0,0-1.154-3.547-2.954-4.057c-1.801-0.506-2.863,3.379-0.553,3.549l-0.091,17.402h9.379v29h-91.438h-84.16
					v-21.4h-25.18v21.4H426.455v-29h9.381l-0.09-17.402c2.314-0.17,1.248-4.055-0.555-3.549c-1.797,0.51-2.955,4.057-2.955,4.057
					h-7.066v-4.389h-1.926l-0.771-9.635h-5.268l-0.642-6.42l-3.346-2.369v-7.09h-1.33h-0.337h-1.33v7.09l-3.341,2.369l-0.64,6.42
					h-5.271l-0.768,9.635h-1.93v4.389h-7.066c0,0-1.155-3.547-2.954-4.057c-1.8-0.506-2.868,3.379-0.556,3.549l-0.089,17.402h9.384
					v89.377h14.561h0.337h14.567h120.221h25.18h84.16h91.438h9.082h5.484h0.34h14.56h93.198H895.3h76.231h14.566h0.34H1001v-89.377
					h9.379l-0.088-17.402C1012.603,871.19,1011.533,867.306,1009.736,867.812z"/>
				<g>
					<path fill="#9E9E9E" d="M411.888,978.14h14.567v-60.377v-29h9.381l-0.09-17.402c2.314-0.17,1.248-4.055-0.555-3.549
						c-1.797,0.51-2.955,4.057-2.955,4.057h-7.066v-4.389h-1.926l-0.771-9.635h-5.268l-0.642-6.42l-3.346-2.369v-7.09h-1.33h-0.337
						V978.14H411.888z"/>
					<rect x="559.715" y="896.362" fill="#9E9E9E" width="12.141" height="81.777"/>
					<rect x="545.48" y="917.763" fill="#9E9E9E" width="1.371" height="60.377"/>
					<rect x="746.148" y="907.876" fill="#9E9E9E" width="1.367" height="70.264"/>
					<rect x="868.756" y="917.823" fill="#9E9E9E" width="1.366" height="60.316"/>
					<rect x="970.193" y="917.823" fill="#9E9E9E" width="1.369" height="60.316"/>
					<path fill="#9E9E9E" d="M762.602,978.14h14.559v-60.377v-29h9.385l-0.087-17.402c2.316-0.17,1.24-4.055-0.562-3.549
						c-1.797,0.51-2.953,4.057-2.953,4.057h-7.068v-4.389h-1.927l-0.768-9.635h-5.273l-0.638-6.42l-3.342-2.369v-7.09h-1.326h-0.344
						V978.14H762.602z"/>
					<path fill="#9E9E9E" d="M986.439,978.14H1001v-60.377v-29h9.379l-0.084-17.402c2.313-0.17,1.238-4.055-0.559-3.549
						c-1.801,0.51-2.957,4.057-2.957,4.057h-7.063v-4.389h-1.93l-0.775-9.635h-5.26l-0.649-6.42l-3.342-2.369v-7.09h-1.322h-0.342
						V978.14H986.439z"/>
					<rect x="883.072" y="896.362" fill="#9E9E9E" width="12.139" height="81.777"/>
				</g>
			</g>
		</g>
		<g id="Monas_2_">
			<g>
				<g>
					<path fill="#D9D9D9" d="M1209.438,166.071c0-9.948,3.691-23.667,6.381-29.842c2.681-6.173,7.159-27.782,7.159-27.782
						s4.477,21.609,7.167,27.782c2.687,6.175,6.381,19.895,6.381,29.842c0,4.458,8.227,15.949,8.393,26.755h-43.876
						C1201.21,182.02,1209.438,170.53,1209.438,166.071z"/>
					<path fill="#949494" d="M1209.438,166.071c0-9.948,3.691-23.667,6.381-29.842c2.479-5.699,6.48-24.515,7.076-27.381
						c0.21,3.383,2.31,29.899-0.813,39.79c-3.356,10.632-1.996,15.033,0.896,26.637c1.231,4.929,1.214,13.437,0.843,17.552h-22.778
						C1201.21,182.02,1209.438,170.53,1209.438,166.071z"/>
				</g>
				<g>
					<path fill="#CCCCCC" d="M1034.649,828.509l155.816,0.213l8.955-561.379l-10.302,0.116l-11.524-35.329v-19.434l3.438-6.661
						l-3.104-16.037h24.178h43.876h24.179l-3.107,16.037l3.441,6.661v19.434l-11.525,35.329l-10.304-0.116l8.956,561.379
						l155.816-0.213l8.954,10.521l-8.058,17.377h-25.969v4.572h-10.745c0,0-61.347,58.086-61.792,111.133h-91.787h-91.787
						c-0.443-53.047-61.785-111.133-61.785-111.133h-10.748v-4.572h-25.969l-8.06-17.377L1034.649,828.509z"/>
					<g>
						<polygon fill="#9E9E9E" points="1189.403,831.339 1221.748,831.339 1221.748,249.251 1247.603,249.338 1247.603,270.172 
							1256.559,831.552 1412.375,831.339 1421.329,841.86 1420.479,843.688 1025.477,843.688 1024.63,841.86 1033.586,831.339 
							1189.402,831.552 						"/>
						<path fill="#9E9E9E" d="M1387.303,859.253v4.557h-10.745c0,0-0.482,0.455-1.306,1.275h-304.54
							c-0.825-0.82-1.306-1.275-1.306-1.275h-10.748v-4.557H1387.303z"/>
						<polygon fill="#9E9E9E" points="1252.865,974.942 1227.235,974.942 1193.091,974.942 1193.091,912.632 1252.865,912.632 
													"/>
						<polygon fill="#9E9E9E" points="1176.531,234.959 1176.531,215.979 1269.432,215.979 1269.432,234.959 1268.911,236.561 
							1177.051,236.561 						"/>
					</g>
				</g>
			</g>
		</g>
		<g>
			<g>
				<path fill="#D9D9D9" d="M1275.011,974.283h261.73v-31.82c-7.969-17.91-17.354-15.484-20.796-23.133
					c-6.782-15.068-27.931-21.498-27.931-21.498c0.607-1.857,3.893-16.928,3.893-16.928c1.438-9.684-8.091-9.227-8.841-9.176
					c0.024-0.041,0.008-0.203-0.216-0.748c-0.377-0.932-4.553-1.68-4.553-1.68v-5.478c-2.124-1.342-10.778-7.34-10.778-7.34
					s0.686-0.309,0.76-3.336c0.076-3.021-2.808-3.332-2.808-3.332c0.757-0.619,0.732-1.602,0.732-1.602
					c-0.305-3.514-5.313-2.066-5.313-2.066c-1.719-1.863-9.79-5.451-10.93-41.766c-0.73-23.268-9.203-32.881-19.66-37.238
					c-11.977-4.99-41.096-5.555-53.407,0.131c-10.021,4.629-17.715,14.707-18.417,37.108c-1.142,36.314-9.211,39.902-10.93,41.766
					c0,0-5.011-1.447-5.316,2.066c0,0-0.021,0.982,0.735,1.602c0,0-2.884,0.31-2.806,3.332c0.075,3.027,0.758,3.336,0.758,3.336
					s-8.654,5.998-10.778,7.34v5.478c0,0-4.175,0.748-4.555,1.68c-0.222,0.545-0.238,0.707-0.219,0.748
					c-0.745-0.051-10.272-0.508-8.837,9.176c0,0,3.287,15.07,3.895,16.928c0,0-21.149,6.43-27.932,21.498
					c-3.444,7.648-12.827,5.223-20.796,23.133v32.129C1272.774,974.404,1273.877,974.283,1275.011,974.283z"/>
				<rect x="1374.691" y="795.615" fill="#A8A8A8" width="12.144" height="14.057"/>
				<rect x="1374.691" y="822.234" fill="#A8A8A8" width="12.144" height="14.059"/>
				<polygon fill="#A8A8A8" points="1374.691,822.234 1363.536,822.234 1363.536,809.545 1374.691,809.672 				"/>
				<polygon fill="#A8A8A8" points="1374.542,848.619 1363.385,848.619 1363.385,835.775 1374.542,836.057 				"/>
				<polygon fill="#A8A8A8" points="1398.148,822.348 1386.989,822.348 1386.989,809.854 1398.148,809.791 				"/>
				<polygon fill="#A8A8A8" points="1397.995,848.738 1386.836,848.738 1386.836,836.137 1397.995,836.174 				"/>
				<rect x="1398.148" y="795.615" fill="#A8A8A8" width="12.142" height="14.057"/>
				<rect x="1398.148" y="822.234" fill="#A8A8A8" width="12.142" height="14.059"/>
				<polygon fill="#A8A8A8" points="1421.602,822.348 1410.442,822.348 1410.442,809.854 1421.602,809.791 				"/>
				<polygon fill="#A8A8A8" points="1421.451,848.738 1410.29,848.738 1410.29,836.137 1421.451,836.174 				"/>
				<path fill="#A8A8A8" d="M1354.205,835.56l9.331,0.215v-13.541l-6.429-0.074C1356.318,827.965,1355.299,832.299,1354.205,835.56z
					"/>
				<path fill="#A8A8A8" d="M1363.536,809.414v-13.539l-4.393,0.039c-0.343,2.609-0.572,5.424-0.667,8.467
					c-0.057,1.748-0.131,3.396-0.216,4.996L1363.536,809.414z"/>
				<rect x="1421.602" y="795.615" fill="#A8A8A8" width="12.142" height="14.057"/>
				<rect x="1421.602" y="822.234" fill="#A8A8A8" width="12.142" height="14.059"/>
				<polygon fill="#A8A8A8" points="1433.744,822.234 1444.902,822.234 1444.902,809.545 1433.744,809.672 				"/>
				<polygon fill="#A8A8A8" points="1433.896,848.619 1445.055,848.619 1445.055,835.775 1433.896,836.057 				"/>
				<path fill="#A8A8A8" d="M1451.334,822.16l-6.432,0.074v13.541l9.327-0.215C1453.137,832.299,1452.116,827.965,1451.334,822.16z"
					/>
				<path fill="#A8A8A8" d="M1449.961,804.381c-0.096-3.051-0.329-5.863-0.682-8.467l-4.377-0.039v13.539l5.273-0.037
					C1450.093,807.777,1450.018,806.129,1449.961,804.381z"/>
				<path fill="#A8A8A8" d="M1360.972,787.029c-0.182,0.609-0.353,1.244-0.516,1.889c6.007,0.521,22.379,1.736,43.764,1.736
					c20.155,0,37.418-1.234,43.712-1.746c-0.146-0.553-0.295-1.092-0.452-1.619c-6.526,0.514-23.071,1.633-43.26,1.633
					C1383.586,788.922,1367.397,787.627,1360.972,787.029z"/>
				<path fill="#A8A8A8" d="M1416.783,750.012h-4.655l-1.62-46.314c0,0-2.514-1.895-5.296-2.4c-0.318-0.059-1.123-0.213-1.999-0.209
					c-0.938,0.01-1.948,0.188-2.344,0.279c-2.641,0.594-4.95,2.33-4.95,2.33l-1.618,46.314h-4.655l-2.411,14.377h14.977h2.009
					h14.976L1416.783,750.012z"/>
				<path fill="#A8A8A8" d="M1480.837,869.906c-1.224-0.373-2.539-0.606-2.539-0.606v-1.748
					c-8.219,6.098-31.239,19.623-74.078,19.693c-42.84-0.07-65.863-13.596-74.08-19.693v1.748c0,0-1.316,0.232-2.539,0.606
					c6.892,6.521,27.213,20.262,76.619,20.982C1453.622,890.168,1473.948,876.428,1480.837,869.906z"/>
				<path fill="#A8A8A8" d="M1489.99,881.816c1.046-0.953,1.676-1.912,2.049-2.836c-0.036-7.684-8.274-7.301-8.973-7.252
					c0.024-0.041-0.232,1.002-0.74,1.873c-0.465,0.81-1.298,1.357-2.082,1.82c-12.412,7.35-37.979,20.195-76.024,20.258
					c-38.048-0.063-63.617-12.908-76.028-20.258c-0.781-0.463-1.534-1.164-2.057-1.936c-0.354-0.525-0.52-0.844-0.769-1.758
					c-0.169,0.123-0.02-0.041,0,0c-0.692-0.049-8.931-0.432-8.97,7.248c0.372,0.922,1.003,1.887,2.053,2.84
					c13.539,12.315,38.94,21.822,85.771,22.236C1451.051,903.639,1476.451,894.131,1489.99,881.816z"/>
				<path fill="#A8A8A8" d="M1504.33,910.877c1.151-1.047,1.321-2.516,0.922-4.146c-8.168-6.139-17.237-8.899-17.237-8.899
					c0.189-0.58,0.638-2.447,1.17-4.742l-0.602-0.086c0,0-0.746,5.65-1.052,5.828c-12.409,7.356-45.266,20.508-83.312,20.572
					c-38.048-0.065-70.904-13.217-83.313-20.572c-0.307-0.178-1.054-5.828-1.054-5.828l-0.597,0.086
					c0.526,2.295,0.977,4.162,1.167,4.742c0,0-9.072,2.76-17.236,8.893c-0.401,1.637-0.23,3.105,0.918,4.152
					c13.54,12.314,53.284,24.549,100.114,24.963C1451.051,935.426,1490.796,923.191,1504.33,910.877z"/>
				<path fill="#A8A8A8" d="M1463.825,846.656c0.19-0.24,0.29-0.471,0.363-0.686c-0.713-0.16-1.483-0.131-2.106-0.055
					c-1.804,2.148-13.291,13.324-57.862,14.334c-44.576-1.01-56.063-12.185-57.863-14.334c-0.621-0.076-1.396-0.106-2.109,0.055
					c0.072,0.215,0.176,0.445,0.363,0.686c3.118,3.951,17.082,15.248,59.609,15.248
					C1446.743,861.904,1460.709,850.607,1463.825,846.656z"/>
				<path fill="#A8A8A8" d="M1465.472,849.815c0.397-0.322,0.577-0.744,0.66-1.076h-0.003c0,0-15.182,15.231-61.909,15.231
					c-46.732,0-61.911-15.231-61.911-15.231h-0.005c0.085,0.328,0.265,0.754,0.662,1.076c0,0-1.142,0.125-1.971,0.973
					c3.516,3.113,21.368,16.826,63.225,16.826c41.853,0,59.706-13.713,63.223-16.826
					C1466.617,849.94,1465.472,849.815,1465.472,849.815z"/>
			</g>
		</g>
		<g>
			<g>
				<path fill="#D9D9D9" d="M431.654,974.283h261.732v-31.82c-7.969-17.91-17.355-15.484-20.798-23.133
					c-6.781-15.068-27.931-21.498-27.931-21.498c0.607-1.857,3.894-16.928,3.894-16.928c1.437-9.684-8.091-9.227-8.841-9.176
					c0.025-0.041,0.006-0.203-0.216-0.748c-0.378-0.932-4.553-1.68-4.553-1.68v-5.478c-2.124-1.342-10.777-7.34-10.777-7.34
					s0.685-0.309,0.758-3.336c0.077-3.021-2.807-3.332-2.807-3.332c0.759-0.619,0.733-1.602,0.733-1.602
					c-0.305-3.514-5.314-2.066-5.314-2.066c-1.719-1.863-9.789-5.451-10.93-41.766c-0.732-23.268-9.204-32.881-19.66-37.238
					c-11.976-4.99-41.096-5.555-53.408,0.131c-10.02,4.629-17.715,14.707-18.418,37.108c-1.139,36.314-9.209,39.902-10.929,41.766
					c0,0-5.009-1.447-5.314,2.066c0,0-0.024,0.982,0.735,1.602c0,0-2.885,0.31-2.807,3.332c0.074,3.027,0.757,3.336,0.757,3.336
					s-8.653,5.998-10.778,7.34v5.478c0,0-4.176,0.748-4.554,1.68c-0.222,0.545-0.239,0.707-0.218,0.748
					c-0.746-0.051-10.275-0.508-8.838,9.176c0,0,3.286,15.07,3.895,16.928c0,0-21.15,6.43-27.932,21.498
					c-3.443,7.648-12.828,5.223-20.797,23.133v32.129C429.42,974.404,430.52,974.283,431.654,974.283z"/>
				<rect x="531.337" y="795.615" fill="#A8A8A8" width="12.145" height="14.057"/>
				<rect x="531.337" y="822.234" fill="#A8A8A8" width="12.145" height="14.059"/>
				<polygon fill="#A8A8A8" points="531.337,822.234 520.18,822.234 520.18,809.545 531.337,809.672 				"/>
				<polygon fill="#A8A8A8" points="531.185,848.619 520.029,848.619 520.029,835.775 531.185,836.057 				"/>
				<polygon fill="#A8A8A8" points="554.792,822.348 543.633,822.348 543.633,809.854 554.792,809.791 				"/>
				<polygon fill="#A8A8A8" points="554.639,848.738 543.482,848.738 543.482,836.137 554.639,836.174 				"/>
				<rect x="554.792" y="795.615" fill="#A8A8A8" width="12.142" height="14.057"/>
				<rect x="554.792" y="822.234" fill="#A8A8A8" width="12.142" height="14.059"/>
				<polygon fill="#A8A8A8" points="578.245,822.348 567.086,822.348 567.086,809.854 578.245,809.791 				"/>
				<polygon fill="#A8A8A8" points="578.095,848.738 566.934,848.738 566.934,836.137 578.095,836.174 				"/>
				<path fill="#A8A8A8" d="M510.851,835.56l9.329,0.215v-13.541l-6.427-0.074C512.965,827.965,511.942,832.299,510.851,835.56z"/>
				<path fill="#A8A8A8" d="M520.18,809.414v-13.539l-4.393,0.039c-0.343,2.609-0.571,5.424-0.668,8.467
					c-0.055,1.748-0.131,3.396-0.213,4.996L520.18,809.414z"/>
				<rect x="578.245" y="795.615" fill="#A8A8A8" width="12.144" height="14.057"/>
				<rect x="578.245" y="822.234" fill="#A8A8A8" width="12.144" height="14.059"/>
				<polygon fill="#A8A8A8" points="590.389,822.234 601.546,822.234 601.546,809.545 590.389,809.672 				"/>
				<polygon fill="#A8A8A8" points="590.541,848.619 601.698,848.619 601.698,835.775 590.541,836.057 				"/>
				<path fill="#A8A8A8" d="M607.977,822.16l-6.431,0.074v13.541l9.329-0.215C609.782,832.299,608.76,827.965,607.977,822.16z"/>
				<path fill="#A8A8A8" d="M606.605,804.381c-0.097-3.051-0.329-5.863-0.682-8.467l-4.378-0.039v13.539l5.274-0.037
					C606.736,807.777,606.662,806.129,606.605,804.381z"/>
				<path fill="#A8A8A8" d="M517.615,787.029c-0.181,0.609-0.352,1.244-0.515,1.889c6.007,0.521,22.379,1.736,43.764,1.736
					c20.156,0,37.417-1.234,43.711-1.746c-0.146-0.553-0.295-1.092-0.452-1.619c-6.527,0.514-23.071,1.633-43.259,1.633
					C540.231,788.922,524.042,787.627,517.615,787.029z"/>
				<path fill="#A8A8A8" d="M573.429,750.012h-4.656l-1.62-46.314c0,0-2.516-1.895-5.297-2.4c-0.317-0.059-1.123-0.213-1.997-0.209
					c-0.939,0.01-1.948,0.188-2.345,0.279c-2.642,0.594-4.951,2.33-4.951,2.33l-1.617,46.314h-4.654l-2.413,14.377h14.977h2.01
					h14.976L573.429,750.012z"/>
				<path fill="#A8A8A8" d="M637.481,869.906c-1.224-0.373-2.539-0.606-2.539-0.606v-1.748c-8.218,6.098-31.24,19.623-74.078,19.693
					c-42.841-0.07-65.862-13.596-74.081-19.693v1.748c0,0-1.316,0.232-2.537,0.606c6.89,6.521,27.213,20.262,76.618,20.982
					C610.268,890.168,630.592,876.428,637.481,869.906z"/>
				<path fill="#A8A8A8" d="M646.635,881.816c1.046-0.953,1.677-1.912,2.049-2.836c-0.036-7.684-8.275-7.301-8.973-7.252
					c0.025-0.041-0.233,1.002-0.74,1.873c-0.466,0.81-1.299,1.357-2.08,1.82c-12.414,7.35-37.98,20.195-76.026,20.258
					c-38.048-0.063-63.618-12.908-76.029-20.258c-0.78-0.463-1.534-1.164-2.056-1.936c-0.353-0.525-0.522-0.844-0.768-1.758
					c-0.17,0.123-0.022-0.041,0,0c-0.693-0.049-8.932-0.432-8.972,7.248c0.373,0.922,1.005,1.887,2.054,2.84
					c13.538,12.315,38.939,21.822,85.77,22.236C607.694,903.639,633.094,894.131,646.635,881.816z"/>
				<path fill="#A8A8A8" d="M660.976,910.877c1.149-1.047,1.319-2.516,0.919-4.146c-8.166-6.139-17.236-8.899-17.236-8.899
					c0.189-0.58,0.638-2.447,1.17-4.742l-0.602-0.086c0,0-0.746,5.65-1.051,5.828c-12.41,7.356-45.266,20.508-83.312,20.572
					c-38.048-0.065-70.903-13.217-83.313-20.572c-0.306-0.178-1.053-5.828-1.053-5.828l-0.599,0.086
					c0.529,2.295,0.979,4.162,1.169,4.742c0,0-9.072,2.76-17.238,8.893c-0.4,1.637-0.23,3.105,0.92,4.152
					c13.539,12.314,53.283,24.549,100.114,24.963C607.694,935.426,647.44,923.191,660.976,910.877z"/>
				<path fill="#A8A8A8" d="M620.471,846.656c0.188-0.24,0.29-0.471,0.362-0.686c-0.714-0.16-1.483-0.131-2.107-0.055
					c-1.802,2.148-13.289,13.324-57.861,14.334c-44.575-1.01-56.062-12.185-57.864-14.334c-0.62-0.076-1.397-0.106-2.109,0.055
					c0.073,0.215,0.177,0.445,0.365,0.686c3.117,3.951,17.08,15.248,59.608,15.248C603.389,861.904,617.352,850.607,620.471,846.656
					z"/>
				<path fill="#A8A8A8" d="M622.116,849.815c0.397-0.322,0.577-0.744,0.659-1.076h-0.003c0,0-15.181,15.231-61.908,15.231
					c-46.731,0-61.911-15.231-61.911-15.231h-0.006c0.086,0.328,0.266,0.754,0.664,1.076c0,0-1.145,0.125-1.973,0.973
					c3.517,3.113,21.369,16.826,63.226,16.826c41.854,0,59.706-13.713,63.224-16.826
					C623.261,849.94,622.116,849.815,622.116,849.815z"/>
			</g>
		</g>
		<g opacity="0.2">
			<path fill="#191919" d="M437.138,483.375c-14.617-7.058-31.364-10.591-50.244-10.591H305.37v172.407h81.523
				c18.88,0,35.627-3.531,50.244-10.592c14.611-7.059,25.941-17.074,33.987-30.049c8.044-12.967,12.069-28.16,12.069-45.564
				c0-17.402-4.025-32.589-12.069-45.563C463.079,500.454,451.75,490.435,437.138,483.375z M420.513,593.714
				c-8.951,8.375-20.813,12.563-35.59,12.563h-30.787v-94.578h30.787c14.777,0,26.639,4.188,35.59,12.561
				c8.947,8.373,13.423,19.951,13.423,34.726C433.936,573.765,429.46,585.339,420.513,593.714z"/>
			<path fill="#191919" d="M697.341,549.258c-8.621-3.203-19.5-6.196-32.634-8.989c-11.661-2.463-20.116-4.842-25.369-7.145
				c-5.256-2.296-7.881-5.745-7.881-10.344c0-4.594,2.217-8.332,6.649-11.207c4.434-2.869,11.491-4.309,21.182-4.309
				c15.432,0,31.359,4.434,47.781,13.299l15.023-36.204c-8.374-4.925-18.064-8.659-29.063-11.207
				c-11.003-2.544-22.166-3.817-33.496-3.817c-16.586,0-30.582,2.463-41.993,7.389c-11.413,4.925-19.991,11.619-25.737,20.074
				c-5.749,8.458-8.619,17.939-8.619,28.447c0,11.986,3.115,21.509,9.357,28.568c6.238,7.064,13.708,12.191,22.413,15.394
				c8.701,3.201,19.538,6.201,32.511,8.988c11.822,2.629,20.399,5.135,25.738,7.512c5.334,2.383,8.004,6.037,8.004,10.959
				c0,9.359-9.359,14.041-28.077,14.041c-9.852,0-19.869-1.56-30.048-4.682c-10.183-3.113-19.131-7.221-26.846-12.313l-16.01,35.959
				c8.209,5.75,18.881,10.344,32.018,13.791c13.135,3.447,26.681,5.172,40.638,5.172c16.418,0,30.375-2.504,41.871-7.512
				c11.49-5.004,20.111-11.697,25.859-20.072c5.747-8.373,8.621-17.732,8.621-28.076c0-11.984-3.164-21.467-9.482-28.445
				C713.429,557.552,705.96,552.461,697.341,549.258z"/>
			<rect x="508.806" y="472.784" fill="#191919" width="48.766" height="172.407"/>
		</g>
		<g>
			<path fill="#191919" d="M423.703,469.94c-14.617-7.058-31.364-10.591-50.244-10.591h-81.523v172.407h81.523
				c18.88,0,35.627-3.531,50.244-10.592c14.611-7.059,25.941-17.074,33.987-30.049c8.044-12.967,12.069-28.16,12.069-45.564
				c0-17.402-4.025-32.589-12.069-45.563C449.644,487.019,438.315,477,423.703,469.94z M407.078,580.279
				c-8.951,8.375-20.813,12.563-35.59,12.563h-30.787v-94.578h30.787c14.777,0,26.639,4.188,35.59,12.561
				c8.947,8.373,13.423,19.951,13.423,34.726C420.501,560.33,416.025,571.904,407.078,580.279z"/>
			<path fill="#191919" d="M683.906,535.823c-8.621-3.203-19.5-6.196-32.634-8.989c-11.661-2.463-20.116-4.842-25.369-7.145
				c-5.256-2.296-7.881-5.745-7.881-10.344c0-4.594,2.217-8.332,6.649-11.207c4.434-2.869,11.491-4.309,21.182-4.309
				c15.432,0,31.359,4.434,47.781,13.299l15.023-36.204c-8.374-4.925-18.064-8.659-29.063-11.207
				c-11.003-2.544-22.166-3.817-33.496-3.817c-16.586,0-30.582,2.463-41.993,7.389c-11.413,4.925-19.991,11.619-25.737,20.074
				c-5.749,8.458-8.619,17.939-8.619,28.447c0,11.986,3.115,21.509,9.357,28.568c6.238,7.064,13.708,12.191,22.413,15.394
				c8.701,3.201,19.538,6.201,32.511,8.988c11.822,2.629,20.399,5.135,25.738,7.512c5.334,2.383,8.004,6.037,8.004,10.959
				c0,9.359-9.359,14.041-28.077,14.041c-9.852,0-19.869-1.56-30.048-4.682c-10.183-3.113-19.131-7.221-26.846-12.313l-16.01,35.959
				c8.209,5.75,18.881,10.344,32.018,13.791c13.135,3.447,26.681,5.172,40.638,5.172c16.418,0,30.375-2.504,41.871-7.512
				c11.49-5.004,20.111-11.697,25.859-20.072c5.747-8.373,8.621-17.732,8.621-28.076c0-11.984-3.164-21.467-9.482-28.445
				C699.994,544.117,692.525,539.026,683.906,535.823z"/>
			<rect x="495.371" y="459.349" fill="#191919" width="48.766" height="172.407"/>
		</g>
	</g>
	<g>
		<defs>
			<path id="SVGID_4_" d="M954.084,623.627c14.532,7.719,30.912,11.574,49.137,11.574c18.226,0,34.603-3.855,49.135-11.574
				c14.529-7.715,25.94-18.387,34.234-32.018c8.29-13.627,12.438-28.979,12.438-46.059c0-17.074-4.147-32.426-12.438-46.056
				c-8.294-13.627-19.705-24.299-34.234-32.017c-14.532-7.716-30.909-11.576-49.135-11.576c-18.225,0-34.605,3.86-49.137,11.576
				c-14.531,7.719-25.945,18.391-34.234,32.017c-8.293,13.63-12.438,28.983-12.438,46.056c0,17.08,4.145,32.432,12.438,46.059
				C928.139,605.24,939.553,615.912,954.084,623.627z M962.826,519.815c4.104-7.471,9.689-13.258,16.749-17.363
				c7.058-4.104,14.938-6.158,23.646-6.158c8.699,0,16.582,2.055,23.643,6.158c7.058,4.105,12.642,9.893,16.749,17.363
				c4.102,7.473,6.158,16.051,6.158,25.736c0,9.689-2.057,18.27-6.158,25.74c-4.107,7.471-9.691,13.26-16.749,17.363
				c-7.061,4.105-14.943,6.156-23.643,6.156c-8.708,0-16.588-2.051-23.646-6.156c-7.06-4.104-12.645-9.893-16.749-17.363
				c-4.104-7.471-6.156-16.051-6.156-25.74C956.67,535.866,958.723,527.288,962.826,519.815z M1010.064,867.766
				c-0.106-0.001-0.215,0.014-0.328,0.045c-1.801,0.51-2.957,4.057-2.957,4.057h-7.063v-4.389h-1.93l-0.775-9.635h-5.26l-0.649-6.42
				l-3.342-2.369v-7.09h-1.322h-0.002h-0.34h-1.334v7.09l-3.34,2.369l-0.643,6.42h-5.27l-0.768,9.635h-1.93v4.389h-7.062
				c0,0-1.155-3.547-2.957-4.057c-1.799-0.506-2.865,3.379-0.559,3.549l-0.084,17.402h9.379v29H895.3v-21.4h-0.089h-12.139h-12.955
				v21.4H777.16v-29h9.141h0.244l-0.087-17.402c2.226-0.163,1.317-3.747-0.357-3.577c-0.142-0.016-0.288-0.015-0.443,0.028
				c-1.801,0.51-2.957,4.057-2.957,4.057h-6.826v-4.389h-0.24h-0.836v-30.961l67.504,6.758v-23.432c0,0,0.017-0.002,0.043-0.006
				c0.003,0,0.005-0.001,0.009-0.001c0.029-0.004,0.074-0.011,0.131-0.019c0.001,0,0.001,0,0.002,0
				c2.964-0.445,42.065-6.704,53.602-28.805c0,0-79.146-62.176-133.281-62.176l-1.627-18.703c0,0,19.016,1.019,23.645,3.719
				l0.254-18.246c0,0,13.621-5.408,21.584-10.814c0,0-7.705-21.623-52.674-38.184c-0.455-4.678-1.545-16.645-1.545-21.627
				c0,0,16.7,1.016,19.274,2.363v-18.242c0,0,10.02-3.719,13.875-7.438c0,0-12.849-16.557-40.088-29.395v-1.838V559.09
				c0,0,4.629-0.676,10.021,2.698l1.028-16.553c0,0,9.766-3.042,15.163-6.085c0,0-3.337-8.094-33.843-25.296
				c0.031-0.327-0.027-1.233-0.077-2.085v-1.719v-10.435c0,0,7.838,2.534,9.895,3.211c2.053,0.675,2.053,0.675,2.053,0.675
				l-0.128-14.359c0,0,16.661-4.73,17.427-5.915c0,0-0.16-0.283-0.54-0.795c-0.001,0-0.002,0-0.003,0
				c-2.06-2.799-10.492-12.568-33.714-22.413c0.059,0-0.042-1.451-0.148-2.943l-0.161-3.199c0,0,0-0.003,0.001-0.003l-0.34-6.747
				c0,0,9.514,1.127,10.412,2.309l-0.259-12.164c0,0,10.668-0.677,16.188-6.927c0,0-20.557-14.701-31.092-20.107v-8.278
				c0,0,5.65,1.858,8.352,2.026l-0.643-10.645c0,0,0.222-0.002,0.591-0.025c0.001,0,0.001,0,0.002,0
				c1.505-0.095,5.69-0.588,9.681-3.027c0.013-0.008,0.026-0.016,0.039-0.024c0.312-0.192,0.621-0.396,0.93-0.613
				c0.014-0.01,0.028-0.018,0.042-0.028c-0.001,0-0.002,0-0.003,0c0.576-0.408,1.146-0.847,1.693-1.35
				c0,0-15.287-13.349-25.054-17.91v-1.116v-9.865c0,0,6.037,2.026,8.354,2.026l0.129-8.785c0,0,0.024-0.003,0.07-0.009
				c0.7-0.088,7.479-0.997,13.805-3.877c0,0-13.492-13.516-26.212-16.896v-8.953h8.092l0.132-5.747c0,0,0.259-0.069,0.67-0.183
				c0.01-0.003,0.017-0.005,0.028-0.008c2.128-0.593,8.575-2.485,9.968-4.033c0,0-13.109-12.502-22.102-14.192l-0.645-10.981h8.227
				v-4.393c0,0,0.022-0.004,0.056-0.011c0.016-0.003,0.031-0.006,0.056-0.011c0.026-0.005,0.054-0.011,0.09-0.018
				c1.107-0.223,6.857-1.394,9.175-2.155c0,0-2.823-6.253-19.918-12.673v-11.997c0,0,6.941,1.184,7.326,1.014
				c0.388-0.168,1.158-5.066,1.158-5.066s6.807-3.21,7.838-3.21c1.026,0-9.641-11.998-24.025-13.519l-0.645-16.219
				c0,0-0.127-1.774-2.248-3.21c-2.383-1.614-3.406-0.845-3.406-0.845s-1.025-0.77-3.406,0.845c-2.119,1.435-2.246,3.21-2.246,3.21
				l-0.646,16.219c-14.386,1.521-25.054,13.519-24.023,13.519c0.375,0,1.526,0.431,2.833,0.975h0l5.008,2.235
				c0,0,0.767,4.898,1.15,5.066c0.387,0.17,7.324-1.014,7.324-1.014v11.997c-17.088,6.42-19.916,12.673-19.916,12.673
				c0.821,0.27,2.076,0.591,3.403,0.904h-0.001l0.009,0.002c2.822,0.665,5.967,1.29,5.967,1.29v4.393h8.107l0.082,0.659
				l-0.606,10.322c-8.994,1.691-22.1,14.192-22.1,14.192c0.642,0.713,2.359,1.499,4.232,2.198c0,0-0.007,0.001-0.007,0.001
				l0.063,0.02c3,1.116,6.377,2.005,6.377,2.005l0.129,5.747h8.096v8.953c-1.586,0.419-3.185,1.001-4.762,1.689
				c-0.006,0.003-0.012,0.005-0.017,0.007c-0.002,0.001-0.004,0.002-0.006,0.003l0.002-0.001
				c-11.103,4.852-21.43,15.198-21.43,15.198c6.68,3.041,13.876,3.886,13.876,3.886l0.128,8.785c2.317,0,8.356-2.026,8.356-2.026
				v10.981c-0.412,0.192-0.836,0.405-1.266,0.627c-0.088,0.045-0.176,0.091-0.264,0.138c-0.88,0.462-1.791,0.979-2.723,1.539
				c-0.06,0.036-0.12,0.072-0.18,0.109c-9.367,5.671-20.625,15.497-20.625,15.497c1.436,1.317,3,2.285,4.531,3.007
				c0,0-0.005,0.001-0.005,0.001l0.013,0.003c4.358,2.051,8.436,2.057,8.436,2.057l-0.645,10.645
				c2.702-0.168,8.356-2.026,8.356-2.026v8.209c-0.447,0.256-0.807,0.482,0,0.069c-10.537,5.406-31.094,20.107-31.094,20.107
				c1.309,1.481,2.908,2.646,4.584,3.566h0l0.001,0c5.397,2.963,11.605,3.361,11.605,3.361l-0.257,12.164
				c3.067-0.667,10.407-2.309,10.407-2.309l-0.501,10.032c-6.362-0.83-12.776-1.26-19.245-1.26c-16.586,0-30.582,2.463-41.993,7.389
				c-11.413,4.925-19.991,11.619-25.737,20.074c-5.749,8.458-8.619,17.939-8.619,28.447c0,11.986,3.115,21.509,9.357,28.568
				c6.238,7.064,13.708,12.191,22.413,15.394c8.701,3.201,19.538,6.201,32.511,8.988c7.434,1.653,13.583,3.258,18.453,4.812v2.428
				v0.267c-16.292,7.678-27.432,16.683-33.759,22.684c-3.012-0.654-6.036-1.43-9.077-2.362
				c-10.183-3.113-19.131-7.221-26.846-12.313l-16.01,35.959c8.209,5.75,18.881,10.344,32.018,13.791
				c13.135,3.447,26.681,5.172,40.638,5.172c1.896,0,3.755-0.037,5.585-0.104c-0.347,4.542-0.785,9.073-1.034,11.511
				c-44.97,16.56-52.68,38.184-52.68,38.184c2.488,1.688,5.528,3.377,8.532,4.9h-0.001l0.007,0.003
				c6.614,3.355,13.053,5.911,13.053,5.911l0.253,18.246c5.941-2.324,23.643-3.719,23.643-3.719l-1.626,18.67h0.001l-0.003,0.033
				c-20.453,0-44.474,8.877-66.451,19.921l-1.576-45.06c0,0-2.516-1.895-5.297-2.4c-0.317-0.059-1.123-0.213-1.997-0.209
				c-0.939,0.01-1.948,0.188-2.345,0.279c-2.642,0.594-4.951,2.33-4.951,2.33l-1.617,46.314h-4.654l-2.063,12.293
				c-1.696,1.018-3.359,2.032-4.987,3.038c-2.141,0.538-4.073,1.178-5.703,1.931c-4.016,1.855-7.656,4.589-10.625,8.637
				c-12.858,8.696-21.017,15.102-21.017,15.102c2.951,5.652,7.707,10.266,13.199,14.014c-0.024,0.704-0.05,1.397-0.079,2.076
				c-0.025,0.576-0.053,1.138-0.081,1.698c-0.269,5.318-0.697,9.852-1.233,13.719c-0.082,0.591-0.165,1.176-0.252,1.737
				c-0.003,0.021-0.007,0.04-0.01,0.061c-0.728,4.68-1.614,8.305-2.553,11.133c-2.653,7.989-5.712,9.63-6.695,10.695
				c0,0-0.499-0.143-1.19-0.23l0,0c-0.003,0-0.007-0.001-0.01-0.001c-0.151-0.019-0.311-0.034-0.477-0.045
				c-0.004,0-0.009,0-0.013-0.001c-0.166-0.011-0.336-0.015-0.51-0.015c-0.008,0-0.015,0-0.023,0
				c-0.171,0.001-0.343,0.011-0.516,0.028c-0.011,0.001-0.021,0.002-0.032,0.003c-0.169,0.017-0.336,0.044-0.501,0.08
				c-0.009,0.002-0.018,0.002-0.026,0.004c0,0,0,0.001,0.001,0.001c-1.01,0.226-1.892,0.831-2.015,2.241
				c0,0-0.003,0.225,0.073,0.525h-0.002c0.002,0.007,0.005,0.015,0.007,0.022c0.012,0.045,0.029,0.093,0.045,0.14
				c0.013,0.038,0.023,0.073,0.038,0.112c0.021,0.054,0.05,0.109,0.077,0.164c0.019,0.038,0.034,0.075,0.055,0.113
				c0.028,0.05,0.066,0.098,0.1,0.147c0.03,0.043,0.055,0.086,0.089,0.127c0.073,0.088,0.156,0.172,0.252,0.251
				c0,0-0.017,0.002-0.042,0.006c-0.007,0.001-0.011,0.002-0.02,0.003c-0.027,0.004-0.063,0.011-0.108,0.02
				c-0.013,0.003-0.023,0.005-0.037,0.008c-0.053,0.011-0.113,0.026-0.182,0.044c-0.007,0.002-0.013,0.003-0.021,0.005
				c-0.159,0.043-0.351,0.108-0.56,0.201c-0.012,0.006-0.025,0.012-0.037,0.018c-0.091,0.042-0.183,0.089-0.276,0.143
				c-0.018,0.01-0.035,0.02-0.052,0.03c-0.1,0.059-0.199,0.125-0.298,0.2c-0.007,0.005-0.013,0.009-0.02,0.014
				c-0.628,0.481-1.187,1.288-1.152,2.641c0.074,3.027,0.757,3.336,0.757,3.336s-8.653,5.998-10.778,7.34v3.73v1.748
				c0,0-1.316,0.232-2.537,0.606c0,0,0.001,0.001,0.002,0.001c-0.955,0.29-1.852,0.664-2.018,1.073
				c-0.222,0.545-0.239,0.707-0.218,0.748c-0.038-0.003-0.103-0.006-0.183-0.009c-0.016-0.001-0.025-0.001-0.042-0.002
				c-0.088-0.003-0.199-0.005-0.325-0.006c-0.017,0-0.031,0-0.049,0c-0.137,0-0.294,0.003-0.466,0.01
				c-0.01,0-0.019,0.001-0.029,0.001c-2.651,0.107-8.931,1.19-7.744,9.182c0,0,2.79,12.795,3.704,16.254
				c0.002,0.007,0.004,0.014,0.005,0.02c0.033,0.124,0.063,0.236,0.091,0.334c0.005,0.019,0.011,0.039,0.016,0.057
				c0.029,0.103,0.056,0.194,0.079,0.262c0,0-0.029,0.009-0.076,0.024c-0.019,0.006-0.033,0.01-0.062,0.02
				c-0.054,0.017-0.124,0.04-0.211,0.069c-0.031,0.01-0.055,0.018-0.09,0.03c-0.123,0.041-0.266,0.089-0.437,0.148
				c-0.007,0.002-0.011,0.004-0.018,0.006c-0.179,0.062-0.385,0.135-0.611,0.217c-0.04,0.014-0.082,0.03-0.123,0.045
				c-0.193,0.07-0.402,0.148-0.625,0.232c-0.06,0.023-0.118,0.045-0.18,0.068c-0.251,0.096-0.516,0.199-0.799,0.311
				c-0.031,0.012-0.058,0.023-0.089,0.035c-0.322,0.129-0.662,0.268-1.019,0.418c-0.043,0.018-0.089,0.038-0.133,0.057
				c-0.303,0.128-0.617,0.264-0.942,0.406c-0.095,0.042-0.189,0.084-0.286,0.127c-0.311,0.139-0.631,0.284-0.959,0.437
				c-0.081,0.038-0.159,0.073-0.24,0.111c-0.411,0.193-0.832,0.395-1.265,0.609c-0.049,0.024-0.1,0.051-0.149,0.075
				c-0.373,0.186-0.753,0.38-1.138,0.582c-0.127,0.066-0.254,0.134-0.381,0.202c-0.331,0.176-0.665,0.357-1.002,0.545
				c-0.13,0.072-0.258,0.142-0.389,0.216c-0.452,0.255-0.907,0.517-1.367,0.792c-0.053,0.032-0.107,0.066-0.16,0.098
				c-0.403,0.243-0.807,0.494-1.213,0.753c-0.163,0.104-0.325,0.211-0.488,0.317c-0.306,0.199-0.611,0.403-0.916,0.612
				c-0.176,0.12-0.352,0.24-0.528,0.363c-0.342,0.24-0.683,0.487-1.024,0.739c-0.106,0.078-0.213,0.15-0.318,0.229
				c0,0.001,0,0.002-0.001,0.003c-3.86,2.901-7.513,6.559-9.914,11.035h-23.46v-29h9.381l-0.09-17.402
				c2.314-0.17,1.248-4.055-0.555-3.549c-1.797,0.51-2.955,4.057-2.955,4.057h-7.066v-4.389h-1.926l-0.771-9.635h-5.268l-0.642-6.42
				l-3.346-2.369v-7.09h-1.33h-0.337h-1.33v7.09l-3.341,2.369l-0.64,6.42h-5.271l-0.768,9.635h-1.93v4.389h-7.066
				c0,0-1.155-3.547-2.954-4.057c-1.8-0.506-2.868,3.379-0.556,3.549l-0.089,17.402h9.384v89.377h14.561h0.337h14.567H545.48h1.195
				h0.176h12.863h12.141h84.16h90.133h1.305h0.063h9.02h5.484h0.238h0.102h0.242h14.317h0.241h91.596h1.361h0.005h12.95h12.139
				h0.089h74.894h1.338h0.031h14.535h0.34h0.002H1001v-60.377v-29h9.379l-0.084-17.402
				C1012.463,871.201,1011.654,867.777,1010.064,867.766z M617.538,846.146c0,0-0.003,0.001-0.003,0.001
				c-0.908-0.984-3.586-2.453-6.08-8.963l6.083-0.665V846.146z M660.195,513.81c-7.464,4.206-13.295,7.864-17.861,10.998
				c-7.149-1.748-12.632-3.453-16.431-5.118c-5.256-2.296-7.881-5.745-7.881-10.344c0-4.594,2.217-8.332,6.649-11.207
				c4.434-2.869,11.491-4.309,21.182-4.309c0.823,0,1.649,0.019,2.475,0.044l-0.086,9.498c0,0,0.001,0,0.001,0l-0.001,0.13
				c0,0,0,0,2.057-0.675c2.056-0.677,9.897-3.211,9.897-3.211V513.81z M1515.945,919.33c-2.609-5.796-7.344-10.309-12.183-13.675
				c-0.046-0.032-0.092-0.063-0.138-0.095c-0.464-0.321-0.929-0.631-1.393-0.931c-0.036-0.023-0.073-0.047-0.109-0.071
				c-1.012-0.65-2.018-1.251-3.001-1.803c-0.01-0.006-0.02-0.011-0.031-0.017c-0.476-0.267-0.945-0.522-1.408-0.766
				c-0.03-0.016-0.06-0.032-0.09-0.048c-1.419-0.746-2.76-1.385-3.969-1.922c-0.037-0.017-0.074-0.033-0.111-0.049
				c-1.19-0.526-2.242-0.951-3.101-1.277c-0.036-0.014-0.071-0.027-0.107-0.04c-0.253-0.096-0.49-0.184-0.706-0.262
				c-0.021-0.007-0.042-0.015-0.062-0.023c-0.466-0.168-0.831-0.294-1.09-0.38c-0.031-0.01-0.052-0.017-0.081-0.027
				c-0.091-0.03-0.163-0.053-0.218-0.071c-0.027-0.009-0.039-0.013-0.058-0.018c-0.048-0.015-0.077-0.024-0.077-0.024
				c0.022-0.068,0.049-0.159,0.078-0.261c0.005-0.019,0.012-0.042,0.017-0.063c0.027-0.096,0.057-0.205,0.089-0.326
				c0.002-0.009,0.005-0.018,0.007-0.028c0.914-3.464,3.701-16.25,3.701-16.25c1.187-7.993-5.094-9.076-7.746-9.182
				c-0.009,0-0.017-0.001-0.026-0.001c-0.173-0.007-0.33-0.01-0.468-0.01c-0.018,0-0.032,0-0.049,0
				c-0.126,0.001-0.237,0.003-0.326,0.006c-0.017,0.001-0.025,0.001-0.041,0.002c-0.081,0.003-0.147,0.007-0.185,0.009
				c0.024-0.041,0.008-0.203-0.216-0.748c-0.165-0.409-1.062-0.782-2.016-1.072c0-0.001,0.001-0.001,0.002-0.002
				c-1.224-0.373-2.539-0.606-2.539-0.606v-1.748v-3.73c-2.124-1.342-10.778-7.34-10.778-7.34s0.686-0.309,0.76-3.336
				c0.034-1.356-0.528-2.163-1.158-2.644c-0.001-0.001-0.003-0.002-0.004-0.003c-0.103-0.079-0.208-0.147-0.312-0.209
				c-0.016-0.01-0.033-0.019-0.049-0.028c-0.094-0.053-0.186-0.101-0.276-0.143c-0.013-0.006-0.026-0.013-0.039-0.019
				c-0.207-0.092-0.399-0.157-0.557-0.2c-0.01-0.003-0.017-0.004-0.027-0.007c-0.067-0.018-0.125-0.032-0.177-0.042
				c-0.015-0.003-0.026-0.005-0.039-0.008c-0.044-0.009-0.079-0.015-0.106-0.019c-0.009-0.002-0.014-0.002-0.021-0.003
				c-0.026-0.004-0.042-0.006-0.042-0.006c0.095-0.078,0.178-0.162,0.25-0.248c0.048-0.058,0.085-0.118,0.124-0.178
				c0.02-0.031,0.045-0.061,0.063-0.092c0.029-0.05,0.05-0.099,0.073-0.149c0.021-0.044,0.044-0.088,0.061-0.131
				c0.012-0.032,0.021-0.061,0.031-0.092c0.021-0.062,0.042-0.123,0.057-0.181c0-0.002,0.001-0.003,0.001-0.005h0
				c0.076-0.3,0.073-0.525,0.073-0.525c-0.122-1.411-1.006-2.015-2.016-2.241c0,0,0-0.001,0-0.001
				c-0.006-0.001-0.013-0.002-0.02-0.003c-0.168-0.037-0.337-0.064-0.509-0.081c-0.01-0.001-0.019-0.002-0.029-0.003
				c-0.173-0.017-0.345-0.026-0.516-0.028c-0.008,0-0.016,0-0.024-0.001c-0.175-0.001-0.347,0.004-0.514,0.015
				c-0.002,0-0.005,0-0.007,0c-0.933,0.063-1.681,0.276-1.681,0.276c-0.99-1.073-4.085-2.732-6.751-10.868
				c-0.101-0.31-0.203-0.622-0.303-0.95c-0.029-0.095-0.057-0.198-0.086-0.294c-0.91-3.057-1.75-6.927-2.417-11.874l-0.004,0
				c-0.5-3.692-0.901-7.988-1.163-12.975c-0.038-0.731-0.074-1.47-0.107-2.228c-0.036-0.845-0.071-1.693-0.099-2.577
				c-0.024-0.757-0.057-1.497-0.097-2.225c-0.003-0.059-0.008-0.116-0.011-0.175c-0.284-4.997-0.947-9.321-1.922-13.072
				c0,0,0,0,0.001,0c-0.005-0.019-0.01-0.036-0.015-0.055c-3.232-12.379-9.879-18.487-17.615-21.711
				c-2.872-1.197-6.737-2.136-11.113-2.799l-2.405-14.332h-4.655l-1.62-46.314c0,0-2.514-1.895-5.296-2.4
				c-0.318-0.059-1.123-0.213-1.999-0.209c-0.938,0.01-1.948,0.188-2.344,0.279c-2.641,0.594-4.95,2.33-4.95,2.33l-1.618,46.314
				h-4.655l-2.411,14.377c-4.029,0.666-7.602,1.62-10.341,2.885c-7.325,3.383-13.402,9.685-16.418,21.575
				c-0.006,0.024-0.013,0.046-0.019,0.07c0,0,0.001,0,0.002,0c-0.541,2.145-0.983,4.472-1.314,6.996h0c0,0.002,0,0.004-0.001,0.007
				c-0.083,0.636-0.16,1.284-0.229,1.945c-0.002,0.022-0.005,0.043-0.007,0.064c-0.063,0.612-0.121,1.234-0.172,1.868
				c-0.007,0.083-0.015,0.163-0.021,0.246c-0.044,0.567-0.082,1.145-0.116,1.729c-0.009,0.146-0.02,0.288-0.027,0.435
				c-0.038,0.712-0.07,1.435-0.093,2.174c-0.028,0.894-0.064,1.753-0.1,2.609c-0.035,0.803-0.074,1.59-0.115,2.365
				c-0.263,4.929-0.662,9.178-1.158,12.835c-0.323,2.374-0.687,4.49-1.076,6.398l-98.405,0.134l-4.39-275.18l40.369-94.192h-41.871
				l-3.063-192.007l10.304,0.116l11.525-35.329v-19.434l-3.441-6.661l3.107-16.037h-24.179h-1.297
				c-1.319-9.922-8.159-19.855-8.159-23.926c0-9.948-3.694-23.667-6.381-29.842c-2.69-6.173-7.167-27.782-7.167-27.782
				s-3.676,17.736-6.361,25.662c-0.001,0.003-0.002,0.007-0.003,0.011c-0.086,0.254-0.171,0.495-0.255,0.728
				c-0.008,0.021-0.016,0.044-0.023,0.065c-0.079,0.218-0.156,0.423-0.233,0.62c-0.01,0.027-0.021,0.057-0.032,0.084
				c-0.086,0.218-0.17,0.423-0.252,0.613c-2.689,6.175-6.381,19.894-6.381,29.842c0,4.071-6.841,14.004-8.161,23.926h-23.348
				l3.104,16.037l-3.438,6.661v3.283h-1.063v18.981l0.52,1.602h1.99l10.079,30.897l10.302-0.116l-4.745,297.433l-43.926-105.426
				h-52.706l73.642,172.407h21.922l-3.142,196.966l-155.816-0.213l-8.956,10.521l0.475,1.023l-1.538,1.807l0.847,1.828h2.377
				l5.899,12.719h25.969v2.846h-1.063v4.557h10.748c0,0,0.48,0.455,1.306,1.275h3.874c13.753,14.129,57.296,62.363,57.669,107.027
				h60.836v2.83h34.145h25.63v-2.83h18.831v2.479c1.078-0.188,2.181-0.309,3.314-0.309h261.73v-31.82
				C1528.772,924.553,1519.387,926.978,1515.945,919.33z M1442.113,594.072h-90.142v-31.527h76.595v-36.453h-76.595v-29.061h86.94
				v-37.683h-135.215v172.407h138.416V594.072z M1590.872,577.568c10.839-5.252,19.169-12.518,25-21.795
				c5.827-9.275,8.743-20.155,8.743-32.634c0-12.971-3.12-24.26-9.359-33.865c-6.241-9.605-15.107-16.995-26.6-22.166
				c-11.496-5.172-25.039-7.759-40.639-7.759h-78.813v172.407h48.765v-45.813h26.601l31.277,45.813h52.217L1590.872,577.568z
				 M1567.72,541.734c-5.09,4.354-12.644,6.525-22.659,6.525h-27.091v-50.491h27.091c10.016,0,17.569,2.219,22.659,6.653
				c5.089,4.432,7.638,10.673,7.638,18.717C1575.357,531.186,1572.809,537.386,1567.72,541.734z M544.137,459.349h-48.766v172.407
				h48.766V459.349z M457.69,591.115c8.044-12.967,12.069-28.16,12.069-45.564c0-17.402-4.025-32.589-12.069-45.563
				c-8.046-12.969-19.376-22.987-33.987-30.047c-14.617-7.058-31.364-10.591-50.244-10.591h-81.523v172.407h81.523
				c18.88,0,35.627-3.531,50.244-10.592C438.315,614.105,449.644,604.09,457.69,591.115z M407.078,580.279
				c-8.951,8.375-20.813,12.563-35.59,12.563h-30.787v-94.578h30.787c14.777,0,26.639,4.188,35.59,12.561
				c8.947,8.373,13.423,19.951,13.423,34.726C420.501,560.33,416.025,571.904,407.078,580.279z"/>
		</defs>
		<clipPath id="SVGID_5_">
			<use xlink:href="#SVGID_4_"  overflow="visible"/>
		</clipPath>
		<rect x="333.935" y="108.848" opacity="0.05" clip-path="url(#SVGID_5_)" width="1324.564" height="916.152"/>
	</g>
	<g>
		<g>
			<path fill="#BABABA" d="M563.554,974.652v-13.613h7.44l18.69-24.658v-6.891h3.893v-88.031h-3.114v-55.416
				c0,0,5.104-6.891,9.605-6.891c2.701,0,9.083,6.891,9.083,6.891v15.91h6.317v-26.338h-8.307l-10.729-13.434l19.035-10.961
				c0,0-6.924-23.332,0-32.877l8.652-2.828c0,0-0.243-36.133,32.188-48.434c8.935-3.387,10.817-6.541,10.817-6.541l-4.414-0.441
				c0,0,32.064-25.531,31.581-31.992c-0.391-5.195-0.777-5.215-0.777-5.215s-5.54-1.594-3.116-6.541
				c2.423-4.951,4.326-6.01,4.499-8.66v366.961H563.554z"/>
			<path fill="#948CFF" d="M863.018,635.354v0.131C863.021,635.406,863.018,635.354,863.018,635.354z"/>
			<path fill="#BABABA" d="M860.617,649.625c0.26,19.623-26.931,33.81-26.931,33.81v5.832
				c-28.815,7.688-39.454,36.324-39.454,36.324v15.643c-5.711,0.793-10.385,2.652-10.385,2.652v5.135h-8.932
				c0,0,6.339-21.133-0.586-30.678l-8.654-2.828c0,0,0.248-36.133-32.187-48.434c-8.934-3.387-10.813-6.541-10.813-6.541
				l4.412-0.441c0,0-32.066-25.531-31.584-31.992c0.391-5.195,0.779-5.215,0.779-5.215s5.539-1.594,3.113-6.541
				c-2.421-4.951-4.324-6.01-4.498-8.66l-0.387,8.129l0.387,358.832h197.466V697.84l-26.662-7.074l-2.685-55.281
				c-0.016,0.389-0.281,1.871-2.857,6.256C857.047,647.043,860.617,649.625,860.617,649.625z"/>
			<path fill="#948CFF" d="M863.029,635.484v-0.131C863.029,635.354,863.026,635.406,863.029,635.484z"/>
			<path fill="#E6E6E6" d="M865.43,649.625c0,0,3.57-2.582,0.456-7.885c-2.575-4.385-2.841-5.867-2.856-6.256l-0.659,76.318
				l29.994-22.535v-5.832C892.364,683.435,865.17,669.248,865.43,649.625z"/>
			<path fill="#BABABA" d="M882.227,681.31c0,0,9.993-5.299,15.312-7.023c5.325-1.725,2.47-0.643,2.47-0.643v-2.275
				c0,0-10.079-10.473-3.156-24.26c0,0,1.729-2.65,10.556-4.596c0,0-5.018-39.42,40.84-55.33c0,0,2.598-2.65,1.041-3.182
				c-1.559-0.529-2.039-1.588-2.039-1.588s33.615-20.549,31.932-36.326c0,0-6.752-3.049-3.896-8.351
				c2.857-5.303,4.8-2.123,4.674-7.823v444.738H877.695L882.227,681.31z"/>
			<path fill="#BABABA" d="M1387.527,974.652v-13.613h-7.443l-18.687-24.658v-6.891h-3.893v-88.031h3.114v-55.416
				c0,0-5.105-6.891-9.605-6.891c-2.704,0-9.086,6.891-9.086,6.891v15.91h-6.314v-26.338h8.306l10.729-13.434l-19.035-10.961
				c0,0,6.921-23.332,0-32.877l-8.65-2.828c0,0,0.24-36.133-32.188-48.434c-8.935-3.387-10.819-6.541-10.819-6.541l4.416-0.441
				c0,0-32.066-25.531-31.584-31.992c0.389-5.195,0.778-5.215,0.778-5.215s5.541-1.594,3.117-6.541
				c-2.425-4.951-4.325-6.01-4.501-8.66v366.961H1387.527z"/>
			<path fill="#BABABA" d="M1090.463,649.625c-0.26,19.623,26.931,33.81,26.931,33.81v5.832
				c28.813,7.688,39.457,36.324,39.457,36.324v15.643c5.711,0.793,10.383,2.652,10.383,2.652v5.135h8.931
				c0,0-6.339-21.133,0.585-30.678l8.653-2.828c0,0-0.24-36.133,32.191-48.434c8.933-3.387,10.813-6.541,10.813-6.541l-4.41-0.441
				c0,0,32.064-25.531,31.581-31.992c-0.388-5.195-0.777-5.215-0.777-5.215s-5.541-1.594-3.116-6.541
				c2.423-4.951,4.325-6.01,4.498-8.66l0.388,8.129l-0.388,358.832h-197.461V697.84l26.66-7.074l2.68-55.281
				c0.016,0.389,0.281,1.871,2.855,6.256C1094.032,647.043,1090.463,649.625,1090.463,649.625z"/>
			<path fill="#E6E6E6" d="M1085.649,649.625c0,0-3.567-2.582-0.449-7.885c2.573-4.385,2.836-5.867,2.852-6.256l0.66,76.318
				l-29.991-22.535v-5.832C1058.721,683.435,1085.91,669.248,1085.649,649.625z"/>
			<path fill="#BABABA" d="M1077.7,681.31c0,0-9.993-5.299-15.311-7.023c-5.325-1.725-2.47-0.643-2.47-0.643v-2.275
				c0,0,10.084-10.473,3.162-24.26c0,0-1.733-2.65-10.56-4.596c0,0,5.021-39.42-40.838-55.33c0,0-2.597-2.65-1.039-3.182
				c1.558-0.529,2.03-1.588,2.03-1.588s-33.615-20.549-31.926-36.326c0,0,6.748-3.049,3.894-8.351
				c-2.855-5.303-4.804-2.123-4.674-7.823l-10.787,444.738h113.052L1077.7,681.31z"/>
			<path fill="#E6E6E6" d="M898.363,811.322v124h11.695v-43.447c3.625-4.756,6.313-3.809,4.139-6.979
				c-2.176-3.172-2.795-13.002,1.86-14.588c4.66-1.586,12.423-9.514,12.423-9.514s7.764,7.928,12.422,9.514
				c4.652,1.586,4.035,11.416,1.859,14.588c-2.17,3.17,0.512,2.223,4.139,6.979v43.447h16.15v-43.447
				c3.629-4.756,6.313-3.809,4.14-6.979c-2.175-3.172-2.795-13.002,1.862-14.588c4.661-1.586,12.422-9.514,12.422-9.514
				s7.76,7.928,12.421,9.514c4.653,1.586,4.034,11.416,1.859,14.588c-2.171,3.17,0.513,2.223,4.137,6.979v43.447h14.502v-43.447
				c3.624-4.756,6.306-3.809,4.132-6.979c-2.175-3.172-2.795-13.002,1.866-14.588c4.658-1.586,12.417-9.514,12.417-9.514
				s7.765,7.928,12.423,9.514c4.659,1.586,4.038,11.416,1.864,14.588c-2.174,3.17,0.507,2.223,4.137,6.979v43.447h11.703v-124
				H898.363z"/>
			<rect x="877.162" y="807.258" fill="#B3B3B3" width="204.546" height="5.654"/>
			<rect x="877.162" y="800.539" fill="#B3B3B3" width="204.546" height="4.24"/>
			<path fill="#E6E6E6" d="M981.337,662.6c34.63,0,65.604,6.963,78.583,10.332v-1.563c0,0,0.643-0.67,1.491-1.883
				c-12.356-3.316-45.943-11.334-80.074-10.719c-1.514,0.027-3.009,0.068-4.492,0.113l-0.09,3.746
				C978.265,662.615,979.785,662.6,981.337,662.6z"/>
			<path fill="#E6E6E6" d="M979.96,658.803c-42.608,0.924-72.302,8.697-81.015,11.264c0.625,0.834,1.064,1.303,1.064,1.303v1.891
				c8.969-3.188,34.467-10.506,79.951-10.648V658.803z"/>
			<g>
				<path fill="#E6E6E6" d="M606.94,831.65v103.672h9.782v-36.326c3.03-3.979,5.274-3.182,3.457-5.832
					c-1.817-2.654-2.337-10.871,1.558-12.197c3.894-1.326,10.381-7.957,10.381-7.957s6.489,6.631,10.383,7.957
					c3.894,1.326,3.375,9.543,1.558,12.197c-1.817,2.65,0.428,1.853,3.457,5.832v36.326h13.505v-36.326
					c3.032-3.979,5.275-3.182,3.457-5.832c-1.816-2.654-2.335-10.871,1.559-12.197c3.895-1.326,10.383-7.957,10.383-7.957
					s6.491,6.631,10.385,7.957c3.893,1.326,3.375,9.543,1.557,12.197c-1.816,2.65,0.426,1.853,3.457,5.832v36.326h12.119v-36.326
					c3.035-3.979,5.277-3.182,3.46-5.832c-1.817-2.654-2.337-10.871,1.558-12.197c3.895-1.326,10.383-7.957,10.383-7.957
					s6.49,6.631,10.386,7.957c3.89,1.326,3.374,9.543,1.556,12.197c-1.815,2.65,0.426,1.853,3.455,5.832v36.326h9.781V831.65H606.94
					z"/>
				<rect x="586.69" y="830.057" fill="#E6E6E6" width="174.958" height="5.656"/>
				<rect x="586.69" y="823.34" fill="#E6E6E6" width="174.958" height="4.242"/>
				<path fill="#E6E6E6" d="M614.727,753.695v51.084h157.479v-4.24h104.956v-5.127h-105.65v-41.717c0,0-32.689-11.668-77.875-11.668
					C642.5,742.027,614.727,753.695,614.727,753.695z"/>
				<path fill="#E6E6E6" d="M613.429,752.435c0,0,24.393-12.791,80.208-12.791c43.09,0,80.212,12.791,80.212,12.791v-4.045
					c0,0-39.718-13.609-80.212-12.791c-48.965,0.99-80.208,12.791-80.208,12.791V752.435z"/>
				<path fill="#E6E6E6" d="M694.623,721.336c33.723,0.176,69.254,9.408,82.829,13.322c0.392-5.838-0.116-12.17-3.122-16.314
					l-8.654-2.828c0,0,0-0.416-0.03-1.141c-18.2-3.922-46.379-8.813-71.037-8.076L694.623,721.336z"/>
				<path fill="#E6E6E6" d="M694.898,706.291c-0.418,0.012-0.843,0.014-1.262,0.029c-29.01,1.045-54.075,5.662-69.685,9.25
					l-8.482,2.773c-2.779,3.83-3.321,9.879-2.986,15.748c11.199-4.215,39.092-12.771,81.154-12.771c0.422,0,0.844,0.016,1.262,0.018
					V706.291z"/>
			</g>
			<g>
				<path fill="#E6E6E6" d="M876.383,839.604H762.86c-3.058,0-5.537,1.815-5.537,4.045v82.941c0,2.236,2.479,4.043,5.537,4.043
					h113.522c3.056,0,5.536-1.807,5.536-4.043v-82.941C881.919,841.418,879.438,839.604,876.383,839.604z M799.546,919.148h-12.504
					h-0.183h-12.317v-35.451c2.461-3.879,4.284-3.104,2.81-5.69c-1.475-2.59-1.896-10.611,1.262-11.904
					c3.164-1.293,8.429-7.764,8.429-7.764s5.272,6.471,8.433,7.764c3.16,1.293,2.742,9.315,1.265,11.904
					c-1.476,2.586,0.345,1.811,2.807,5.69V919.148z M833.118,919.148h-12.499h-0.188h-12.314v-35.451
					c2.456-3.879,4.283-3.104,2.807-5.69c-1.477-2.59-1.898-10.611,1.262-11.904c3.164-1.293,8.434-7.764,8.434-7.764
					s5.267,6.471,8.426,7.764c3.163,1.293,2.741,9.315,1.267,11.904c-1.477,2.586,0.346,1.811,2.807,5.69V919.148z M867.728,919.148
					h-12.502h-0.184h-12.316v-35.451c2.461-3.879,4.281-3.104,2.807-5.69c-1.473-2.59-1.893-10.611,1.264-11.904
					c3.162-1.293,8.43-7.764,8.43-7.764s5.268,6.471,8.434,7.764c3.156,1.293,2.734,9.315,1.263,11.904
					c-1.475,2.586,0.346,1.811,2.806,5.69V919.148z"/>
				<path fill="#E6E6E6" d="M873.007,926.393h-45.945c-1.108,0-4.471,0.445-7.657,1.166c-3.187-0.721-6.549-1.166-7.658-1.166
					h-45.945c-2.293,0-4.152,1.902-4.152,4.24v8.664c0,2.344,19.682,21.742,21.979,21.742h25.263h21.027h25.264
					c2.295,0,21.98-19.398,21.98-21.742v-8.664C877.162,928.295,875.297,926.393,873.007,926.393z"/>
				<path fill="#E6E6E6" d="M782.934,743.998v4.66h45.945c0,0,36.859-3.859,41.791-2.328v3.92h8.048v-38.977h-8.048v20.678h-39.845
					C830.825,731.951,800.438,738.115,782.934,743.998z"/>
				<path fill="#E6E6E6" d="M778.002,754.229c0,0,8.045,3.711,13.496,9.543h92.151v31.022h35.306v-15.996H894.38v-13.08h9.692
					v-11.488H778.002z"/>
			</g>
			<path fill="#E6E6E6" d="M1256.182,721.338c0.42-0.002,0.841-0.018,1.264-0.018c42.063,0,69.954,8.557,81.153,12.771
				c0.335-5.869-0.206-11.918-2.985-15.748l-8.482-2.773c-15.614-3.588-40.679-8.205-69.686-9.25
				c-0.42-0.016-0.844-0.018-1.264-0.029V721.338z"/>
			<g>
				<path fill="#E6E6E6" d="M1344.143,831.65v103.672h-9.784v-36.326c-3.028-3.979-5.271-3.182-3.457-5.832
					c1.819-2.654,2.34-10.871-1.558-12.197c-3.891-1.326-10.379-7.957-10.379-7.957s-6.491,6.631-10.385,7.957
					c-3.893,1.326-3.375,9.543-1.556,12.197c1.815,2.65-0.429,1.853-3.46,5.832v36.326h-13.503v-36.326
					c-3.034-3.979-5.277-3.182-3.459-5.832c1.815-2.654,2.333-10.871-1.56-12.197c-3.894-1.326-10.383-7.957-10.383-7.957
					s-6.489,6.631-10.381,7.957c-3.895,1.326-3.375,9.543-1.558,12.197c1.817,2.65-0.429,1.853-3.458,5.832v36.326h-12.117v-36.326
					c-3.033-3.979-5.278-3.182-3.462-5.832c1.816-2.654,2.337-10.871-1.555-12.197c-3.896-1.326-10.385-7.957-10.385-7.957
					s-6.488,6.631-10.383,7.957c-3.892,1.326-3.375,9.543-1.556,12.197c1.815,2.65-0.428,1.853-3.457,5.832v36.326h-9.782V831.65
					H1344.143z"/>
				<rect x="1189.434" y="830.057" fill="#E6E6E6" width="174.955" height="5.656"/>
				<rect x="1189.434" y="823.34" fill="#E6E6E6" width="174.955" height="4.242"/>
				<path fill="#E6E6E6" d="M1337.654,753.695v51.084h-160.553v-4.24h-96.949v-5.127h97.655v-41.717
					c0,0,33.327-11.668,79.393-11.668C1309.335,742.027,1337.654,753.695,1337.654,753.695z"/>
				<path fill="#E6E6E6" d="M1337.654,752.435c0,0-24.396-12.791-80.209-12.791c-43.092,0-80.21,12.791-80.21,12.791v-4.045
					c0,0,39.714-13.609,80.21-12.791c48.96,0.99,80.209,12.791,80.209,12.791V752.435z"/>
				<path fill="#E6E6E6" d="M1256.475,706.299c-24.659-0.736-52.84,4.154-71.037,8.076c-0.035,0.725-0.035,1.141-0.035,1.141
					l-8.653,2.828c-3.006,4.144-3.511,10.477-3.119,16.314c13.576-3.914,49.103-13.146,82.828-13.322L1256.475,706.299z"/>
			</g>
			<g>
				<path fill="#E6E6E6" d="M1075.39,843.648v82.941c0,2.236,2.483,4.043,5.54,4.043h113.522c3.057,0,5.536-1.807,5.536-4.043
					v-82.941c0-2.23-2.479-4.045-5.536-4.045H1080.93C1077.873,839.604,1075.39,841.418,1075.39,843.648z M1157.767,883.697
					c2.461-3.879,4.28-3.104,2.806-5.69c-1.479-2.59-1.898-10.611,1.264-11.904c3.162-1.293,8.43-7.764,8.43-7.764
					s5.269,6.471,8.433,7.764c3.16,1.293,2.736,9.315,1.263,11.904c-1.478,2.586,0.346,1.811,2.807,5.69v35.451h-12.314h-0.188
					h-12.499V883.697z M1124.197,883.697c2.459-3.879,4.278-3.104,2.807-5.69c-1.481-2.59-1.901-10.611,1.263-11.904
					c3.161-1.293,8.431-7.764,8.431-7.764s5.268,6.471,8.427,7.764c3.161,1.293,2.741,9.315,1.267,11.904
					c-1.479,2.586,0.345,1.811,2.805,5.69v35.451h-12.319h-0.179h-12.5V883.697z M1089.58,883.697
					c2.463-3.879,4.287-3.104,2.806-5.69c-1.473-2.59-1.893-10.611,1.269-11.904c3.16-1.293,8.43-7.764,8.43-7.764
					s5.266,6.471,8.431,7.764c3.159,1.293,2.739,9.315,1.261,11.904c-1.471,2.586,0.347,1.811,2.812,5.69v35.451h-12.317h-0.186
					h-12.504V883.697z"/>
				<path fill="#E6E6E6" d="M1084.305,926.393h45.946c1.107,0,4.47,0.445,7.657,1.166c3.188-0.721,6.551-1.166,7.656-1.166h45.945
					c2.295,0,4.153,1.902,4.153,4.24v8.664c0,2.344-19.683,21.742-21.98,21.742h-25.262h-21.026h-25.265
					c-2.297,0-21.978-19.398-21.978-21.742v-8.664C1080.152,928.295,1082.011,926.393,1084.305,926.393z"/>
				<path fill="#E6E6E6" d="M1174.377,743.998v4.66h-45.945c0,0-36.857-3.859-41.791-2.328v3.92h-8.047v-38.977h8.047v20.678h39.845
					C1126.485,731.951,1156.876,738.115,1174.377,743.998z"/>
				<path fill="#E6E6E6" d="M1179.309,754.229c0,0-8.045,3.711-13.495,9.543h-92.15v31.022h-35.306v-15.996h24.578v-13.08h-9.694
					v-11.488H1179.309z"/>
			</g>
			<path fill="#E6E6E6" d="M1022.156,670.268c-17.243-3.266-39.427-3.518-42.723-3.537l0,0c0,0-0.081,0-0.213,0
				c-0.135,0-0.216,0-0.216,0l0,0c-3.294,0.019-25.479,0.271-42.724,3.537c-9.581,1.813-37.918,9.188-37.918,9.188v49.143h3.184
				v-26.951c1.865-3.086,3.243-2.467,2.125-4.523c-1.116-2.058-1.438-8.435,0.96-9.467c2.398-1.027,6.39-6.168,6.39-6.168
				s3.994,5.141,6.393,6.168c2.396,1.031,2.074,7.408,0.955,9.467c-1.118,2.057,0.266,1.438,2.131,4.523v26.951h4.816V699.33
				c2.159-3.338,3.757-2.672,2.463-4.895c-1.299-2.23-1.666-9.133,1.108-10.24c2.772-1.117,7.394-6.682,7.394-6.682
				s4.624,5.564,7.395,6.682c2.771,1.107,2.406,8.01,1.111,10.24c-1.296,2.223,0.304,1.557,2.46,4.895v29.268h4.674v-33.492
				c2.308-3.803,4.017-3.041,2.632-5.574c-1.383-2.537-1.779-10.391,1.186-11.664c2.962-1.266,7.902-7.6,7.902-7.6
				s4.941,6.334,7.911,7.6c2.961,1.273,2.565,9.127,1.182,11.664c-1.379,2.533,0.326,1.771,2.632,5.574v33.492l2.675-0.277
				l-0.032,0.277h5.06v-33.492c2.313-3.803,4.021-3.041,2.635-5.574c-1.385-2.537-1.775-10.391,1.187-11.664
				c2.967-1.266,7.906-7.6,7.906-7.6s4.94,6.334,7.908,7.6c2.963,1.273,2.569,9.127,1.185,11.664
				c-1.387,2.533,0.323,1.771,2.633,5.574v33.492h4.672V699.33c2.159-3.338,3.756-2.672,2.461-4.895
				c-1.293-2.23-1.666-9.133,1.108-10.24c2.775-1.117,7.395-6.682,7.395-6.682s4.624,5.564,7.397,6.682
				c2.77,1.107,2.4,8.01,1.109,10.24c-1.297,2.223,0.301,1.557,2.462,4.895v29.268h4.813v-26.951
				c1.866-3.086,3.249-2.467,2.128-4.523c-1.115-2.058-1.437-8.435,0.963-9.467c2.396-1.027,6.388-6.168,6.388-6.168
				s3.994,5.141,6.393,6.168c2.396,1.031,2.078,7.408,0.956,9.467c-1.119,2.057,0.265,1.438,2.127,4.523v26.951h3.187v-49.143
				C1060.079,679.455,1031.736,672.08,1022.156,670.268z"/>
			<path fill="#E6E6E6" d="M1013.837,648.154c11.115,2.717,40.148,8.402,51.582,10.615c0.32-3.426-0.188-7.387-2.337-11.66
				c0,0-1.733-2.65-10.56-4.596c0,0,0.067-0.549,0.113-1.506c-15.144-3.809-36.794-9.166-38.799-9.166h-18.755H977.5l-0.355,14.451
				c9.953,0.164,17.937,0.631,17.937,0.631S1009.336,647.057,1013.837,648.154z"/>
			<path fill="#E6E6E6" d="M979.96,631.842h-17.427h-18.758c-1.902,0-21.555,4.838-36.501,8.592c0.042,1.316,0.134,2.08,0.134,2.08
				c-8.827,1.945-10.556,4.596-10.556,4.596c-2.061,4.1-2.595,7.889-2.36,11.215c12.643-2.459,38.857-7.623,49.283-10.17
				c4.508-1.098,18.758-1.516,18.758-1.516s4.594-0.232,11.147-0.391c2.167,0.021,4.278,0.055,6.279,0.1V631.842z"/>
			<g>
				<path fill="none" stroke="#BDBDBD" stroke-miterlimit="10" d="M1350.4,780.873c0,0-5.665,3.713-7.352,5.832v17.637h-8.18
					v-34.473c0,0-4.801-6.892-7.914-8.088c0,0-5.192,5.041-6.879,7.16v16.174h-7.92v-32.303c0,0-3.459-5.123-6.749-6.893
					c0,0-6.573,4.068-7.267,6.012v17.145h-13.152v-28.281c0,0-5.86-8.574-9.69-13.082c-3.896,4.594-9.69,13.082-9.69,13.082v28.281
					h-13.154v-17.145c-0.693-1.943-7.265-6.012-7.265-6.012c-3.29,1.77-6.749,6.893-6.749,6.893v32.303h-7.919v-16.174
					c-1.687-2.119-6.879-7.16-6.879-7.16c-3.114,1.195-7.917,8.088-7.917,8.088v34.473h-8.177v-17.637
					c-1.688-2.119-7.353-5.832-7.353-5.832c-4.152,1.418-9,5.832-9,5.832v34.867h84.103h84.103v-34.867
					C1359.4,786.705,1354.554,782.291,1350.4,780.873z"/>
				<path fill="none" stroke="#F0F0F0" stroke-miterlimit="10" d="M1066.705,749.035c0,0-6.614,4.328-8.581,6.805v20.572h-9.54
					v-40.217c0,0-5.604-8.041-9.239-9.434c0,0-6.057,5.881-8.022,8.352v18.871h-9.238v-37.689c0,0-4.038-5.98-7.874-8.041
					c0,0-7.668,4.746-8.481,7.014v20.002h-15.344v-32.996c0,0-6.837-10.002-11.304-15.262c-4.544,5.363-11.308,15.262-11.308,15.262
					v32.996H952.43v-20.002c-0.807-2.268-8.481-7.014-8.481-7.014c-3.832,2.061-7.87,8.041-7.87,8.041v37.689h-9.235v-18.871
					c-1.974-2.471-8.029-8.352-8.029-8.352c-3.631,1.393-9.234,9.434-9.234,9.434v40.217h-9.539V755.84
					c-1.973-2.477-8.584-6.805-8.584-6.805c-4.842,1.65-10.498,6.805-10.498,6.805v40.678h98.123h98.12V755.84
					C1077.202,755.84,1071.552,750.685,1066.705,749.035z"/>
				<path fill="none" stroke="#BDBDBD" stroke-miterlimit="10" d="M750.635,780.873c0,0-5.668,3.713-7.354,5.832v17.637h-8.175
					v-34.473c0,0-4.805-6.892-7.92-8.088c0,0-5.191,5.041-6.877,7.16v16.174h-7.92v-32.303c0,0-3.457-5.123-6.746-6.893
					c0,0-6.575,4.068-7.268,6.012v17.145H685.22v-28.281c0,0-5.86-8.574-9.69-13.082c-3.893,4.594-9.687,13.082-9.687,13.082v28.281
					H652.69v-17.145c-0.693-1.943-7.27-6.012-7.27-6.012c-3.289,1.77-6.749,6.893-6.749,6.893v32.303h-7.917v-16.174
					c-1.689-2.119-6.881-7.16-6.881-7.16c-3.114,1.195-7.916,8.088-7.916,8.088v34.473h-8.175v-17.637
					c-1.688-2.119-7.355-5.832-7.355-5.832c-4.152,1.418-9,5.832-9,5.832v34.867h84.103h84.105v-34.867
					C759.635,786.705,754.788,782.291,750.635,780.873z"/>
				<g>
					<path fill="none" stroke="#F0F0F0" stroke-miterlimit="10" d="M995.66,765.537c0,8.447-6.707,15.293-14.971,15.293
						c-8.271,0-14.971-6.846-14.971-15.293c0-8.443,6.7-15.287,14.971-15.287C988.953,750.25,995.66,757.094,995.66,765.537z"/>
					<polyline fill="none" stroke="#F0F0F0" stroke-miterlimit="10" points="970.047,757.85 981.013,769.051 991.525,758.315 					
						"/>
				</g>
			</g>
		</g>
	</g>
</g>
<linearGradient id="SVGID_6_" gradientUnits="userSpaceOnUse" x1="970.0792" y1="299.3018" x2="1233.83" y2="299.3018">
	<stop  offset="0" style="stop-color:#FFFFFF"/>
	<stop  offset="1" style="stop-color:#CFCFCF"/>
</linearGradient>
<path opacity="0.63" fill="url(#SVGID_6_)" d="M1207.766,314.039c-0.044,0-0.087,0.003-0.131,0.003
	c-3.281-21.818-22.104-38.547-44.837-38.547c-3.667,0-7.228,0.447-10.643,1.269c-9.825-10.98-24.099-17.895-39.993-17.895
	c-20.444,0-38.215,11.436-47.273,28.258c-7.053-4.943-15.636-7.852-24.902-7.852c-20.764,0-38.115,14.567-42.42,34.035
	c-0.344-0.013-0.688-0.026-1.036-0.026c-14.609,0-26.452,11.843-26.452,26.452h263.751
	C1233.627,325.51,1222.039,314.039,1207.766,314.039z"/>
<linearGradient id="SVGID_7_" gradientUnits="userSpaceOnUse" x1="1321.9585" y1="361.108" x2="1612.9263" y2="361.108">
	<stop  offset="0" style="stop-color:#FFFFFF"/>
	<stop  offset="1" style="stop-color:#CFCFCF"/>
</linearGradient>
<path opacity="0.63" fill="url(#SVGID_7_)" d="M1605.512,401.541c4.704-7.979,7.414-17.275,7.414-27.207
	c0-29.635-24.024-53.659-53.659-53.659c-18.978,0-35.643,9.862-45.183,24.731c-7.336-5.104-16.245-8.104-25.859-8.104
	c-22.473,0-41.117,16.352-44.71,37.804c-0.212-0.005-0.423-0.016-0.636-0.016c-6.807,0-13.012,2.573-17.7,6.798
	c-4.522-3.771-10.339-6.042-16.687-6.042c-0.165,0-0.327,0.009-0.491,0.012c-4.022-19.841-21.56-34.777-42.587-34.777
	c-24,0-43.456,19.456-43.456,43.456c0,6.035,1.232,11.781,3.455,17.005H1605.512z"/>
<linearGradient id="SVGID_8_" gradientUnits="userSpaceOnUse" x1="0" y1="361.108" x2="290.9677" y2="361.108">
	<stop  offset="0" style="stop-color:#FFFFFF"/>
	<stop  offset="1" style="stop-color:#CFCFCF"/>
</linearGradient>
<path opacity="0.63" fill="url(#SVGID_8_)" d="M283.554,401.541c4.704-7.979,7.414-17.275,7.414-27.207
	c0-29.635-24.024-53.659-53.659-53.659c-18.978,0-35.643,9.862-45.183,24.731c-7.336-5.104-16.245-8.104-25.859-8.104
	c-22.473,0-41.117,16.352-44.71,37.804c-0.212-0.005-0.423-0.016-0.636-0.016c-6.807,0-13.012,2.573-17.7,6.798
	c-4.522-3.771-10.339-6.042-16.687-6.042c-0.165,0-0.327,0.009-0.491,0.012c-4.022-19.841-21.56-34.777-42.587-34.777
	c-24,0-43.456,19.456-43.456,43.456c0,6.035,1.232,11.781,3.455,17.005H283.554z"/>
</svg>
