<?xml version="1.0" encoding="utf-8"?>
<!-- Generator: Adobe Illustrator 22.0.0, SVG Export Plug-In . SVG Version: 6.00 Build 0)  -->
<svg version="1.1" id="Layer_1" xmlns="http://www.w3.org/2000/svg" xmlns:xlink="http://www.w3.org/1999/xlink" x="0px" y="0px"
	 viewBox="0 0 469.3 462.1" style="enable-background:new 0 0 469.3 462.1;" xml:space="preserve">
<style type="text/css">
	
		.st0{clip-path:url(#SVGID_2_);fill:none;stroke:#00C9C9;stroke-width:0.25;stroke-linecap:round;stroke-linejoin:round;stroke-miterlimit:10;}
	.st1{clip-path:url(#SVGID_4_);}
	.st2{fill:none;stroke:#00C9C9;stroke-linecap:round;stroke-linejoin:round;stroke-miterlimit:10;}
	.st3{fill:none;stroke:#00C9C9;stroke-width:0.25;stroke-linecap:round;stroke-linejoin:round;stroke-miterlimit:10;}
	.st4{clip-path:url(#SVGID_6_);fill:none;stroke:#00C9C9;stroke-linecap:round;stroke-linejoin:round;stroke-miterlimit:10;}
	
		.st5{clip-path:url(#SVGID_8_);fill:none;stroke:#00C9C9;stroke-width:0.25;stroke-linecap:round;stroke-linejoin:round;stroke-miterlimit:10;}
	.st6{clip-path:url(#SVGID_10_);fill:none;stroke:#00C9C9;stroke-linecap:round;stroke-linejoin:round;stroke-miterlimit:10;}
	
		.st7{clip-path:url(#SVGID_12_);fill:none;stroke:#00C9C9;stroke-width:0.5;stroke-linecap:round;stroke-linejoin:round;stroke-miterlimit:10;stroke-dasharray:4;}
	
		.st8{clip-path:url(#SVGID_14_);fill:none;stroke:#00C9C9;stroke-width:0.25;stroke-linecap:round;stroke-linejoin:round;stroke-miterlimit:10;}
	.st9{clip-path:url(#SVGID_16_);fill:none;stroke:#00C9C9;stroke-linecap:round;stroke-linejoin:round;stroke-miterlimit:10;}
	.st10{clip-path:url(#SVGID_18_);}
	.st11{clip-path:url(#SVGID_20_);}
	.st12{clip-path:url(#SVGID_22_);}
	.st13{clip-path:url(#SVGID_24_);}
	.st14{clip-path:url(#SVGID_26_);fill:none;stroke:#00C9C9;stroke-linecap:round;stroke-linejoin:round;stroke-miterlimit:10;}
	
		.st15{clip-path:url(#SVGID_28_);fill:none;stroke:#00C9C9;stroke-width:0.25;stroke-linecap:round;stroke-linejoin:round;stroke-miterlimit:10;}
	.st16{clip-path:url(#SVGID_30_);}
	.st17{clip-path:url(#SVGID_32_);}
	.st18{clip-path:url(#SVGID_34_);fill:none;stroke:#00C9C9;stroke-linecap:round;stroke-linejoin:round;stroke-miterlimit:10;}
	
		.st19{clip-path:url(#SVGID_36_);fill:none;stroke:#00C9C9;stroke-width:0.25;stroke-linecap:round;stroke-linejoin:round;stroke-miterlimit:10;}
	.st20{clip-path:url(#SVGID_38_);fill:none;stroke:#00C9C9;stroke-linecap:round;stroke-linejoin:round;stroke-miterlimit:10;}
	
		.st21{clip-path:url(#SVGID_40_);fill:none;stroke:#00C9C9;stroke-width:0.5;stroke-linecap:round;stroke-linejoin:round;stroke-miterlimit:10;stroke-dasharray:4;}
	
		.st22{clip-path:url(#SVGID_42_);fill:none;stroke:#00C9C9;stroke-width:0.25;stroke-linecap:round;stroke-linejoin:round;stroke-miterlimit:10;}
	
		.st23{clip-path:url(#SVGID_44_);fill:none;stroke:#00C9C9;stroke-width:0.25;stroke-linecap:round;stroke-linejoin:round;stroke-miterlimit:10;}
	
		.st24{clip-path:url(#SVGID_46_);fill:none;stroke:#00C9C9;stroke-width:0.25;stroke-linecap:round;stroke-linejoin:round;stroke-miterlimit:10;}
	
		.st25{clip-path:url(#SVGID_48_);fill:none;stroke:#00C9C9;stroke-width:0.25;stroke-linecap:round;stroke-linejoin:round;stroke-miterlimit:10;}
	
		.st26{clip-path:url(#SVGID_50_);fill:none;stroke:#00C9C9;stroke-width:0.25;stroke-linecap:round;stroke-linejoin:round;stroke-miterlimit:10;}
	
		.st27{clip-path:url(#SVGID_52_);fill:none;stroke:#00C9C9;stroke-width:0.25;stroke-linecap:round;stroke-linejoin:round;stroke-miterlimit:10;}
	
		.st28{clip-path:url(#SVGID_54_);fill:none;stroke:#00C9C9;stroke-width:0.25;stroke-linecap:round;stroke-linejoin:round;stroke-miterlimit:10;}
	
		.st29{clip-path:url(#SVGID_56_);fill:none;stroke:#00C9C9;stroke-width:0.25;stroke-linecap:round;stroke-linejoin:round;stroke-miterlimit:10;}
	
		.st30{clip-path:url(#SVGID_58_);fill:none;stroke:#00C9C9;stroke-width:0.25;stroke-linecap:round;stroke-linejoin:round;stroke-miterlimit:10;}
	
		.st31{clip-path:url(#SVGID_60_);fill:none;stroke:#00C9C9;stroke-width:0.25;stroke-linecap:round;stroke-linejoin:round;stroke-miterlimit:10;}
	
		.st32{clip-path:url(#SVGID_62_);fill:none;stroke:#00C9C9;stroke-width:0.25;stroke-linecap:round;stroke-linejoin:round;stroke-miterlimit:10;}
	.st33{clip-path:url(#SVGID_64_);fill:none;stroke:#00C9C9;stroke-linecap:round;stroke-linejoin:round;stroke-miterlimit:10;}
	.st34{clip-path:url(#SVGID_66_);fill:none;stroke:#00C9C9;stroke-linecap:round;stroke-linejoin:round;stroke-miterlimit:10;}
	.st35{clip-path:url(#SVGID_68_);fill:none;stroke:#00C9C9;stroke-linecap:round;stroke-linejoin:round;stroke-miterlimit:10;}
	.st36{clip-path:url(#SVGID_70_);fill:none;stroke:#00C9C9;stroke-linecap:round;stroke-linejoin:round;stroke-miterlimit:10;}
	.st37{clip-path:url(#SVGID_72_);fill:none;stroke:#00C9C9;stroke-linecap:round;stroke-linejoin:round;stroke-miterlimit:10;}
	.st38{clip-path:url(#SVGID_74_);fill:none;stroke:#00C9C9;stroke-linecap:round;stroke-linejoin:round;stroke-miterlimit:10;}
	.st39{clip-path:url(#SVGID_76_);fill:none;stroke:#00C9C9;stroke-linecap:round;stroke-linejoin:round;stroke-miterlimit:10;}
	.st40{clip-path:url(#SVGID_78_);fill:none;stroke:#00C9C9;stroke-linecap:round;stroke-linejoin:round;stroke-miterlimit:10;}
	.st41{clip-path:url(#SVGID_80_);fill:none;stroke:#00C9C9;stroke-linecap:round;stroke-linejoin:round;stroke-miterlimit:10;}
	.st42{clip-path:url(#SVGID_82_);fill:none;stroke:#00C9C9;stroke-linecap:round;stroke-linejoin:round;stroke-miterlimit:10;}
	.st43{clip-path:url(#SVGID_84_);fill:none;stroke:#00C9C9;stroke-linecap:round;stroke-linejoin:round;stroke-miterlimit:10;}
	.st44{clip-path:url(#SVGID_86_);fill:none;stroke:#00C9C9;stroke-linecap:round;stroke-linejoin:round;stroke-miterlimit:10;}
	.st45{clip-path:url(#SVGID_88_);fill:none;stroke:#00C9C9;stroke-linecap:round;stroke-linejoin:round;stroke-miterlimit:10;}
	.st46{clip-path:url(#SVGID_90_);fill:none;stroke:#00C9C9;stroke-linecap:round;stroke-linejoin:round;stroke-miterlimit:10;}
	.st47{clip-path:url(#SVGID_92_);fill:none;stroke:#00C9C9;stroke-linecap:round;stroke-linejoin:round;stroke-miterlimit:10;}
	.st48{clip-path:url(#SVGID_94_);fill:none;stroke:#00C9C9;stroke-linecap:round;stroke-linejoin:round;stroke-miterlimit:10;}
	
		.st49{clip-path:url(#SVGID_96_);fill:none;stroke:#00C9C9;stroke-width:0.25;stroke-linecap:round;stroke-linejoin:round;stroke-miterlimit:10;}
	.st50{clip-path:url(#SVGID_98_);fill:none;stroke:#00C9C9;stroke-linecap:round;stroke-linejoin:round;stroke-miterlimit:10;}
	
		.st51{clip-path:url(#SVGID_100_);fill:none;stroke:#00C9C9;stroke-width:0.75;stroke-linecap:round;stroke-linejoin:round;stroke-miterlimit:10;}
	
		.st52{clip-path:url(#SVGID_102_);fill:none;stroke:#00C9C9;stroke-width:0.75;stroke-linecap:round;stroke-linejoin:round;stroke-miterlimit:10;}
	
		.st53{clip-path:url(#SVGID_104_);fill:none;stroke:#00C9C9;stroke-width:0.75;stroke-linecap:round;stroke-linejoin:round;stroke-miterlimit:10;}
	
		.st54{clip-path:url(#SVGID_106_);fill:none;stroke:#00C9C9;stroke-width:0.75;stroke-linecap:round;stroke-linejoin:round;stroke-miterlimit:10;}
	
		.st55{clip-path:url(#SVGID_108_);fill:none;stroke:#00C9C9;stroke-width:0.75;stroke-linecap:round;stroke-linejoin:round;stroke-miterlimit:10;}
	
		.st56{clip-path:url(#SVGID_110_);fill:none;stroke:#00C9C9;stroke-width:0.75;stroke-linecap:round;stroke-linejoin:round;stroke-miterlimit:10;}
	
		.st57{clip-path:url(#SVGID_112_);fill:none;stroke:#00C9C9;stroke-width:0.75;stroke-linecap:round;stroke-linejoin:round;stroke-miterlimit:10;}
	
		.st58{clip-path:url(#SVGID_114_);fill:none;stroke:#00C9C9;stroke-width:0.75;stroke-linecap:round;stroke-linejoin:round;stroke-miterlimit:10;}
	.st59{clip-path:url(#SVGID_116_);fill:none;stroke:#00C9C9;stroke-linecap:round;stroke-linejoin:round;stroke-miterlimit:10;}
	.st60{clip-path:url(#SVGID_118_);fill:none;stroke:#00C9C9;stroke-linecap:round;stroke-linejoin:round;stroke-miterlimit:10;}
	.st61{clip-path:url(#SVGID_120_);fill:none;stroke:#00C9C9;stroke-linecap:round;stroke-linejoin:round;stroke-miterlimit:10;}
	.st62{clip-path:url(#SVGID_122_);fill:none;stroke:#00C9C9;stroke-linecap:round;stroke-linejoin:round;stroke-miterlimit:10;}
	.st63{clip-path:url(#SVGID_124_);fill:none;stroke:#00C9C9;stroke-linecap:round;stroke-linejoin:round;stroke-miterlimit:10;}
	
		.st64{clip-path:url(#SVGID_126_);fill:none;stroke:#00C9C9;stroke-width:0.25;stroke-linecap:round;stroke-linejoin:round;stroke-miterlimit:10;}
	.st65{clip-path:url(#SVGID_128_);fill:none;stroke:#00C9C9;stroke-linecap:round;stroke-linejoin:round;stroke-miterlimit:10;}
	
		.st66{clip-path:url(#SVGID_130_);fill:none;stroke:#00C9C9;stroke-width:0.5;stroke-linecap:round;stroke-linejoin:round;stroke-miterlimit:10;stroke-dasharray:4;}
	.st67{clip-path:url(#SVGID_132_);fill:none;stroke:#00C9C9;stroke-linecap:round;stroke-linejoin:round;stroke-miterlimit:10;}
	
		.st68{clip-path:url(#SVGID_134_);fill:none;stroke:#00C9C9;stroke-width:0.25;stroke-linecap:round;stroke-linejoin:round;stroke-miterlimit:10;}
	.st69{clip-path:url(#SVGID_136_);}
	.st70{fill:none;stroke:#00C9C9;stroke-width:0.75;stroke-linecap:round;stroke-linejoin:round;stroke-miterlimit:10;}
	
		.st71{clip-path:url(#SVGID_138_);fill:none;stroke:#00C9C9;stroke-width:0.75;stroke-linecap:round;stroke-linejoin:round;stroke-miterlimit:10;}
</style>
<g>
	<g>
		<defs>
			<rect id="SVGID_1_" y="0" width="469.3" height="462.1"/>
		</defs>
		<clipPath id="SVGID_2_">
			<use xlink:href="#SVGID_1_"  style="overflow:visible;"/>
		</clipPath>
		<path class="st0" d="M120.5,374c0,0-0.5-4.5-2.9-8.4c-1.2-1.9-3.9-4-7.1-5.4c-3.9-1.7-7.1-7.1-2.6-8.8c4.5-1.6,11.7,4.8,13.1,8.3
			C124.6,369,120.3,373.9,120.5,374z"/>
	</g>
	<g>
		<defs>
			<rect id="SVGID_3_" y="0" width="469.3" height="462.1"/>
		</defs>
		<clipPath id="SVGID_4_">
			<use xlink:href="#SVGID_3_"  style="overflow:visible;"/>
		</clipPath>
		<g class="st1">
			<path class="st2" d="M-46.7,399.8c-2.7,7.1-3.5,13.3,0.3,23.9c4.2,9.9,14.7,12.1,15.7,12.4c3.2,0.9,17.3,3.1,23.7-15.1
				c3.9-11.2-2.3-16.3-5.2-18c-0.4-0.2-9.4-4.7-14.9,1c-7.5,7.9-3.8,15.4-4.2,15.5c-8-6.3-3.3-18.7,4.9-26.5
				c7.6-7.2,26.4-8.5,42.1-18c16.7-10.1,14.4-23.8,14.4-23.8c0.1-0.2-6.3,16.2-23.7,18.4C-36.9,375-41.8,386.8-46.7,399.8z"/>
			<path class="st3" d="M-44.4,399.6c-1.8,6.4-3,13.3-0.3,22.4c3.1,8.5,12.6,11.6,13.4,11.8c2.5,0.7,17.5,1.6,21.5-11.3
				c3.1-9.9,1.9-14-3.7-16.9c-0.3-0.2-7.8-4.5-12.2,0.6c-6.1,7-3.2,16.2-3.6,16.3c-13.8-7.4-8.5-22-1.6-28.7
				c10.5-10.2,27.4-9.6,42.9-18c15.9-8.7,17.4-20.7,17.4-20.7c0-1.7-2.9,14.4-24.2,16.2C-14.4,373-38.8,380.1-44.4,399.6z"/>
		</g>
	</g>
	<g>
		<defs>
			<rect id="SVGID_5_" y="0" width="469.3" height="462.1"/>
		</defs>
		<clipPath id="SVGID_6_">
			<use xlink:href="#SVGID_5_"  style="overflow:visible;"/>
		</clipPath>
		<path class="st4" d="M42.6,450.5c0,0-42.4-79.3,65.3-80.5c0,0-9.2,10.6-12.1,21.8c-2.9,11.1-10.7,10.5-13.3,4.4
			c0,0-15.3,14.5-11.9,23.2c0,0-4.6-5.7-3.4-8.7c0,0-7.9,6.4-1.1,17.2c6.8,10.7-9,22.8-18.6,8.7C47.5,436.6,41.6,444.4,42.6,450.5z"
			/>
	</g>
	<g>
		<defs>
			<rect id="SVGID_7_" y="0" width="469.3" height="462.1"/>
		</defs>
		<clipPath id="SVGID_8_">
			<use xlink:href="#SVGID_7_"  style="overflow:visible;"/>
		</clipPath>
		<path class="st5" d="M41.5,439.3c0,0-25.5-58.3,59.6-65.6c0,0-7.3,13.1-9.6,20.1c-2.3,7.1-7.6,2.2-9.2-1.5c0,0-14.9,13.7-12.8,19
			c0,0-0.8-6,0.2-8c0,0-15.7,13.3-8.5,23c4.7,6.3-4.2,16.6-14,3.9C47.1,430.3,40.9,435.5,41.5,439.3z"/>
	</g>
	<g>
		<defs>
			<rect id="SVGID_9_" y="0" width="469.3" height="462.1"/>
		</defs>
		<clipPath id="SVGID_10_">
			<use xlink:href="#SVGID_9_"  style="overflow:visible;"/>
		</clipPath>
		<path class="st6" d="M117.8,382.6c0,0,1.9-4.4-0.4-10.6c-2-5.3-3.6-6.2-9.1-9.8c-7.2-4.7-10.4-12.7-1.1-15.1
			c6.6-1.7,14.7,5.6,16.8,10.6C127,364.8,128.4,371.5,117.8,382.6z"/>
	</g>
	<g>
		<defs>
			<rect id="SVGID_11_" y="0" width="469.3" height="462.1"/>
		</defs>
		<clipPath id="SVGID_12_">
			<use xlink:href="#SVGID_11_"  style="overflow:visible;"/>
		</clipPath>
		<path class="st7" d="M120.1,377.6c0,0-1-6.5-2.4-10.1c0,0-1.4-2.9-8.3-6.3c-5-2.5-8.6-9.6-2.6-11.7s13.8,4.6,15.5,9.2
			C127,370.9,120.5,377.9,120.1,377.6z"/>
	</g>
	<g>
		<defs>
			<rect id="SVGID_13_" y="0" width="469.3" height="462.1"/>
		</defs>
		<clipPath id="SVGID_14_">
			<use xlink:href="#SVGID_13_"  style="overflow:visible;"/>
		</clipPath>
		<path class="st8" d="M188.4,462.4c1,2.6,3.4,10.2,4.3,12.9c2.4-0.7,4.9-0.7,7.5-0.7c7.3,0,13.6,4.4,18,12.2
			c0-4.4-0.3-5.6-0.8-10.9c-2-25.1-17.1-52.3-38.4-68.8c-12.1-9.4-32.9-25.9-50.7-18.7c-8.6,3.5-26.4,15.8-4.6,33.4
			C145.6,439.4,180.3,440.7,188.4,462.4z"/>
	</g>
	<g>
		<defs>
			<rect id="SVGID_15_" y="0" width="469.3" height="462.1"/>
		</defs>
		<clipPath id="SVGID_16_">
			<use xlink:href="#SVGID_15_"  style="overflow:visible;"/>
		</clipPath>
		<path class="st9" d="M187.8,467.2c0.9,2.8,1.9,5.7,2.8,8.6c2.6-0.8,5.4-1.4,8.2-1.3c8,0,16.2,4.3,21.3,16c0-4.8-0.2-10.1-0.6-15.8
			c-2.2-27.4-20.9-57.1-44-75.1c-13.1-10.2-32.8-23.1-52.1-15.2c-9.4,3.9-27.5,21.1-3.8,40.3S178.8,439.7,187.8,467.2z"/>
	</g>
	<g>
		<defs>
			<rect id="SVGID_17_" y="0" width="469.3" height="462.1"/>
		</defs>
		<clipPath id="SVGID_18_">
			<use xlink:href="#SVGID_17_"  style="overflow:visible;"/>
		</clipPath>
		<g class="st10">
			<path class="st2" d="M190.6,475.8L190.6,475.8c-1-2.9-1.9-5.7-2.8-8.6c-9-27.5-44.5-23.3-68.2-42.5c-7.6-6.2-10.9-12.1-11.5-17.5
				c-5.7-0.8-11.5-0.3-17.4,2.1c-9.4,3.9-28.7,25-5,44.2c20.9,17,56.9,4.6,73.1,23.1c4.7-6.5,12.9-11,19.1-8.8
				c5,1.8,1.3,13.6,1.3,13.6S184.2,477.8,190.6,475.8z"/>
		</g>
	</g>
	<g>
		<defs>
			<rect id="SVGID_19_" y="0" width="469.3" height="462.1"/>
		</defs>
		<clipPath id="SVGID_20_">
			<use xlink:href="#SVGID_19_"  style="overflow:visible;"/>
		</clipPath>
		<g class="st11">
			<path class="st3" d="M189.6,476.1l-0.6,0.2c-0.9-2.4-3.1-7.8-4-10.2c-8.6-23.4-42.5-21.3-64.9-37.6c-7.2-5.3-12.6-13.8-13.2-18.3
				c-5.4-0.6-8.3,0-13.8,2c-8.9,3.3-27.2,21.3-4.8,37.6c19.8,14.4,54.1,7.4,71.9,24.9c4.5-5.5,11.8-8.8,17.7-6.9
				c4.8,1.5,1.3,13.6,1.3,13.6S183.4,477.8,189.6,476.1z"/>
		</g>
	</g>
	<g>
		<defs>
			<rect id="SVGID_21_" y="0" width="469.3" height="462.1"/>
		</defs>
		<clipPath id="SVGID_22_">
			<use xlink:href="#SVGID_21_"  style="overflow:visible;"/>
		</clipPath>
		<g class="st12">
			<path class="st2" d="M155.7,504.1c-2.6-8.4-0.7-19.8,0.2-22.2c0.7-1.8,1.6-3.6,2.9-5.3c-15.7-17.8-49.9-6.8-71-21.5
				c-9.8,6.4-23.4,25.3-2,42.6c21.4,17.4,50.6-4.4,66.3,13.7c1.2,0.5,2.4,0.9,3.5,1.3c5.5,1.5,10.1,2.6,10.1,2.6
				S158.4,512.7,155.7,504.1z"/>
		</g>
	</g>
	<g>
		<defs>
			<rect id="SVGID_23_" y="0" width="469.3" height="462.1"/>
		</defs>
		<clipPath id="SVGID_24_">
			<use xlink:href="#SVGID_23_"  style="overflow:visible;"/>
		</clipPath>
		<g class="st13">
			<path class="st3" d="M156.2,504.8c-2.5-7.9-1.7-18.9-0.8-21.2c0.6-1.7,1.2-4,2.3-5.6c-14.8-16.7-49.5-6.3-69.5-20.1
				c-7.9,5.1-20,21.8,0.2,38c20.3,16.3,47.8-5.8,64.5,12.8c1.6,1.9,2.1,3.6,3.2,3.9c5.2,1.4,9.6,2.4,9.6,2.4
				S158.8,512.9,156.2,504.8z"/>
		</g>
	</g>
	<g>
		<defs>
			<rect id="SVGID_25_" y="0" width="469.3" height="462.1"/>
		</defs>
		<clipPath id="SVGID_26_">
			<use xlink:href="#SVGID_25_"  style="overflow:visible;"/>
		</clipPath>
		<path class="st14" d="M347.6,398.5c-2.3-10-8.7-13.6-12.5-15c-14.8-5.5-34.7,0.9-44.7,8.3c-15.5,11.6-27.6,21.9-31.2,37.7
			c3.5,0.6,6.8,2.9,9.2,7.2c0,0,14.3-20.4,29.2-10.2c0.8,0.6,1.5,1.1,2.1,1.6c12.2-4.4,29.6-3.7,42.1-12.3
			C347.5,411.9,348.5,402.6,347.6,398.5z"/>
	</g>
	<g>
		<defs>
			<rect id="SVGID_27_" y="0" width="469.3" height="462.1"/>
		</defs>
		<clipPath id="SVGID_28_">
			<use xlink:href="#SVGID_27_"  style="overflow:visible;"/>
		</clipPath>
		<path class="st15" d="M345.2,400c-2.3-10-8.7-12.8-12.3-14.3c-12.1-4.9-29.8,0.4-39.8,7.9c-15.5,11.6-28.1,20.7-31.7,36.5
			c3.5,0.6,4.7,2.4,7,6.7c0,0,9.8-15.8,25.4-12.1c1,0.2,3.3,1.5,3.8,2c12.2-4.4,30-5.1,42.5-13.7C345.8,409,346.1,404,345.2,400z"/>
	</g>
	<g>
		<defs>
			<rect id="SVGID_29_" y="0" width="469.3" height="462.1"/>
		</defs>
		<clipPath id="SVGID_30_">
			<use xlink:href="#SVGID_29_"  style="overflow:visible;"/>
		</clipPath>
		<g class="st16">
			<path class="st2" d="M295.3,425.3c-0.5-0.2-1-0.5-1.5-0.6l0,0C294.3,424.8,294.8,425,295.3,425.3z"/>
			<path class="st2" d="M358.2,443.7c-4.8-11.2-22-17.3-33.3-20c-0.8-0.2-1.6-0.3-2.5-0.5c-8,1.7-16.1,2.6-22.7,5
				c9.8,8.7-11.2,12-18.4,17.4c0,0-1.1,0.6-1.7,1.7c-0.5,0.9-0.5,2.2-0.4,2.4c0,0,3.2,3.5,3.3,3.2c0.1,0.1,0.2,0.2,0.4,0.2
				c0.8,0.5,2.9,1.4,5.3,2.6c17.5-7.2,34.5,6.5,53.3,11.7c6.3,1.8,13.1-3,15.1-6.1C361.5,453.8,359.6,447.2,358.2,443.7z"/>
			<path class="st2" d="M295.9,425.6c0.2,0.1,0.3,0.2,0.5,0.3C296.2,425.8,296.1,425.7,295.9,425.6z"/>
		</g>
	</g>
	<g>
		<defs>
			<rect id="SVGID_31_" y="0" width="469.3" height="462.1"/>
		</defs>
		<clipPath id="SVGID_32_">
			<use xlink:href="#SVGID_31_"  style="overflow:visible;"/>
		</clipPath>
		<g class="st17">
			<path class="st3" d="M353.6,441.5c-7.6-9.6-15.9-11.9-27.2-14.6c-0.8-0.2-4.9-1.4-10.2-0.7c-8,1.7-8.5,1.5-15.1,3.9
				c5.4,4.3-5.5,8.7-13.6,12.3c-4.9,2.2-8.4,4.9-8.3,4.9c0,0,0.6,2.7,0.7,2.5c-1.5,0.4-0.1,1.1,0.1,1.2c0.8,0.5,2.3,1.9,4.7,3.1
				c21.8-7.8,36.7,5.1,55.5,10.3c6.3,1.8,13.1-3,15.1-6.1C360.2,450.7,355.9,444.5,353.6,441.5z"/>
		</g>
	</g>
	<g>
		<defs>
			<rect id="SVGID_33_" y="0" width="469.3" height="462.1"/>
		</defs>
		<clipPath id="SVGID_34_">
			<use xlink:href="#SVGID_33_"  style="overflow:visible;"/>
		</clipPath>
		<path class="st18" d="M290.4,391.9c4.2-3.1,10-6,16.5-8c1.2-4.6,0.5-9.8-0.6-12.4c-4.1-9.4-11-11.8-15-12.4
			c-15.6-2.7-28.5,9.2-37,18.4c-14.8,16.1-23.5,41.3-21.3,60.9c0.5,4.1,1.2,15.4,1.9,18.8c0-0.1,0-0.1,0.1-0.2
			c0.8-4.4,2-8.4,3.6-11.8c2.1-5.4,4.8-10,8-11.1c3.8-3.3,8.2-4.9,12-4.5c0.3-2.2,1.6-4.4,2.5-6.3c1.1-2.5,1.6-4.5,3.4-6.5
			C270.3,407.5,279.5,400,290.4,391.9z"/>
	</g>
	<g>
		<defs>
			<rect id="SVGID_35_" y="0" width="469.3" height="462.1"/>
		</defs>
		<clipPath id="SVGID_36_">
			<use xlink:href="#SVGID_35_"  style="overflow:visible;"/>
		</clipPath>
		<path class="st19" d="M286.1,391c3.9-2.9,12.5-6.6,18.5-8.4c0.9-3.3,0-7.9-1.1-10.3c-3.8-8.8-10.9-9.7-14.6-10.4
			c-14.5-2.6-25.7,11-33.6,19.5c-13.8,15-21.1,36.4-20.1,54.7c0.2,3.9,0.4,13.8,1.1,17c0-0.1-0.3,1.3-0.2,1.3
			c0.7-4.1,1.9-7.8,3.4-11.1c1.9-5,4.5-8.6,7.5-9.6c3.5-3.1,5.5-4.3,9.1-4c0.3-2.1,1.4-5.5,2.2-7.3c1-2.3,2.6-6.1,6.9-11.9
			C270.6,403.8,275.9,398.6,286.1,391z"/>
	</g>
	<g>
		<defs>
			<rect id="SVGID_37_" y="0" width="469.3" height="462.1"/>
		</defs>
		<clipPath id="SVGID_38_">
			<use xlink:href="#SVGID_37_"  style="overflow:visible;"/>
		</clipPath>
		<path class="st20" d="M230.4,519.7c0,0,5.8-15.8,4-49.5s23.8-51.7,34-33.4c0,0,14.3-20.4,29.2-10.2c14.8,10.1-9.8,13.4-16.8,19.4
			c-2.4,2.1-2.8,4.4,2.1,7.1c2.6,1.5,18.1,8.4,16.4,10.7c0,0-20.4-3.6-37.9,17.5C247.9,497.7,239.7,518.9,230.4,519.7z"/>
	</g>
	<g>
		<defs>
			<rect id="SVGID_39_" y="0" width="469.3" height="462.1"/>
		</defs>
		<clipPath id="SVGID_40_">
			<use xlink:href="#SVGID_39_"  style="overflow:visible;"/>
		</clipPath>
		<path class="st21" d="M233.5,515.5c0,0,6.3-18.6,4.7-46.8c-1.5-28.2,18.8-45.4,29.8-27.9c0,0,15.6-21.2,28.1-12.6
			c12.4,8.5-13,11.1-18.8,16.1c-2,1.7-1.3,7.9,2.9,10.2c2.2,1.2,14.7,5.7,13.3,7.6c0,0-17.6-1.2-32.9,16
			C244.8,496,239.8,514.7,233.5,515.5z"/>
	</g>
	<g>
		<defs>
			<rect id="SVGID_41_" y="0" width="469.3" height="462.1"/>
		</defs>
		<clipPath id="SVGID_42_">
			<use xlink:href="#SVGID_41_"  style="overflow:visible;"/>
		</clipPath>
		<path class="st22" d="M199.4,350.5c-0.1-0.1-0.1-0.2-0.2-0.4C199.2,350.2,199.3,350.3,199.4,350.5z"/>
	</g>
	<g>
		<defs>
			<rect id="SVGID_43_" y="0" width="469.3" height="462.1"/>
		</defs>
		<clipPath id="SVGID_44_">
			<use xlink:href="#SVGID_43_"  style="overflow:visible;"/>
		</clipPath>
		<path class="st23" d="M198.8,349.6c0.1,0.2,0.2,0.3,0.3,0.5C199,349.9,198.9,349.8,198.8,349.6z"/>
	</g>
	<g>
		<defs>
			<rect id="SVGID_45_" y="0" width="469.3" height="462.1"/>
		</defs>
		<clipPath id="SVGID_46_">
			<use xlink:href="#SVGID_45_"  style="overflow:visible;"/>
		</clipPath>
		<path class="st24" d="M199.5,350.8c0-0.1,0-0.1-0.1-0.2C199.4,350.6,199.5,350.7,199.5,350.8z"/>
	</g>
	<g>
		<defs>
			<rect id="SVGID_47_" y="0" width="469.3" height="462.1"/>
		</defs>
		<clipPath id="SVGID_48_">
			<use xlink:href="#SVGID_47_"  style="overflow:visible;"/>
		</clipPath>
		<path class="st25" d="M197.8,348.4c-0.2-0.2-0.4-0.4-0.6-0.6l0,0C197.4,348,197.6,348.2,197.8,348.4z"/>
	</g>
	<g>
		<defs>
			<rect id="SVGID_49_" y="0" width="469.3" height="462.1"/>
		</defs>
		<clipPath id="SVGID_50_">
			<use xlink:href="#SVGID_49_"  style="overflow:visible;"/>
		</clipPath>
		<path class="st26" d="M199.5,351.1c0,0.1-0.1,0.1-0.2,0.2C199.4,351.3,199.4,351.2,199.5,351.1z"/>
	</g>
	<g>
		<defs>
			<rect id="SVGID_51_" y="0" width="469.3" height="462.1"/>
		</defs>
		<clipPath id="SVGID_52_">
			<use xlink:href="#SVGID_51_"  style="overflow:visible;"/>
		</clipPath>
		<path class="st27" d="M199.5,350.9c0,0.1,0,0.1,0,0.2C199.5,351,199.5,351,199.5,350.9z"/>
	</g>
	<g>
		<defs>
			<rect id="SVGID_53_" y="0" width="469.3" height="462.1"/>
		</defs>
		<clipPath id="SVGID_54_">
			<use xlink:href="#SVGID_53_"  style="overflow:visible;"/>
		</clipPath>
		<path class="st28" d="M198.4,349.1c0.1,0.1,0.2,0.3,0.3,0.4C198.6,349.4,198.5,349.2,198.4,349.1z"/>
	</g>
	<g>
		<defs>
			<rect id="SVGID_55_" y="0" width="469.3" height="462.1"/>
		</defs>
		<clipPath id="SVGID_56_">
			<use xlink:href="#SVGID_55_"  style="overflow:visible;"/>
		</clipPath>
		<path class="st29" d="M199.3,351.3L199.3,351.3L199.3,351.3z"/>
	</g>
	<g>
		<defs>
			<rect id="SVGID_57_" y="0" width="469.3" height="462.1"/>
		</defs>
		<clipPath id="SVGID_58_">
			<use xlink:href="#SVGID_57_"  style="overflow:visible;"/>
		</clipPath>
		<path class="st30" d="M197.9,348.5c0.1,0.1,0.3,0.3,0.4,0.4C198.1,348.8,198,348.7,197.9,348.5z"/>
	</g>
	<g>
		<defs>
			<rect id="SVGID_59_" y="0" width="469.3" height="462.1"/>
		</defs>
		<clipPath id="SVGID_60_">
			<use xlink:href="#SVGID_59_"  style="overflow:visible;"/>
		</clipPath>
		<path class="st31" d="M241.3,336.1c-4.3,5.2-9.9,9.4-14.6,11.3c-12.6,5.3-23.1,9-34,5.5c0.4-1.1-6,1.7-7.2,1.6
			c-0.5,0.4-7.4,1-5.3,2.4c10.8,7.1,26.4,10.3,40.4,7.2c8-1.8,20.2-3.8,23.8-13.5c0.9-2.5,2.9-7.1-1.1-12.5
			C242.7,337.5,242.1,336.8,241.3,336.1z"/>
	</g>
	<g>
		<defs>
			<rect id="SVGID_61_" y="0" width="469.3" height="462.1"/>
		</defs>
		<clipPath id="SVGID_62_">
			<use xlink:href="#SVGID_61_"  style="overflow:visible;"/>
		</clipPath>
		<path class="st32" d="M198.9,351.1c0.1,0.1,0.2,0.1,0.3,0.1C199.1,351.2,199,351.2,198.9,351.1z"/>
	</g>
	<g>
		<defs>
			<rect id="SVGID_63_" y="0" width="469.3" height="462.1"/>
		</defs>
		<clipPath id="SVGID_64_">
			<use xlink:href="#SVGID_63_"  style="overflow:visible;"/>
		</clipPath>
		<path class="st33" d="M199.5,350.9C199.5,350.9,199.5,351,199.5,350.9C199.5,351,199.5,350.9,199.5,350.9z"/>
	</g>
	<g>
		<defs>
			<rect id="SVGID_65_" y="0" width="469.3" height="462.1"/>
		</defs>
		<clipPath id="SVGID_66_">
			<use xlink:href="#SVGID_65_"  style="overflow:visible;"/>
		</clipPath>
		<path class="st34" d="M194.8,345.6c0.1,0.1,0.2,0.2,0.4,0.3C195,345.8,194.9,345.7,194.8,345.6z"/>
	</g>
	<g>
		<defs>
			<rect id="SVGID_67_" y="0" width="469.3" height="462.1"/>
		</defs>
		<clipPath id="SVGID_68_">
			<use xlink:href="#SVGID_67_"  style="overflow:visible;"/>
		</clipPath>
		<path class="st35" d="M199.5,351.1C199.5,351.1,199.4,351.2,199.5,351.1C199.4,351.2,199.5,351.1,199.5,351.1z"/>
	</g>
	<g>
		<defs>
			<rect id="SVGID_69_" y="0" width="469.3" height="462.1"/>
		</defs>
		<clipPath id="SVGID_70_">
			<use xlink:href="#SVGID_69_"  style="overflow:visible;"/>
		</clipPath>
		<path class="st36" d="M197,347.6c0.1,0.1,0.2,0.1,0.2,0.2C197.2,347.8,197.1,347.7,197,347.6z"/>
	</g>
	<g>
		<defs>
			<rect id="SVGID_71_" y="0" width="469.3" height="462.1"/>
		</defs>
		<clipPath id="SVGID_72_">
			<use xlink:href="#SVGID_71_"  style="overflow:visible;"/>
		</clipPath>
		<path class="st37" d="M195.3,346.1c0.1,0.1,0.2,0.2,0.3,0.3C195.6,346.3,195.4,346.2,195.3,346.1z"/>
	</g>
	<g>
		<defs>
			<rect id="SVGID_73_" y="0" width="469.3" height="462.1"/>
		</defs>
		<clipPath id="SVGID_74_">
			<use xlink:href="#SVGID_73_"  style="overflow:visible;"/>
		</clipPath>
		<path class="st38" d="M196.5,347.1c0.1,0.1,0.2,0.2,0.3,0.2C196.6,347.3,196.6,347.2,196.5,347.1z"/>
	</g>
	<g>
		<defs>
			<rect id="SVGID_75_" y="0" width="469.3" height="462.1"/>
		</defs>
		<clipPath id="SVGID_76_">
			<use xlink:href="#SVGID_75_"  style="overflow:visible;"/>
		</clipPath>
		<path class="st39" d="M199.4,350.5c0,0,0-0.1-0.1-0.1C199.3,350.4,199.3,350.4,199.4,350.5z"/>
	</g>
	<g>
		<defs>
			<rect id="SVGID_77_" y="0" width="469.3" height="462.1"/>
		</defs>
		<clipPath id="SVGID_78_">
			<use xlink:href="#SVGID_77_"  style="overflow:visible;"/>
		</clipPath>
		<path class="st40" d="M195.9,346.6c0.1,0.1,0.2,0.2,0.3,0.3C196.1,346.8,196,346.7,195.9,346.6z"/>
	</g>
	<g>
		<defs>
			<rect id="SVGID_79_" y="0" width="469.3" height="462.1"/>
		</defs>
		<clipPath id="SVGID_80_">
			<use xlink:href="#SVGID_79_"  style="overflow:visible;"/>
		</clipPath>
		<path class="st41" d="M199.1,350l0.1,0.1C199.2,350.1,199.1,350,199.1,350z"/>
	</g>
	<g>
		<defs>
			<rect id="SVGID_81_" y="0" width="469.3" height="462.1"/>
		</defs>
		<clipPath id="SVGID_82_">
			<use xlink:href="#SVGID_81_"  style="overflow:visible;"/>
		</clipPath>
		<path class="st42" d="M199.2,351.3C199.3,351.3,199.3,351.3,199.2,351.3C199.3,351.3,199.3,351.3,199.2,351.3z"/>
	</g>
	<g>
		<defs>
			<rect id="SVGID_83_" y="0" width="469.3" height="462.1"/>
		</defs>
		<clipPath id="SVGID_84_">
			<use xlink:href="#SVGID_83_"  style="overflow:visible;"/>
		</clipPath>
		<path class="st43" d="M242.5,334.6c-4.4,6-10.7,10.7-15.8,12.9c-12.6,5.3-23.1,9-34,5.5c0.4-1.1-2.5,0.7-3.8,0.5
			c-0.5,0.4-12.7,2.6-10.9,3.9c11.2,8.3,29.6,12,44.6,8.7c8.6-1.9,20.5-5.5,24.3-15.9c1-2.6,2-7.7-2.3-13.5
			C244.2,336,243.4,335.3,242.5,334.6z"/>
	</g>
	<g>
		<defs>
			<rect id="SVGID_85_" y="0" width="469.3" height="462.1"/>
		</defs>
		<clipPath id="SVGID_86_">
			<use xlink:href="#SVGID_85_"  style="overflow:visible;"/>
		</clipPath>
		<path class="st44" d="M197.5,348.2c0.1,0.1,0.1,0.1,0.2,0.2C197.6,348.3,197.6,348.2,197.5,348.2z"/>
	</g>
	<g>
		<defs>
			<rect id="SVGID_87_" y="0" width="469.3" height="462.1"/>
		</defs>
		<clipPath id="SVGID_88_">
			<use xlink:href="#SVGID_87_"  style="overflow:visible;"/>
		</clipPath>
		<path class="st45" d="M198.8,349.6c0,0.1,0.1,0.1,0.1,0.2C198.9,349.7,198.9,349.7,198.8,349.6z"/>
	</g>
	<g>
		<defs>
			<rect id="SVGID_89_" y="0" width="469.3" height="462.1"/>
		</defs>
		<clipPath id="SVGID_90_">
			<use xlink:href="#SVGID_89_"  style="overflow:visible;"/>
		</clipPath>
		<path class="st46" d="M198.1,348.8C198.1,348.8,198.2,348.8,198.1,348.8C198.2,348.8,198.1,348.8,198.1,348.8z"/>
	</g>
	<g>
		<defs>
			<rect id="SVGID_91_" y="0" width="469.3" height="462.1"/>
		</defs>
		<clipPath id="SVGID_92_">
			<use xlink:href="#SVGID_91_"  style="overflow:visible;"/>
		</clipPath>
		<path class="st47" d="M199.5,350.7v-0.1C199.4,350.7,199.5,350.7,199.5,350.7z"/>
	</g>
	<g>
		<defs>
			<rect id="SVGID_93_" y="0" width="469.3" height="462.1"/>
		</defs>
		<clipPath id="SVGID_94_">
			<use xlink:href="#SVGID_93_"  style="overflow:visible;"/>
		</clipPath>
		<path class="st48" d="M198.5,349.2c0,0.1,0.1,0.1,0.1,0.1C198.6,349.3,198.5,349.3,198.5,349.2z"/>
	</g>
	<g>
		<defs>
			<rect id="SVGID_95_" y="0" width="469.3" height="462.1"/>
		</defs>
		<clipPath id="SVGID_96_">
			<use xlink:href="#SVGID_95_"  style="overflow:visible;"/>
		</clipPath>
		<path class="st49" d="M205.7,326.7C205.7,326.8,205.7,326.8,205.7,326.7c2-0.2,3.1-0.6,5.9-1.4c5.5-6,10.8-13.9,18.8-17.6
			c0.1,0,0.1-0.1,0.2-0.1c0.5-1.3,0.9-2.8,1.3-4.4c0.5-2.6,1.2-7.9-4.4-11c-2.3-1.3-8-2.1-11.4,1c-10,9.3-11.7,22-34.6,25.1
			c0.4,0.7,0.8,1.5,1.1,2.3c0.1,0.1,0.2,0.2,0.1,0.3C182.6,321,195.9,316.3,205.7,326.7z"/>
	</g>
	<g>
		<defs>
			<rect id="SVGID_97_" y="0" width="469.3" height="462.1"/>
		</defs>
		<clipPath id="SVGID_98_">
			<use xlink:href="#SVGID_97_"  style="overflow:visible;"/>
		</clipPath>
		<path class="st50" d="M205.7,326.7c0.4,0.5,0.8,0.9,1.1,1.3c1-0.2,2-0.5,3-0.8c6.2-6,11.8-15.4,20.6-19.5c0.8-0.4,1.6-0.6,2.4-0.7
			c0.9-2.2,1.3-4.5,1.2-6.6c-0.2-2.7-1.1-7.4-6.7-10.6c-2.3-1.3-8-2.1-11.4,1c-10.1,9.3-16.3,23.4-29.6,24.5
			c-2.4,0.1-6.3,0.4-6.7,0.9l0,0c1.4,1.1,2.5,2.7,3.1,4.8C182.6,321,195.9,316.3,205.7,326.7z"/>
	</g>
	<g>
		<defs>
			<rect id="SVGID_99_" y="0" width="469.3" height="462.1"/>
		</defs>
		<clipPath id="SVGID_100_">
			<use xlink:href="#SVGID_99_"  style="overflow:visible;"/>
		</clipPath>
		<circle class="st51" cx="46.7" cy="465.1" r="5.7"/>
	</g>
	<g>
		<defs>
			<rect id="SVGID_101_" y="0" width="469.3" height="462.1"/>
		</defs>
		<clipPath id="SVGID_102_">
			<use xlink:href="#SVGID_101_"  style="overflow:visible;"/>
		</clipPath>
		<circle class="st52" cx="190.1" cy="378.2" r="4.6"/>
	</g>
	<g>
		<defs>
			<rect id="SVGID_103_" y="0" width="469.3" height="462.1"/>
		</defs>
		<clipPath id="SVGID_104_">
			<use xlink:href="#SVGID_103_"  style="overflow:visible;"/>
		</clipPath>
		<circle class="st53" cx="199.5" cy="396.9" r="3.9"/>
	</g>
	<g>
		<defs>
			<rect id="SVGID_105_" y="0" width="469.3" height="462.1"/>
		</defs>
		<clipPath id="SVGID_106_">
			<use xlink:href="#SVGID_105_"  style="overflow:visible;"/>
		</clipPath>
		<circle class="st54" cx="207" cy="414.7" r="3.3"/>
	</g>
	<g>
		<defs>
			<rect id="SVGID_107_" y="0" width="469.3" height="462.1"/>
		</defs>
		<clipPath id="SVGID_108_">
			<use xlink:href="#SVGID_107_"  style="overflow:visible;"/>
		</clipPath>
		<circle class="st55" cx="214" cy="382.9" r="3.9"/>
	</g>
	<g>
		<defs>
			<rect id="SVGID_109_" y="0" width="469.3" height="462.1"/>
		</defs>
		<clipPath id="SVGID_110_">
			<use xlink:href="#SVGID_109_"  style="overflow:visible;"/>
		</clipPath>
		<circle class="st56" cx="221.5" cy="400.7" r="3.3"/>
	</g>
	<g>
		<defs>
			<rect id="SVGID_111_" y="0" width="469.3" height="462.1"/>
		</defs>
		<clipPath id="SVGID_112_">
			<use xlink:href="#SVGID_111_"  style="overflow:visible;"/>
		</clipPath>
		<circle class="st57" cx="240.3" cy="376.3" r="3.9"/>
	</g>
	<g>
		<defs>
			<rect id="SVGID_113_" y="0" width="469.3" height="462.1"/>
		</defs>
		<clipPath id="SVGID_114_">
			<use xlink:href="#SVGID_113_"  style="overflow:visible;"/>
		</clipPath>
		<path class="st58" d="M258.5,367.8c0,1.8-1.5,3.3-3.3,3.3s-3.3-1.5-3.3-3.3s1.5-3.3,3.3-3.3S258.5,366,258.5,367.8z"/>
	</g>
	<g>
		<defs>
			<rect id="SVGID_115_" y="0" width="469.3" height="462.1"/>
		</defs>
		<clipPath id="SVGID_116_">
			<use xlink:href="#SVGID_115_"  style="overflow:visible;"/>
		</clipPath>
		<path class="st59" d="M199.4,373.6c0,0,27.2,46.9,22.8,86.1"/>
	</g>
	<g>
		<defs>
			<rect id="SVGID_117_" y="0" width="469.3" height="462.1"/>
		</defs>
		<clipPath id="SVGID_118_">
			<use xlink:href="#SVGID_117_"  style="overflow:visible;"/>
		</clipPath>
		<path class="st60" d="M177.4,365.2c0,0,2.2,29.4,15.6,41.3"/>
	</g>
	<g>
		<defs>
			<rect id="SVGID_119_" y="0" width="469.3" height="462.1"/>
		</defs>
		<clipPath id="SVGID_120_">
			<use xlink:href="#SVGID_119_"  style="overflow:visible;"/>
		</clipPath>
		<path class="st61" d="M218.2,375c0,0,11.7,5.1,13.3,28"/>
	</g>
	<g>
		<defs>
			<rect id="SVGID_121_" y="0" width="469.3" height="462.1"/>
		</defs>
		<clipPath id="SVGID_122_">
			<use xlink:href="#SVGID_121_"  style="overflow:visible;"/>
		</clipPath>
		<path class="st62" d="M132.8,369.9c0,0,7.9-8.8,13.5-31.1c5.6-22.3,32-32.3,36.3-17.8c0,0,13.4-4.8,23.1,5.7
			c9.6,10.3-10.6,6.2-17.4,8.3c-2.4,0.7-3.2,2.1,0.2,5.2c1.8,1.6,12.7,10.1,10.9,11.1c0,0-12.6,1.1-31,10.3
			C154.2,368.8,140.4,371.8,132.8,369.9z"/>
	</g>
	<g>
		<defs>
			<rect id="SVGID_123_" y="0" width="469.3" height="462.1"/>
		</defs>
		<clipPath id="SVGID_124_">
			<use xlink:href="#SVGID_123_"  style="overflow:visible;"/>
		</clipPath>
		<path class="st63" d="M132.8,369.9c0,0,7.9-8.8,13.5-31.1c5.6-22.3,32-32.3,36.3-17.8c0,0,13.4-4.8,23.1,5.7
			c9.6,10.3-10.6,6.2-17.4,8.3c-2.4,0.7-3.2,2.1,0.2,5.2c1.8,1.6,12.7,10.1,10.9,11.1c0,0-12.6,1.1-31,10.3
			C154.2,368.8,140.4,371.8,132.8,369.9z"/>
	</g>
	<g>
		<defs>
			<rect id="SVGID_125_" y="0" width="469.3" height="462.1"/>
		</defs>
		<clipPath id="SVGID_126_">
			<use xlink:href="#SVGID_125_"  style="overflow:visible;"/>
		</clipPath>
		<path class="st64" d="M241.2,311.3c-2.1-2-5.3-3.6-9.7-1.5c-9.6,4.5-16.3,15.1-23.3,20.9l0,0c0.1,0.4,0.1,0.7,0,1l0,0l0,0
			c-1.2,3.8-14.6,1.7-19.9,3.3c-2.4,0.7-3.2,2.1,0.2,5.2c0.6,0.5,2,1.7,3.7,3.1c1.8,0.7,1.7,1.3,1.6,1.4l0,0
			c0.2,0.2,0.4,0.3,0.6,0.5l0.1,0.1c0.2,0.1,0.3,0.3,0.5,0.4l0.1,0.1c0.1,0.1,0.3,0.3,0.4,0.4l0.1,0.1c0.2,0.1,0.3,0.3,0.4,0.4
			l0.1,0.1c0.4,0.3,0.7,0.7,1,1l0.1,0.1c0.1,0.1,0.2,0.2,0.3,0.4l0.1,0.1c0.1,0.1,0.2,0.2,0.3,0.3l0.1,0.1c0.1,0.1,0.2,0.2,0.3,0.3
			l0.1,0.1c0.1,0.1,0.2,0.2,0.2,0.3c0,0,0,0.1,0.1,0.1c0.1,0.1,0.2,0.2,0.3,0.4c0,0,0,0,0,0.1c0.1,0.1,0.1,0.2,0.1,0.3v0.1
			c0,0.1,0.1,0.1,0.1,0.2v0.1c0,0.1,0,0.1,0,0.2v0.1v0.1c0,0,0,0,0,0.1s-0.1,0.1-0.1,0.1s-1.6,0.1-4.4,0.7
			c10.2,2.5,19.8-1.8,31.7-6.8c8.1-3.4,17.7-12.3,19-21.4C245.9,321.1,246.5,316.3,241.2,311.3z"/>
	</g>
	<g>
		<defs>
			<rect id="SVGID_127_" y="0" width="469.3" height="462.1"/>
		</defs>
		<clipPath id="SVGID_128_">
			<use xlink:href="#SVGID_127_"  style="overflow:visible;"/>
		</clipPath>
		<path class="st65" d="M243,310.3c-2.1-2-8.2-4.7-12.6-2.6c-9.7,4.5-15.4,15.4-22.5,21.2c0.1,0.4,0.1,0.8,0.2,1.3l0,0
			c2,5.9-13.9,3-19.8,4.8c-2.4,0.7-3.2,2.1,0.2,5.2c1.8,1.6,12.7,10.1,10.9,11.1c0,0-2.4,0.2-6.5,1.2c-0.1,0.2-0.1,0.3-0.2,0.5
			c10.9,3.4,21.5-0.3,34-5.5c8.1-3.4,19.1-13.2,21-24.2C248.1,320.5,248.2,315.3,243,310.3z"/>
	</g>
	<g>
		<defs>
			<rect id="SVGID_129_" y="0" width="469.3" height="462.1"/>
		</defs>
		<clipPath id="SVGID_130_">
			<use xlink:href="#SVGID_129_"  style="overflow:visible;"/>
		</clipPath>
		<path class="st66" d="M136.2,368c0,0,8.9-10.5,13.5-29.2c4.7-18.7,26.4-28.6,31.5-14.4c0,0,14.8-5.8,23,3
			c8.1,8.7-12.6,3.9-18.4,5.6c-2,0.6-2.7,4.8,0.1,7.4c1.5,1.4,10.1,7.9,8.5,8.7c0,0-13,2.4-28.7,9.6
			C149.5,366.2,141.3,369.1,136.2,368z"/>
	</g>
	<g>
		<defs>
			<rect id="SVGID_131_" y="0" width="469.3" height="462.1"/>
		</defs>
		<clipPath id="SVGID_132_">
			<use xlink:href="#SVGID_131_"  style="overflow:visible;"/>
		</clipPath>
		<path class="st67" d="M363.8,417.4c-2.7,7.1-3.5,13.3,0.3,23.9c4.2,9.9,14.7,12.1,15.7,12.4c3.2,0.9,17.3,3.1,23.7-15.1
			c3.9-11.2-2.3-16.3-5.2-18c-0.4-0.2-9.4-4.7-14.9,1c-7.5,7.9-3.8,15.4-4.2,15.5c-8-6.3-3.3-18.7,4.9-26.5
			c7.6-7.2,26.4-8.5,42.1-18c16.7-10.1,14.4-23.8,14.4-23.8c0.1-0.2-6.3,16.2-23.7,18.4C373.6,392.6,368.7,404.4,363.8,417.4z"/>
	</g>
	<g>
		<defs>
			<rect id="SVGID_133_" y="0" width="469.3" height="462.1"/>
		</defs>
		<clipPath id="SVGID_134_">
			<use xlink:href="#SVGID_133_"  style="overflow:visible;"/>
		</clipPath>
		<path class="st68" d="M366.1,417.2c-1.8,6.4-3,13.3-0.3,22.4c3.1,8.5,12.6,11.6,13.4,11.8c2.5,0.7,17.5,1.6,21.5-11.3
			c3.1-9.9,1.9-14-3.7-16.9c-0.3-0.2-7.8-4.5-12.2,0.6c-6.1,7-3.2,16.2-3.6,16.3c-13.8-7.4-8.5-22-1.6-28.7
			c10.5-10.2,27.4-9.6,42.9-18c15.9-8.7,17.4-20.7,17.4-20.7c0-1.7-2.9,14.4-24.2,16.2C396.1,390.6,371.8,397.7,366.1,417.2z"/>
	</g>
	<g>
		<defs>
			<rect id="SVGID_135_" y="0" width="469.3" height="462.1"/>
		</defs>
		<clipPath id="SVGID_136_">
			<use xlink:href="#SVGID_135_"  style="overflow:visible;"/>
		</clipPath>
		<g class="st69">
			<path class="st70" d="M359.4,387.4c-2.5-0.5-5,1-5.5,3.5s1,5,3.5,5.5s5-1,5.5-3.5C363.5,390.5,361.9,388,359.4,387.4z"/>
			<circle class="st70" cx="373.6" cy="379.3" r="3.9"/>
			<path class="st70" d="M390.6,370.6c-1.8-0.4-3.6,0.7-4,2.6c-0.4,1.8,0.8,3.6,2.5,4c1.8,0.4,3.6-0.7,4-2.5
				C393.5,372.8,392.4,371,390.6,370.6z"/>
			<path class="st70" d="M408.6,369.3c-1.5-0.3-2.9,0.6-3.2,2c-0.3,1.4,0.6,2.9,2,3.2c1.4,0.3,2.9-0.6,3.2-2
				C411,371,410,369.6,408.6,369.3z"/>
		</g>
	</g>
	<g>
		<defs>
			<rect id="SVGID_137_" y="0" width="469.3" height="462.1"/>
		</defs>
		<clipPath id="SVGID_138_">
			<use xlink:href="#SVGID_137_"  style="overflow:visible;"/>
		</clipPath>
		<path class="st71" d="M-1.9,351.7c-1.4-0.3-2.9,0.6-3.2,2c-0.3,1.4,0.6,2.9,2,3.2s2.9-0.6,3.2-2C0.4,353.4-0.5,352-1.9,351.7z"/>
	</g>
</g>
</svg>
