<?xml version="1.0" encoding="utf-8"?>
<!-- Generator: Adobe Illustrator 22.0.0, SVG Export Plug-In . SVG Version: 6.00 Build 0)  -->
<svg version="1.1" id="Layer_1" xmlns="http://www.w3.org/2000/svg" xmlns:xlink="http://www.w3.org/1999/xlink" x="0px" y="0px"
	 viewBox="0 0 469.3 462.1" style="enable-background:new 0 0 469.3 462.1;" xml:space="preserve">
<style type="text/css">
	.st0{clip-path:url(#SVGID_2_);}
	.st1{fill:none;stroke:#00C9C9;stroke-linecap:round;stroke-linejoin:round;stroke-miterlimit:10;}
	.st2{clip-path:url(#SVGID_4_);}
	.st3{clip-path:url(#SVGID_6_);fill:none;stroke:#00C9C9;stroke-linecap:round;stroke-linejoin:round;stroke-miterlimit:10;}
	.st4{clip-path:url(#SVGID_8_);}
	.st5{clip-path:url(#SVGID_10_);fill:none;stroke:#00C9C9;stroke-linecap:round;stroke-linejoin:round;stroke-miterlimit:10;}
	.st6{clip-path:url(#SVGID_12_);fill:none;stroke:#00C9C9;stroke-linecap:round;stroke-linejoin:round;stroke-miterlimit:10;}
	
		.st7{clip-path:url(#SVGID_14_);fill:none;stroke:#00C9C9;stroke-width:0.25;stroke-linecap:round;stroke-linejoin:round;stroke-miterlimit:10;}
	.st8{clip-path:url(#SVGID_16_);}
	.st9{fill:none;stroke:#00C9C9;stroke-width:0.25;stroke-linecap:round;stroke-linejoin:round;stroke-miterlimit:10;}
	.st10{clip-path:url(#SVGID_18_);}
	.st11{clip-path:url(#SVGID_20_);fill:none;stroke:#00C9C9;stroke-linecap:round;stroke-linejoin:round;stroke-miterlimit:10;}
	.st12{clip-path:url(#SVGID_22_);fill:none;stroke:#00C9C9;stroke-linecap:round;stroke-linejoin:round;stroke-miterlimit:10;}
	
		.st13{clip-path:url(#SVGID_24_);fill:none;stroke:#00C9C9;stroke-width:0.25;stroke-linecap:round;stroke-linejoin:round;stroke-miterlimit:10;}
	.st14{clip-path:url(#SVGID_26_);fill:none;stroke:#00C9C9;stroke-linecap:round;stroke-linejoin:round;stroke-miterlimit:10;}
	
		.st15{clip-path:url(#SVGID_28_);fill:none;stroke:#00C9C9;stroke-width:0.5;stroke-linecap:round;stroke-linejoin:round;stroke-miterlimit:10;stroke-dasharray:4;}
	
		.st16{clip-path:url(#SVGID_30_);fill:none;stroke:#00C9C9;stroke-width:0.25;stroke-linecap:round;stroke-linejoin:round;stroke-miterlimit:10;}
	.st17{clip-path:url(#SVGID_32_);fill:none;stroke:#00C9C9;stroke-linecap:round;stroke-linejoin:round;stroke-miterlimit:10;}
	
		.st18{clip-path:url(#SVGID_34_);fill:none;stroke:#00C9C9;stroke-width:0.5;stroke-linecap:round;stroke-linejoin:round;stroke-miterlimit:10;stroke-dasharray:1.5;}
	.st19{clip-path:url(#SVGID_36_);fill:none;stroke:#00C9C9;stroke-linecap:round;stroke-linejoin:round;stroke-miterlimit:10;}
	.st20{clip-path:url(#SVGID_38_);}
	.st21{fill:none;stroke:#00C9C9;stroke-width:0.5;stroke-linecap:round;stroke-linejoin:round;}
	.st22{fill:none;stroke:#00C9C9;stroke-width:0.5;stroke-linecap:round;stroke-linejoin:round;stroke-dasharray:4.5618,4.5618;}
	.st23{fill:none;stroke:#00C9C9;stroke-width:0.5;stroke-linecap:round;stroke-linejoin:round;stroke-dasharray:4.1777,4.1777;}
	.st24{fill:none;stroke:#00C9C9;stroke-width:0.5;stroke-linecap:round;stroke-linejoin:round;stroke-dasharray:4.1785,4.1785;}
	.st25{fill:none;stroke:#00C9C9;stroke-width:0.5;stroke-linecap:round;stroke-linejoin:round;stroke-dasharray:4.2908,4.2908;}
	.st26{clip-path:url(#SVGID_40_);}
	.st27{fill:none;stroke:#00C9C9;stroke-width:0.5;stroke-linecap:round;stroke-linejoin:round;stroke-dasharray:3.876,3.876;}
	.st28{fill:none;stroke:#00C9C9;stroke-width:0.5;stroke-linecap:round;stroke-linejoin:round;stroke-dasharray:3.6297,3.6297;}
	.st29{fill:none;stroke:#00C9C9;stroke-width:0.5;stroke-linecap:round;stroke-linejoin:round;stroke-dasharray:3.8916,3.8916;}
	.st30{clip-path:url(#SVGID_42_);}
	.st31{fill:none;stroke:#00C9C9;stroke-width:0.5;stroke-linecap:round;stroke-linejoin:round;stroke-dasharray:3.2616,3.2616;}
	.st32{fill:none;stroke:#00C9C9;stroke-width:0.5;stroke-linecap:round;stroke-linejoin:round;stroke-dasharray:3.9813,3.9813;}
	.st33{fill:none;stroke:#00C9C9;stroke-width:0.5;stroke-linecap:round;stroke-linejoin:round;stroke-dasharray:3.8821,3.8821;}
	.st34{fill:none;stroke:#00C9C9;stroke-width:0.5;stroke-linecap:round;stroke-linejoin:round;stroke-dasharray:3.6816,3.6816;}
	.st35{clip-path:url(#SVGID_44_);}
	.st36{fill:none;stroke:#00C9C9;stroke-width:0.5;stroke-linecap:round;stroke-linejoin:round;stroke-miterlimit:10;}
	.st37{clip-path:url(#SVGID_46_);}
	
		.st38{fill:none;stroke:#00C9C9;stroke-width:0.5;stroke-linecap:round;stroke-linejoin:round;stroke-miterlimit:10;stroke-dasharray:4;}
	.st39{clip-path:url(#SVGID_48_);}
	
		.st40{clip-path:url(#SVGID_50_);fill:none;stroke:#00C9C9;stroke-width:0.75;stroke-linecap:round;stroke-linejoin:round;stroke-miterlimit:10;}
	
		.st41{clip-path:url(#SVGID_52_);fill:none;stroke:#00C9C9;stroke-width:0.25;stroke-linecap:round;stroke-linejoin:round;stroke-miterlimit:10;}
	
		.st42{clip-path:url(#SVGID_54_);fill:none;stroke:#00C9C9;stroke-width:0.75;stroke-linecap:round;stroke-linejoin:round;stroke-miterlimit:10;}
	
		.st43{clip-path:url(#SVGID_56_);fill:none;stroke:#00C9C9;stroke-width:0.25;stroke-linecap:round;stroke-linejoin:round;stroke-miterlimit:10;}
	.st44{clip-path:url(#SVGID_58_);}
	.st45{clip-path:url(#SVGID_60_);}
	.st46{clip-path:url(#SVGID_62_);}
	.st47{clip-path:url(#SVGID_64_);}
	
		.st48{clip-path:url(#SVGID_66_);fill:none;stroke:#00C9C9;stroke-width:0.75;stroke-linecap:round;stroke-linejoin:round;stroke-miterlimit:10;}
	
		.st49{clip-path:url(#SVGID_68_);fill:none;stroke:#00C9C9;stroke-width:0.75;stroke-linecap:round;stroke-linejoin:round;stroke-miterlimit:10;}
	
		.st50{clip-path:url(#SVGID_70_);fill:none;stroke:#00C9C9;stroke-width:0.75;stroke-linecap:round;stroke-linejoin:round;stroke-miterlimit:10;}
	
		.st51{clip-path:url(#SVGID_72_);fill:none;stroke:#00C9C9;stroke-width:0.75;stroke-linecap:round;stroke-linejoin:round;stroke-miterlimit:10;}
	
		.st52{clip-path:url(#SVGID_74_);fill:none;stroke:#00C9C9;stroke-width:0.75;stroke-linecap:round;stroke-linejoin:round;stroke-miterlimit:10;}
	
		.st53{clip-path:url(#SVGID_76_);fill:none;stroke:#00C9C9;stroke-width:0.75;stroke-linecap:round;stroke-linejoin:round;stroke-miterlimit:10;}
	
		.st54{clip-path:url(#SVGID_78_);fill:none;stroke:#00C9C9;stroke-width:0.75;stroke-linecap:round;stroke-linejoin:round;stroke-miterlimit:10;}
	.st55{clip-path:url(#SVGID_80_);fill:none;stroke:#00C9C9;stroke-linecap:round;stroke-linejoin:round;stroke-miterlimit:10;}
	.st56{clip-path:url(#SVGID_82_);fill:none;stroke:#00C9C9;stroke-linecap:round;stroke-linejoin:round;stroke-miterlimit:10;}
	.st57{clip-path:url(#SVGID_84_);fill:none;stroke:#00C9C9;stroke-linecap:round;stroke-linejoin:round;stroke-miterlimit:10;}
	.st58{clip-path:url(#SVGID_86_);}
</style>
<g>
	<g>
		<defs>
			<rect id="SVGID_1_" y="0" width="469.3" height="462.1"/>
		</defs>
		<clipPath id="SVGID_2_">
			<use xlink:href="#SVGID_1_"  style="overflow:visible;"/>
		</clipPath>
		<g class="st0">
			<g>
				<path class="st1" d="M109.6,221.3c0.1,0,0.2,0,0.2,0C109.8,221.3,109.7,221.3,109.6,221.3z"/>
				<path class="st1" d="M108.7,221.3c-0.1,0-0.1,0-0.2,0C108.6,221.3,108.7,221.3,108.7,221.3z"/>
				<path class="st1" d="M105.2,222.1C105.2,222.1,105.2,222.2,105.2,222.1C105.2,222.2,105.2,222.1,105.2,222.1z"/>
				<path class="st1" d="M111,221.4c-0.1,0-0.1,0-0.2,0C110.9,221.4,110.9,221.4,111,221.4z"/>
				<path class="st1" d="M102.3,222.9l0.3,0.6c0.2-0.1,0.4-0.2,0.5-0.3c9.1-13,21.2-19.8,32.2-23.4c0.1-3.1-0.5-6.5-2.7-9.5
					c-5.4-7.4-8.2-11-8.2-15.2c-2.8,3.1-7.7,3.8-16.7,5.6c-5.6,1.1-12.8,5-17.4,7.6c1.4,1.3,3,2.6,5,4.2
					C106.8,201.6,104.1,216.6,102.3,222.9z"/>
				<path class="st1" d="M104.2,222.6C104.2,222.6,104.1,222.6,104.2,222.6C104.1,222.6,104.2,222.6,104.2,222.6z"/>
			</g>
			<g>
				<path class="st1" d="M52.2,221.6L52.2,221.6L52.2,221.6L52.2,221.6z"/>
				<path class="st1" d="M55.7,221.3c0.8,0.1,1.7,0.3,2.5,0.5c-0.8-6.3-0.7-18.5,10-27c2.8-2.2,4.9-4.2,6.7-6
					c-4-2.5-13-7.7-19.8-9.1c-9-1.8-13.9-2.5-16.7-5.6c0,4.2-2.7,7.8-8.2,15.2c-3.3,4.5-3,10.1-2.2,13.7
					C37.7,205.7,47.8,211.1,55.7,221.3z"/>
			</g>
		</g>
	</g>
	<g>
		<defs>
			<rect id="SVGID_3_" y="0" width="469.3" height="462.1"/>
		</defs>
		<clipPath id="SVGID_4_">
			<use xlink:href="#SVGID_3_"  style="overflow:visible;"/>
		</clipPath>
		<g class="st2">
			<path class="st1" d="M65.3,227c0,0,2.7-8.3,9.6-10.8c1-0.4,4-1,6.9-1c3,0,5.9,0.5,6.8,0.8c7.3,2.3,10.2,11,10.2,11
				c0.8-1.1,1.9-2.2,3.1-3.1c1.8-5.7,5.4-21.8-6.7-31.4c-12.6-10-13.1-13.9-13.5-14.7c-0.4,0.9-1,7-13.6,17.1
				c-10.6,8.5-10.8,20.7-10,27C61.2,222.8,63.8,224.8,65.3,227z"/>
			<path class="st1" d="M46.7,274.1c-18.4-7.1-24.4-35.3-14.4-40.5c3.7-1.9,4.8-1.7,5.9-1.9c4.5-0.8,7.2,0.9,7.2,0.9
				c1.6-7.8,2.6-9.7,6.6-10.9c1.2-0.4,2.5-0.4,3.7-0.3C34,193.2-4.4,201.9-4.4,201.9c5.8,1.9,14.7,16,24.1,43.7s29.5,29.3,29.5,29.3
				l0,0C48.4,274.7,47.5,274.4,46.7,274.1z"/>
			<path class="st1" d="M103.1,223.2c2.7-1.6,5.9-2.4,9.1-1.5c4,1.2,5,3.1,6.6,10.9c0,0,4.7-5.4,9.2-4.6c1.1,0.2,1.4-0.1,5.1,1.8
				c8.9,4.6,4.3,30-9.5,40.8c8.6-4.2,19.3-12.3,24.8-27.5c4.5-12.5,2.7-19.5,4.9-27.9c2.9-11.1,6.5-18,9.8-19.1
				C163.1,196.1,124.5,192.5,103.1,223.2z"/>
		</g>
	</g>
	<g>
		<defs>
			<rect id="SVGID_5_" y="0" width="469.3" height="462.1"/>
		</defs>
		<clipPath id="SVGID_6_">
			<use xlink:href="#SVGID_5_"  style="overflow:visible;"/>
		</clipPath>
		<path class="st3" d="M58.2,283.2c0,0,3.2,22.4,27.1,19.8s24.8-24.9,24.8-24.9s-12.2,13.1-25.5,13.1
			C69,291.3,58.2,283.2,58.2,283.2z"/>
	</g>
	<g>
		<defs>
			<rect id="SVGID_7_" y="0" width="469.3" height="462.1"/>
		</defs>
		<clipPath id="SVGID_8_">
			<use xlink:href="#SVGID_7_"  style="overflow:visible;"/>
		</clipPath>
		<g class="st4">
			<path class="st1" d="M58.2,283.2c0,0,10.8,8.1,26.5,8.1c8.2,0,16-5,20.8-8.8c-1.6,1.2-3.5,2.3-5.5,3.1c-4.7,2-10.4,2.8-17.2,2.8
				c-5.8,0-10.7-0.5-15-2c-5.4-1.9-9.6-5-12.7-8.7c-6.5-0.5-13.3-2.2-19.7-6.1c0,0,2,21,29.6,25C59.2,290.8,58.2,283.2,58.2,283.2z"
				/>
			<path class="st1" d="M112.8,274.5c-0.9,1.5-2,2.9-3.2,4.2c0.3-0.3,0.5-0.5,0.5-0.5s-0.4,9.4-7.3,16.7
				c32.6-5.2,32.3-29.1,32.3-29.1C128.1,271.1,120.2,273.6,112.8,274.5z"/>
		</g>
	</g>
	<g>
		<defs>
			<rect id="SVGID_9_" y="0" width="469.3" height="462.1"/>
		</defs>
		<clipPath id="SVGID_10_">
			<use xlink:href="#SVGID_9_"  style="overflow:visible;"/>
		</clipPath>
		<path class="st5" d="M65.9,318.8c-53.8,28.8-97.3-36-58.9-61.1c0,0,0.4-0.3,1.3,0.1c0.7,0.4,0.8,0.9,0.8,0.9
			c-1.4,1.3-2.3,3-2.3,4.9c0,3.8,3.5,6.9,7.7,6.9c4.3,0,7.7-3.1,7.7-6.9c0-0.8-0.1-1.5-0.4-2.2l-0.1-0.7c0,0-1.2-6-5.2-10
			c-0.7-0.7-4.2-2.6-6.2-2.7c-2.9-0.2-5.3,0.6-5.3,0.6s-40.8,14.5-17,61.5c12.5,24.6,50.6,31.7,67.5,25c17-6.7,43.3-24.3,62-13.1
			C117.7,322,106.7,297,65.9,318.8z"/>
	</g>
	<g>
		<defs>
			<rect id="SVGID_11_" y="0" width="469.3" height="462.1"/>
		</defs>
		<clipPath id="SVGID_12_">
			<use xlink:href="#SVGID_11_"  style="overflow:visible;"/>
		</clipPath>
		<path class="st6" d="M7.4,278.2c0,0-7.3,54.9,60.2,31.7c0,0-8.3-4.1-12.8-9.8c-4.5-5.8-9.2-3.6-9.4,0.4c0,0-13-4.9-13-10.7
			c0,0-1.5,4.3,0,5.8c0,0-6.5-1.9-4.8-9.6c1.6-7.7-11.2-11.1-13.7-0.9C13.8,285.1,8.2,281.9,7.4,278.2z"/>
	</g>
	<g>
		<defs>
			<rect id="SVGID_13_" y="0" width="469.3" height="462.1"/>
		</defs>
		<clipPath id="SVGID_14_">
			<use xlink:href="#SVGID_13_"  style="overflow:visible;"/>
		</clipPath>
		<path class="st7" d="M9.4,284.9c0,0-1.8,39.1,53.1,24.4c0,0-7.7-5.9-10.9-9.4s-5.2,0.4-5.4,2.9c0,0-12.6-4.5-12.6-8.1
			c0,0,1,3.6,2,4.5c0,0-13-4.2-10.8-11.4c1.4-4.6-6.7-8.6-9.7,0.9C15.1,288.8,10,287.2,9.4,284.9z"/>
	</g>
	<g>
		<defs>
			<rect id="SVGID_15_" y="0" width="469.3" height="462.1"/>
		</defs>
		<clipPath id="SVGID_16_">
			<use xlink:href="#SVGID_15_"  style="overflow:visible;"/>
		</clipPath>
		<g class="st8">
			<path class="st1" d="M36.9,107.2c0,0-13.2,69.2,67.7,45c0,0-9.4-5.8-14.1-13.5c-4.8-7.7-10.4-5.3-11-0.2c0,0-14.8-7.3-14.3-14.6
				c0,0-2.1,5.3-0.5,7.3c0,0-7.4-2.9-4.9-12.6c2.6-9.6-12.1-15-16-2.2C43.8,116.5,37.6,112.1,36.9,107.2z"/>
			<path class="st9" d="M38.7,115.9c0,0-5.5,49.6,60,35.2c0,0-8.5-8.1-11.9-12.8s-6.2,0.2-6.6,3.3c0,0-14.3-6.7-14-11.2
				c0,0,0.8,4.7,2,5.9c0,0-14.9-6.3-11.7-15.3c2-5.8-7.1-11.4-11.4,0.3C45,121.3,39.2,118.9,38.7,115.9z"/>
		</g>
	</g>
	<g>
		<defs>
			<rect id="SVGID_17_" y="0" width="469.3" height="462.1"/>
		</defs>
		<clipPath id="SVGID_18_">
			<use xlink:href="#SVGID_17_"  style="overflow:visible;"/>
		</clipPath>
		<g class="st10">
			<path class="st1" d="M16.2,56.4c0,0-42.4-79.3,65.3-80.5c0,0-9.2,10.6-12.1,21.8C66.6,8.8,58.8,8.1,56.1,2.1
				c0,0-15.3,14.5-11.9,23.2c0,0-4.6-5.7-3.4-8.7c0,0-7.9,6.4-1.1,17.2c6.8,10.7-9,22.8-18.6,8.7C21.1,42.4,15.2,50.2,16.2,56.4z"/>
			<path class="st9" d="M15.1,45.1c0,0-25.5-58.3,59.6-65.6c0,0-7.3,13.1-9.6,20.1c-2.3,7.1-7.6,2.2-9.2-1.5c0,0-14.9,13.7-12.8,19
				c0,0-0.8-6,0.2-8c0,0-15.7,13.3-8.4,23c4.7,6.3-4.2,16.6-14,3.9C20.7,36.1,14.5,41.3,15.1,45.1z"/>
		</g>
	</g>
	<g>
		<defs>
			<rect id="SVGID_19_" y="0" width="469.3" height="462.1"/>
		</defs>
		<clipPath id="SVGID_20_">
			<use xlink:href="#SVGID_19_"  style="overflow:visible;"/>
		</clipPath>
		<path class="st11" d="M159.7,282.7c53.3-24.9,49.9-89.8,9.5-74.4c0,0-0.5,0.1-0.9,1c-0.3,0.7-0.1,1.1-0.1,1.1
			c1.7-0.4,3.2-0.2,4.2,0.8c2,2,1.2,6.1-1.8,9.2c-3,3.1-7.1,4.1-9.1,2.2c-0.4-0.4-0.7-0.9-0.9-1.4l-0.3-0.4c0,0-2.3-4-1.6-8.9
			c0.1-0.9,1.6-4.4,3-6c2-2.2,4-3.6,4-3.6s36.5-22.6,44.4,18.8c4.2,21.7-19.1,53.3-34.7,62.3c-15.6,9.1-43.5,19.4-50.8,38.9
			C124.7,322.4,119.3,301.6,159.7,282.7z"/>
	</g>
	<g>
		<defs>
			<rect id="SVGID_21_" y="0" width="469.3" height="462.1"/>
		</defs>
		<clipPath id="SVGID_22_">
			<use xlink:href="#SVGID_21_"  style="overflow:visible;"/>
		</clipPath>
		<path class="st12" d="M182,216.5c0,0,34.5,29.6-34.6,61.7c0,0,4.9-8.3,5.8-15.1c0.8-6.7,5.9-8.7,8.2-6.2c0,0,8.5-12.1,5.5-15.8
			c0,0,3.5,1.6,3,3.6c0,0,4.5-5.7-0.9-9.4s3.7-14.7,11.2-10.1C180.2,225.4,183.2,219.5,182,216.5z"/>
	</g>
	<g>
		<defs>
			<rect id="SVGID_23_" y="0" width="469.3" height="462.1"/>
		</defs>
		<clipPath id="SVGID_24_">
			<use xlink:href="#SVGID_23_"  style="overflow:visible;"/>
		</clipPath>
		<path class="st13" d="M183.5,220.5c0,0,23.3,26.5-32.4,53.7c0,0,3.6-4.9,4.4-10.2c0.8-5.3,4.3-6.4,6-4.6c0,0,9-11.5,6.8-14.2
			c0,0,2.3,2.8,1.9,4.3c0,0,6-11.6,1.8-14.4c-4.1-2.7,2.9-10.4,8.7-7C180.8,228,184.4,222.7,183.5,220.5z"/>
	</g>
	<g>
		<defs>
			<rect id="SVGID_25_" y="0" width="469.3" height="462.1"/>
		</defs>
		<clipPath id="SVGID_26_">
			<use xlink:href="#SVGID_25_"  style="overflow:visible;"/>
		</clipPath>
		<path class="st14" d="M-15.2,168.3c0,0,1-7.2,8.8-7.8c7.7-0.6,11.1,4.4,9.2,18.5s12,21.9,21.3,12.7s5.5-24.2-3-31.7
			C12.6,152.6-12.7,144.8-15.2,168.3z"/>
	</g>
	<g>
		<defs>
			<rect id="SVGID_27_" y="0" width="469.3" height="462.1"/>
		</defs>
		<clipPath id="SVGID_28_">
			<use xlink:href="#SVGID_27_"  style="overflow:visible;"/>
		</clipPath>
		<path class="st15" d="M-11.3,160.8c0,0,1.3-2.4,7.5-2.8c6.1-0.4,10.9,7.8,9.4,19.3c-1.4,11.5,9.6,18,17,10.5s4.2-19.7-2.6-25.8
			C13.3,155.8-6.7,149.2-11.3,160.8z"/>
	</g>
	<g>
		<defs>
			<rect id="SVGID_29_" y="0" width="469.3" height="462.1"/>
		</defs>
		<clipPath id="SVGID_30_">
			<use xlink:href="#SVGID_29_"  style="overflow:visible;"/>
		</clipPath>
		<path class="st16" d="M-7.3,157.8c0,0,8-2.1,11.7,1.9c3.6,3.9,6.2,12,5.2,19.4c-0.9,7.4,6.2,11.5,10.9,6.7s2.8-16.5-2.1-21.8
			C12.9,158,1.5,153.6-7.3,157.8z"/>
	</g>
	<g>
		<defs>
			<rect id="SVGID_31_" y="0" width="469.3" height="462.1"/>
		</defs>
		<clipPath id="SVGID_32_">
			<use xlink:href="#SVGID_31_"  style="overflow:visible;"/>
		</clipPath>
		<path class="st17" d="M110.1,243.3c-12.9-2.4-16.7,9-16.7,9c-1.6-7.2-4.1-9.7-6.4-10.5c-1.6-0.6-2.8-0.8-4.3-0.8
			c-1.8,0-2.4,0.2-3.8,0.6c-2.4,0.6-5.1,2.9-6.8,10.7c0,0-3.8-11.4-16.7-9C44,245.4,43.5,278,67.8,286.5c4.2,1.5,9.2,2,15,2
			c6.8,0,12.5-0.8,17.2-2.8C122,276,121.1,245.4,110.1,243.3z"/>
	</g>
	<g>
		<defs>
			<rect id="SVGID_33_" y="0" width="469.3" height="462.1"/>
		</defs>
		<clipPath id="SVGID_34_">
			<use xlink:href="#SVGID_33_"  style="overflow:visible;"/>
		</clipPath>
		<path class="st18" d="M107.8,248.1c-11.8-1.6-15.3,11.1-15.3,11.1c-1.5-4.8-3.9-10.7-5.5-12.2c-1-0.9-2.9-1.6-4.3-1.6
			c-1.6,0-3.2,0.2-4.4,1.4c-1.6,1.6-3.8,7.1-5.4,12.3c0,0-3.5-12.7-15.3-11.1c-10.4,1.5-10.9,28.5,11.4,34.2c3.9,1,8.4,1.3,13.7,1.3
			c6.2,0,11.4-0.5,15.7-1.9C118.7,275.3,117.9,249.5,107.8,248.1z"/>
	</g>
	<g>
		<defs>
			<rect id="SVGID_35_" y="0" width="469.3" height="462.1"/>
		</defs>
		<clipPath id="SVGID_36_">
			<use xlink:href="#SVGID_35_"  style="overflow:visible;"/>
		</clipPath>
		<path class="st19" d="M133.1,229.7c-3.7-1.9-4-1.6-5.1-1.8c-4.5-0.8-9.2,4.6-9.2,4.6c-1.6-7.8-2.6-9.7-6.6-10.9
			c-5.1-1.5-10.7,1.7-13.3,5.4c0,0-2.9-8.7-10.2-11c-0.9-0.3-3.8-0.9-6.8-0.8c-2.9,0-6,0.6-6.9,1c-6.9,2.6-9.6,10.8-9.6,10.8
			c-2.6-3.7-8.2-6.9-13.3-5.4c-4,1.2-5,3.1-6.6,10.9c0,0-2.7-1.7-7.2-0.9c-1.1,0.2-2.2,0-5.9,1.9c-10,5.2-4,33.4,14.4,40.5
			c2.1,0.8,4.3,1.3,6.8,1.6c-8.9-12.8-6.4-30.8,1.9-32.4c12.9-2.4,16.7,9,16.7,9c1.8-7.8,4.4-10.1,6.8-10.7c1.4-0.4,2.1-0.6,3.8-0.6
			c1.5,0,2.6,0.2,4.3,0.8c2.3,0.8,4.8,3.3,6.4,10.5c0,0,3.8-11.4,16.7-9c8.3,1.6,10.8,19.4,2.1,32.2c1.9-0.3,3.7-0.8,5.3-1.4
			C135.9,267,143.2,235,133.1,229.7z"/>
	</g>
	<g>
		<defs>
			<rect id="SVGID_37_" y="0" width="469.3" height="462.1"/>
		</defs>
		<clipPath id="SVGID_38_">
			<use xlink:href="#SVGID_37_"  style="overflow:visible;"/>
		</clipPath>
		<g class="st20">
			<path class="st21" d="M106.8,220.1c-0.5,0.5-1.1,1.1-1.6,1.6c0.7-0.2,1.5-0.4,2.2-0.4"/>
			<path class="st22" d="M112.6,222.2c2.2,0.9,3.8,2.4,5,5.7"/>
			<path class="st21" d="M118.3,230.3c0.2,0.7,0.4,1.4,0.5,2.2c0,0,0.5-0.8,1.5-1.7"/>
			<path class="st23" d="M124.2,228.2c0.9-0.3,1.8-0.4,2.8-0.2c1.1,0.2,1.2,0.4,5.1,1.8c9,3.2,6.5,20.9-1.6,33.3"/>
			<path class="st21" d="M129,265c-0.5,0.6-0.9,1.2-1.4,1.8c0.6-0.4,1.2-0.9,1.8-1.4"/>
			<path class="st24" d="M132.9,262.1c3.9-4.2,7.3-9.7,9.8-16.6c4.2-11.4,2.5-17.8,4.5-25.5c1.8-6.9,4.6-13.6,7.1-17.4"/>
			<path class="st21" d="M155.8,200.6c0.6-0.7,1.2-1.2,1.8-1.4c0,0-0.8,0-2.3,0.1"/>
			<path class="st25" d="M150.5,199.9c-9.8,1.3-27.9,5.5-41.9,18.5"/>
		</g>
	</g>
	<g>
		<defs>
			<rect id="SVGID_39_" y="0" width="469.3" height="462.1"/>
		</defs>
		<clipPath id="SVGID_40_">
			<use xlink:href="#SVGID_39_"  style="overflow:visible;"/>
		</clipPath>
		<g class="st26">
			<path class="st21" d="M63.9,225.3c0.6,0.5,1.1,1.1,1.5,1.7c0,0,0.3-0.9,0.9-2.1"/>
			<path class="st27" d="M68.6,221.2c1.5-2,3.6-3.9,6.4-5c1-0.4,4-1,6.9-1c3,0,5.9,0.5,6.8,0.8c4,1.2,6.6,4.4,8.2,7"/>
			<path class="st21" d="M98,224.9c0.6,1.2,0.9,2.1,0.9,2.1c0.4-0.6,0.9-1.2,1.5-1.7"/>
			<path class="st28" d="M102.2,221.9c1-6.7,0.5-16.2-7.6-22.6c-5.7-4.5-8.7-7.6-10.3-9.7"/>
			<path class="st21" d="M83,187.8c-0.7-1.1-0.8-1.8-1-2.1c-0.1,0.2-0.3,1-0.8,2.1"/>
			<path class="st29" d="M79.1,191.8c-1.8,2.5-4.7,5.8-9.6,9.6c-6.3,4.9-8.6,11.3-9.3,16.7"/>
			<path class="st21" d="M60,220.3c0,0.8,0,1.6,0,2.3c0.7,0.3,1.3,0.7,2,1.2"/>
		</g>
	</g>
	<g>
		<defs>
			<rect id="SVGID_41_" y="0" width="469.3" height="462.1"/>
		</defs>
		<clipPath id="SVGID_42_">
			<use xlink:href="#SVGID_41_"  style="overflow:visible;"/>
		</clipPath>
		<g class="st30">
			<path class="st21" d="M43.3,231.8c1.4,0.3,2.1,0.8,2.1,0.8c0.2-0.8,0.3-1.5,0.5-2.2"/>
			<path class="st31" d="M46.9,226.7c0.8-2.3,1.7-3.5,3.3-4.3"/>
			<path class="st21" d="M51.9,221.7c0.1,0,0.1,0,0.2,0c0.7-0.2,1.4-0.3,2.1-0.4c-0.5-0.5-1.1-1.1-1.6-1.6"/>
			<path class="st32" d="M49,216.8c-14.8-11.4-32.4-12.4-40.5-12.2"/>
			<path class="st21" d="M6.2,204.7c-1.5,0.1-2.3,0.2-2.3,0.2c0.6,0.2,1.3,0.6,1.9,1.2"/>
			<path class="st33" d="M8.7,209.5c4.4,6.6,9.6,20,15.9,38.4c2.4,6.9,5.5,12,8.7,15.8"/>
			<path class="st21" d="M34.8,265.3c0.5,0.6,1.1,1.1,1.6,1.6c-0.5-0.6-1-1.1-1.5-1.7"/>
			<path class="st34" d="M32.6,261.6c-6.5-10.8-7-24.6-0.3-28.1c3.7-1.9,4.8-1.7,5.9-1.9c1.1-0.2,2.1-0.2,3-0.2"/>
		</g>
	</g>
	<g>
		<defs>
			<rect id="SVGID_43_" y="0" width="469.3" height="462.1"/>
		</defs>
		<clipPath id="SVGID_44_">
			<use xlink:href="#SVGID_43_"  style="overflow:visible;"/>
		</clipPath>
		<g class="st35">
			<path class="st1" d="M29,156c0,0-3.7,2.4-7.5-0.3s-2.2-1.5-5.9-7.3s-6-4.7-5.4-8.2s-2.8-8.1,3.3-4.7c6.1,3.4,5.4,5.1,11.2,4.6
				c5.8-0.6,11.1,0.3,11.8,6c0.7,5.6-3.1,2.9-4.9,5.5C29.9,154,32,156.1,29,156z"/>
			<path class="st36" d="M23.6,154.4c0,0,3.6,1.4,4.6-0.2c1.1-1.6,0.2-0.7,1.2-2.8s0.4-1.9,3.2-2.8c2.7-0.9,3.1-3.8,0.8-4.9
				c-2.2-1.2-0.9-2.8-6-1.5c-5.1,1.2-9.4,0.3-11-1.8c-1.6-2-1.9-3.8-2.9-3s0,4.1,1.4,5.5s0.7,1.2,2.7,3.5
				C19.6,148.8,19.1,152.5,23.6,154.4z"/>
			<path class="st9" d="M25,153.3c0,0,1.7-0.3,2.3-1.9c0.5-1.6-0.6-3.2,1.4-3.3s3.3-0.3,3.6-1.2c0.2-0.9-0.3-1.3-1.3-2.2
				s0.6-0.8-0.4-1.4c-1-0.5-4,0.2-5.4,1s-5.4-0.4-7.2-1.1c-1.9-0.8-1.1,1.4,1.1,2.8c2.1,1.4,2.6,2.9,3.1,4.4
				C22.4,151.9,23.2,153.6,25,153.3z"/>
		</g>
	</g>
	<g>
		<defs>
			<rect id="SVGID_45_" y="0" width="469.3" height="462.1"/>
		</defs>
		<clipPath id="SVGID_46_">
			<use xlink:href="#SVGID_45_"  style="overflow:visible;"/>
		</clipPath>
		<g class="st37">
			<path class="st1" d="M221,168c0,0-5.8-0.7-8.5,5.6s0.1,10.1,11.4,11.5c11.3,1.4,13.2,14.6,3.5,20.4c-9.7,5.8-20-0.6-23.2-9.2
				C200.9,187.6,202.4,165,221,168z"/>
			<path class="st38" d="M213.4,169.9c0,0-4.2,3.8-4.1,9.4c0.1,4.9,4.7,6.4,13.6,7.5c9,1.1,10.4,12,2.6,16.8
				c-7.8,4.8-18.5-2.1-20.6-9.3C201.6,183,211,169.3,213.4,169.9z"/>
			<path class="st9" d="M208.5,176.6c0,0-0.7,5.7,1.7,8.8c1.7,2.2,7.5,3.5,13.7,4.3s5.8,8.6,0.4,11.9c-5.4,3.3-14.3-1-16.9-5.5
				C202.8,187.9,208.1,176.7,208.5,176.6z"/>
		</g>
	</g>
	<g>
		<defs>
			<rect id="SVGID_47_" y="0" width="469.3" height="462.1"/>
		</defs>
		<clipPath id="SVGID_48_">
			<use xlink:href="#SVGID_47_"  style="overflow:visible;"/>
		</clipPath>
		<g class="st39">
			<path class="st1" d="M238.5,137.9c0,0-6.5-0.5-9,5.6s-1.5,3.4-1.5,13.3c0.1,9.8-3.7,10-0.1,14c3.6,4,2.9,12.1,7.8,3.6
				c4.9-8.5,2.6-10.1,10.2-13.4c7.6-3.3,13.4-8.1,9.8-15.7c-3.6-7.6-6.1-1.5-10.4-3.5C241.1,139.9,242,135.8,238.5,137.9z"/>
			<path class="st36" d="M233,143.6c0,0,3.3-4.3,5.9-3c2.6,1.3,0.8,0.8,3.7,2.7c2.9,2,2,2.1,6.1,1.4c4.1-0.7,6.8,2.6,4.9,5.6
				c-1.8,3,1,4.1-6.2,6.1s-11.7,6.1-12.2,9.8c-0.4,3.6,0.7,6.1-1.2,5.8c-2-0.3-3.3-5.2-2.7-7.9s-0.1-2,0.5-6.3
				C232.5,153.5,229,149.2,233,143.6z"/>
			<path class="st9" d="M235.6,144.1c0,0,2.4-0.8,4.3,0.8c1.9,1.6,1.8,4.4,4.3,3.2c2.5-1.3,4.4-1.9,5.4-1s0.7,1.9,0.1,3.7
				c-0.6,1.9,1.4,0.7,0.6,2c-0.8,1.3-5.1,2.5-7.4,2.5c-2.4,0-6.4,4.2-8,6.4c-1.7,2.3-2.5-1.1-0.9-4.3c1.5-3.2,0.9-5.5,0.3-7.6
				C233.5,147.6,233.1,145,235.6,144.1z"/>
		</g>
	</g>
	<g>
		<defs>
			<rect id="SVGID_49_" y="0" width="469.3" height="462.1"/>
		</defs>
		<clipPath id="SVGID_50_">
			<use xlink:href="#SVGID_49_"  style="overflow:visible;"/>
		</clipPath>
		<path class="st40" d="M34.8,158c-1.5,1.9-0.4,5.6,1.3,8.5c1.9,3.3,5,7.9,12,8.5c13.3,1.2,18.4,3.3,21.4,7s7.6,1,5.2-2.2
			c-2.4-3.1-9.5-8.9-23.7-9.6C37,169.6,36.9,155.2,34.8,158z"/>
	</g>
	<g>
		<defs>
			<rect id="SVGID_51_" y="0" width="469.3" height="462.1"/>
		</defs>
		<clipPath id="SVGID_52_">
			<use xlink:href="#SVGID_51_"  style="overflow:visible;"/>
		</clipPath>
		<path class="st41" d="M35.9,161.2c-1.2,1.2,1.3,5.7,2.7,7.6c1.5,2.1,4,5,9.7,5.4c10.7,0.7,19.5,3,22.1,6.7
			c2.4,3.4,5.4,1.8,3.7-0.3c-3.2-3.9-11.9-8.9-23.4-9.4C40.2,170.7,36.6,160.5,35.9,161.2z"/>
	</g>
	<g>
		<defs>
			<rect id="SVGID_53_" y="0" width="469.3" height="462.1"/>
		</defs>
		<clipPath id="SVGID_54_">
			<use xlink:href="#SVGID_53_"  style="overflow:visible;"/>
		</clipPath>
		<path class="st42" d="M128.3,155.9c1.5,1.9,0.4,5.6-1.3,8.5c-1.9,3.3-5,7.9-12,8.5c-13.3,1.2-18.4,3.3-21.4,7s-7.6,1-5.2-2.2
			c2.4-3.1,9.5-8.9,23.7-9.6C126.2,167.5,126.2,153.1,128.3,155.9z"/>
	</g>
	<g>
		<defs>
			<rect id="SVGID_55_" y="0" width="469.3" height="462.1"/>
		</defs>
		<clipPath id="SVGID_56_">
			<use xlink:href="#SVGID_55_"  style="overflow:visible;"/>
		</clipPath>
		<path class="st43" d="M127.2,159.1c1.2,1.2-1.3,5.7-2.7,7.6c-1.5,2.1-4,5-9.7,5.4c-10.7,0.7-19.5,3-22.1,6.7
			c-2.4,3.4-5.4,1.8-3.7-0.3c3.2-3.9,11.9-8.9,23.4-9.4C122.9,168.7,126.5,158.4,127.2,159.1z"/>
	</g>
	<g>
		<defs>
			<rect id="SVGID_57_" y="0" width="469.3" height="462.1"/>
		</defs>
		<clipPath id="SVGID_58_">
			<use xlink:href="#SVGID_57_"  style="overflow:visible;"/>
		</clipPath>
		<g class="st44">
			<path class="st9" d="M162,68.2c1,2.6,3.4,10.2,4.3,12.9c2.4-0.7,4.9-0.7,7.5-0.7c7.3,0,13.6,4.4,18,12.2c0-4.4-0.3-5.6-0.8-10.9
				c-2-25.1-17.1-52.3-38.4-68.8c-12-9.4-32.8-26-50.6-18.7C93.4-2.3,75.6,10,97.4,27.7C119.2,45.3,153.9,46.6,162,68.2z"/>
			<path class="st1" d="M167.2,172.5c0,0,35.9-18.7,30.7-59.7c-3-24.3-14.5-32.3-25.4-32.4c-10-0.1-19.7,6.9-19.7,6.9
				s3.8-11.8-1.3-13.6c-7.8-2.8-18.8,5.1-22,14.1c-0.9,2.5-2.8,13.8-0.2,22.2c2.7,8.7,10,11,10,11s-4.7-1.1-10.1-2.6
				c-5.4-1.5-11.9-5.6-11.9-5.6s0.6,8.7,10.8,17.3c7,5.9,20.5,9.6,27.5,15.6C165.4,153.9,166.7,161.7,167.2,172.5z"/>
			<path class="st38" d="M169.9,166.3c0,0,25.7-17.8,24.6-43.3c-0.8-18.5-2.7-36.6-19.8-38.2c-14.3-1.3-25.5,7.5-25.5,7.5
				s3.4-14.1-0.4-15.5c-5.9-2.1-14.4,6.6-16.8,13.3c-0.7,1.9-2.9,8.6-1.2,15c3.3,12.5,16.5,18.1,16.5,18.1s-3.8,2-7.9,0.9
				c-4.1-1.2-15.7-5.7-15.7-5.7s0,4.3,7.7,10.8c5.3,4.4,21.2,8.2,26.5,12.7C165.2,148.3,169.5,158.1,169.9,166.3z"/>
			<path class="st1" d="M161.4,73.1c0.9,2.8,1.9,5.7,2.8,8.6c2.6-0.8,5.4-1.4,8.2-1.3c8,0,16.2,4.3,21.3,16c0-4.8-0.2-10.1-0.6-15.8
				c-2.2-27.4-20.9-57.1-44-75.1C136-4.9,116.3-17.7,97.1-9.8c-9.4,3.9-27.5,21.1-3.8,40.3C116.9,49.8,152.4,45.6,161.4,73.1z"/>
			<g>
				<path class="st1" d="M176.7,80.8c0.2,0,0.4,0.1,0.5,0.1C177,80.9,176.8,80.8,176.7,80.8z"/>
				<path class="st1" d="M175.2,80.5c0.2,0,0.3,0.1,0.5,0.1C175.6,80.6,175.4,80.6,175.2,80.5z"/>
				<path class="st1" d="M178.1,81.1c0.2,0,0.3,0.1,0.5,0.1C178.4,81.2,178.3,81.2,178.1,81.1z"/>
				<path class="st1" d="M179.6,81.6c0.1,0,0.2,0.1,0.4,0.1C179.8,81.7,179.7,81.7,179.6,81.6z"/>
				<path class="st1" d="M166.3,81.1c-0.1,0-0.1,0-0.2,0.1C166.1,81.1,166.2,81.1,166.3,81.1z"/>
				<path class="st1" d="M170.4,80.4c-0.2,0-0.3,0-0.5,0.1C170.1,80.5,170.3,80.4,170.4,80.4z"/>
				<path class="st1" d="M173.8,80.4c0.1,0,0.3,0,0.4,0C174.1,80.4,174,80.4,173.8,80.4z"/>
				<path class="st1" d="M168.4,80.7c-0.1,0-0.3,0-0.4,0.1C168.1,80.7,168.2,80.7,168.4,80.7z"/>
				<path class="st1" d="M164.2,81.7L164.2,81.7c-1-2.9-1.9-5.7-2.8-8.6c-9-27.5-44.5-23.3-68.2-42.5C85.6,24.4,82.3,18.4,81.7,13
					c-5.7-0.8-11.6-0.3-17.4,2.1c-9.4,3.9-28.7,25-5,44.2c20.9,17,56.9,4.6,73.1,23.1c4.7-6.5,12.9-11,19.1-8.8
					c5,1.8,1.3,13.6,1.3,13.6S157.7,83.7,164.2,81.7z"/>
			</g>
			<g>
				<path class="st9" d="M173,73.9c0.2,0,0.3,0.1,0.5,0.1C173.3,74,173.2,73.9,173,73.9z"/>
				<path class="st9" d="M171.7,73.7c0.2,0,0.3,0,0.5,0.1C172,73.7,171.8,73.7,171.7,73.7z"/>
				<path class="st9" d="M174.4,74.2c0.2,0,0.3,0.1,0.5,0.1C174.7,74.3,174.5,74.2,174.4,74.2z"/>
				<path class="st9" d="M175.8,74.6c0.1,0,0.2,0.1,0.4,0.1C176,74.7,175.9,74.7,175.8,74.6z"/>
				<path class="st9" d="M163.2,74.2c-0.1,0-0.1,0-0.2,0C163,74.2,163.1,74.2,163.2,74.2z"/>
				<path class="st9" d="M167.1,73.6c-0.2,0-0.3,0-0.5,0C166.8,73.6,166.9,73.6,167.1,73.6z"/>
				<path class="st9" d="M170.3,73.6c0.1,0,0.3,0,0.4,0C170.6,73.6,170.5,73.6,170.3,73.6z"/>
				<path class="st9" d="M165.1,73.8c-0.1,0-0.3,0-0.4,0.1C164.9,73.9,165,73.8,165.1,73.8z"/>
				<path class="st9" d="M163.2,82l-0.6,0.2c-0.9-2.5-3.1-7.8-4-10.2c-8.6-23.4-42.5-21.3-64.9-37.6C86.4,29.1,81,20.6,80.4,16.1
					c-5.4-0.6-8.3,0-13.8,2c-8.9,3.3-27.2,21.3-4.8,37.6c19.8,14.4,54.1,7.4,71.9,24.9c4.5-5.5,11.8-8.8,17.7-6.9
					c4.8,1.5,1.3,13.6,1.3,13.6S157,83.7,163.2,82z"/>
			</g>
			<g>
				<path class="st1" d="M134.2,80.1c0.7-0.7,1.4-1.5,2.2-2.1l0,0C135.7,78.7,134.9,79.4,134.2,80.1z"/>
				<path class="st1" d="M129.3,109.9c-2.6-8.4-0.7-19.8,0.2-22.2c0.7-1.8,1.6-3.6,2.9-5.3c-15.7-17.8-49.9-6.8-71-21.5
					c-9.8,6.4-23.4,25.3-2,42.6c21.4,17.4,50.6-4.4,66.3,13.7c1.2,0.5,2.4,0.9,3.5,1.3c5.5,1.5,10.1,2.6,10.1,2.6
					S132,118.6,129.3,109.9z"/>
			</g>
			<g>
				<path class="st9" d="M134.5,82.7c0.7-0.7,1.4-1.4,2.1-2l0,0C135.9,81.4,135.2,82,134.5,82.7z"/>
				<path class="st9" d="M129.8,110.6c-2.5-7.9-1.7-18.8-0.8-21.2c0.6-1.7,1.2-4,2.3-5.6c-14.8-16.7-49.5-6.3-69.5-20.1
					c-7.9,5.1-20,21.8,0.2,38c20.3,16.3,47.8-5.8,64.5,12.8c1.6,1.9,2.1,3.6,3.2,3.9c5.2,1.4,9.6,2.4,9.6,2.4
					S132.4,118.8,129.8,110.6z"/>
			</g>
		</g>
	</g>
	<g>
		<defs>
			<rect id="SVGID_59_" y="0" width="469.3" height="462.1"/>
		</defs>
		<clipPath id="SVGID_60_">
			<use xlink:href="#SVGID_59_"  style="overflow:visible;"/>
		</clipPath>
		<g class="st45">
			<path class="st1" d="M321.1,4.4c-2.3-10-8.7-13.6-12.5-15C293.9-16.1,274-9.7,264-2.3c-15.5,11.6-27.6,21.9-31.2,37.7
				c3.5,0.6,6.8,2.9,9.2,7.2c0,0,14.3-20.4,29.2-10.2c0.8,0.6,1.5,1.1,2.1,1.6c12.2-4.4,29.6-3.7,42.1-12.3
				C321.1,17.8,322.1,8.4,321.1,4.4z"/>
			<path class="st9" d="M318.8,5.8c-2.3-10-8.7-12.8-12.3-14.3c-12.1-4.9-29.8,0.4-39.8,7.9C251.2,11,238.6,20.1,235,35.9
				c3.5,0.6,4.7,2.4,7,6.7c0,0,9.8-15.8,25.4-12.1c1,0.2,3.3,1.5,3.8,2c12.2-4.4,30-5.1,42.5-13.7C319.4,14.9,319.7,9.9,318.8,5.8z"
				/>
			<g>
				<path class="st1" d="M268.9,31.1c-0.5-0.2-1-0.5-1.5-0.6l0,0C267.9,30.7,268.4,30.9,268.9,31.1z"/>
				<path class="st1" d="M331.7,49.6c-4.8-11.2-22-17.3-33.3-20c-0.8-0.2-1.6-0.3-2.5-0.5c-8,1.7-16.1,2.6-22.7,5
					c9.8,8.7-11.2,12-18.4,17.4c0,0-1.1,0.6-1.7,1.7c-0.5,0.9-0.5,2.2-0.4,2.4c0,0,3.2,3.5,3.3,3.2c0.1,0.1,0.2,0.2,0.4,0.2
					c0.8,0.5,2.9,1.4,5.3,2.6c17.5-7.2,34.5,6.5,53.3,11.7c6.3,1.8,13.1-3,15.1-6.1C335.1,59.7,333.2,53.1,331.7,49.6z"/>
				<path class="st1" d="M269.5,31.5c0.2,0.1,0.3,0.2,0.5,0.3C269.8,31.6,269.7,31.5,269.5,31.5z"/>
			</g>
			<g>
				<path class="st9" d="M327.2,47.4c-7.6-9.6-15.9-11.9-27.2-14.6c-0.8-0.2-4.9-1.4-10.2-0.7c-8,1.7-8.5,1.5-15.1,3.9
					c5.4,4.3-5.5,8.7-13.6,12.3c-4.9,2.2-8.4,4.9-8.3,4.9c0,0,0.6,2.7,0.7,2.5c-1.5,0.4-0.1,1.1,0.1,1.2c0.8,0.5,2.3,1.9,4.7,3.1
					c21.8-7.8,36.7,5.1,55.5,10.3c6.3,1.8,13.1-3,15.1-6.1C333.8,56.5,329.5,50.3,327.2,47.4z"/>
			</g>
			<path class="st1" d="M264-2.3c4.2-3.1,10-6,16.5-8c1.2-4.6,0.5-9.8-0.6-12.4c-4.1-9.4-11-11.8-15-12.4
				c-15.6-2.7-28.5,9.2-37,18.4c-14.8,16.1-23.5,41.3-21.3,60.9c0.5,4.1,1.2,15.4,1.9,18.8c0-0.1,0-0.1,0.1-0.2
				c0.8-4.4,2-8.4,3.6-11.8c2.1-5.4,4.8-10,8-11.1c3.8-3.3,8.2-4.9,12-4.5c0.3-2.3,1.6-4.4,2.5-6.3c1.1-2.5,1.6-4.5,3.4-6.5
				C243.9,13.4,253.1,5.9,264-2.3z"/>
			<path class="st9" d="M259.7-3.2c3.9-2.9,12.5-6.6,18.5-8.4c0.9-3.3,0-7.9-1.1-10.3c-3.8-8.8-10.9-9.7-14.6-10.4
				c-14.5-2.6-25.7,11-33.6,19.5c-13.8,15-21.1,36.4-20.1,54.7c0.2,3.9,0.4,13.8,1.1,17c0-0.1-0.3,1.3-0.2,1.3
				c0.7-4.1,1.9-7.8,3.4-11.1c1.9-5,4.5-8.6,7.5-9.6c3.5-3.1,5.5-4.3,9.1-4c0.3-2.1,1.4-5.5,2.2-7.3c1-2.3,2.6-6.1,6.9-11.9
				C244.2,9.6,249.5,4.4,259.7-3.2z"/>
			<path class="st1" d="M204,125.5c0,0,5.8-15.8,4-49.5s23.8-51.7,34-33.4c0,0,14.3-20.4,29.2-10.2c14.8,10.1-9.8,13.4-16.8,19.4
				c-2.4,2.1-2.8,4.4,2.1,7.1c2.6,1.5,18.1,8.4,16.4,10.7c0,0-20.4-3.6-37.9,17.5C221.5,103.5,213.3,124.8,204,125.5z"/>
			<path class="st38" d="M207.1,121.4c0,0,6.3-18.6,4.8-46.8s18.8-45.4,29.8-27.8c0,0,15.6-21.2,28.1-12.6
				c12.4,8.5-13,11.1-18.8,16.1c-2,1.7-1.3,7.9,2.9,10.2c2.2,1.2,14.7,5.7,13.3,7.6c0,0-17.6-1.2-32.9,16
				C218.4,101.8,213.4,120.6,207.1,121.4z"/>
		</g>
	</g>
	<g>
		<defs>
			<rect id="SVGID_61_" y="0" width="469.3" height="462.1"/>
		</defs>
		<clipPath id="SVGID_62_">
			<use xlink:href="#SVGID_61_"  style="overflow:visible;"/>
		</clipPath>
		<g class="st46">
			<g>
				<path class="st1" d="M125.4,135.6c-10.6-0.6-14.9,6.9-15.8,8.9c-0.7,1.7-1,3.6-1,5.1c0,4.9,4.5,8.1,10.4,8.1
					c6,0,10.8-4,10.8-8.9c0-1.3-0.3-2.5-0.9-3.6c17.7-3.2,34.5,30.5,34.5,30.5C158.7,148,137.9,136.3,125.4,135.6z"/>
				<path class="st9" d="M124.6,137.1c-8.7-0.3-12.3,5.7-13,7.3c-0.5,1.4-0.8,2.9-0.8,4.2c0,4.1,3.7,6.7,8.6,6.7s8.9-3.3,8.9-7.3
					c0-1.1-1.3-3.8-1.8-4.7c19.3-3.6,33.8,24.8,33.8,24.8C157.3,154.9,140.5,137.6,124.6,137.1z"/>
			</g>
			<g>
				<path class="st1" d="M265.9,81.7c10.5-1.2,19.2-0.1,32,9.2c11.7,9.6,10.7,25.4,10.7,26.9c0,4.9-2.5,25.7-29.3,28.1
					c-16.5,1.5-21.1-9.2-22.2-14c-0.1-0.6-2.7-15.1,7.1-20.7c13.5-7.7,22.2,0.3,22.5-0.2c-5.4-13.7-23.9-11.5-37.6-2.8
					c-12.6,8.1-21.6,34.4-40.3,53.1c-19.9,20-44.4,15.4-44.4,15.4c-0.3,0,30-4.7,44-30.5C238.8,89.9,246.4,83.9,265.9,81.7z"/>
				<path class="st9" d="M264.6,85c9.2-0.9,19,0.6,30.3,7.8c10.3,7.6,10.8,22.1,10.8,23.3c0,3.9-4.6,25.4-23.5,26.4
					c-14.5,0.7-19.5-2.5-21.3-11.5c-0.1-0.5-3-12.7,5.5-17.1c11.8-6.1,23,1.4,23.3,0.9c-4.6-22.3-26.3-20.2-38-12.8
					c-17.7,11-23.4,35.3-40.7,54.1c-17.7,19.3-38.5,20.2-38.5,20.2c-2.3-0.6,21.9-1.9,38.1-30.1C224.7,121.6,240.6,87.2,264.6,85z"
					/>
			</g>
		</g>
	</g>
	<g>
		<defs>
			<rect id="SVGID_63_" y="0" width="469.3" height="462.1"/>
		</defs>
		<clipPath id="SVGID_64_">
			<use xlink:href="#SVGID_63_"  style="overflow:visible;"/>
		</clipPath>
		<g class="st47">
			<path class="st1" d="M-10.1,119.8c4,5.5,8.3,9.2,18.1,11.6c9.5,1.8,16.4-5.1,17.1-5.7c2.3-2,10.9-11.5,0.4-25.3
				c-6.4-8.5-13.4-6.4-16.1-5c-0.4,0.2-8.2,4.8-6.6,11.7c2.2,9.5,9.7,10.5,9.6,10.9c-8.7,2.9-15.7-6.8-17.5-16.9
				C-6.7,91.8,1.7,77,2.3,60.5C3,42.9-8.5,37.8-8.5,37.8c-0.1-0.2,9.1,12.8,2.1,26.9C-24,100.1-17.5,109.6-10.1,119.8z"/>
			<path class="st9" d="M-9.1,117.9c3.9,4.5,8.5,8.9,16.7,11.3c8,1.9,14.9-3.7,15.5-4.2c1.8-1.6,9.9-12.4,2.1-21.8
				c-5.9-7.2-9.6-8.4-14.6-5.6c-0.3,0.2-7.2,3.6-5.6,9.5c2.3,8.1,10.6,10.5,10.5,10.8c-12.4,6.7-20.7-4.5-22.4-13
				C-9.3,92-0.4,79.5,0.9,63.7C2.3,47.4-6,40.4-6,40.4c-1.3-0.9,9.4,9.3,0.2,26.2C-14.3,82.2-21,104-9.1,117.9z"/>
		</g>
	</g>
	<g>
		<defs>
			<rect id="SVGID_65_" y="0" width="469.3" height="462.1"/>
		</defs>
		<clipPath id="SVGID_66_">
			<use xlink:href="#SVGID_65_"  style="overflow:visible;"/>
		</clipPath>
		<circle class="st48" cx="32.7" cy="85.1" r="8.4"/>
	</g>
	<g>
		<defs>
			<rect id="SVGID_67_" y="0" width="469.3" height="462.1"/>
		</defs>
		<clipPath id="SVGID_68_">
			<use xlink:href="#SVGID_67_"  style="overflow:visible;"/>
		</clipPath>
		<circle class="st49" cx="32.7" cy="85.1" r="8.4"/>
	</g>
	<g>
		<defs>
			<rect id="SVGID_69_" y="0" width="469.3" height="462.1"/>
		</defs>
		<clipPath id="SVGID_70_">
			<use xlink:href="#SVGID_69_"  style="overflow:visible;"/>
		</clipPath>
		<circle class="st50" cx="32.7" cy="85.1" r="8.4"/>
	</g>
	<g>
		<defs>
			<rect id="SVGID_71_" y="0" width="469.3" height="462.1"/>
		</defs>
		<clipPath id="SVGID_72_">
			<use xlink:href="#SVGID_71_"  style="overflow:visible;"/>
		</clipPath>
		<circle class="st51" cx="20.3" cy="71" r="5.7"/>
	</g>
	<g>
		<defs>
			<rect id="SVGID_73_" y="0" width="469.3" height="462.1"/>
		</defs>
		<clipPath id="SVGID_74_">
			<use xlink:href="#SVGID_73_"  style="overflow:visible;"/>
		</clipPath>
		<circle class="st52" cx="173.1" cy="2.8" r="3.9"/>
	</g>
	<g>
		<defs>
			<rect id="SVGID_75_" y="0" width="469.3" height="462.1"/>
		</defs>
		<clipPath id="SVGID_76_">
			<use xlink:href="#SVGID_75_"  style="overflow:visible;"/>
		</clipPath>
		<path class="st53" d="M183.9,20.6c0,1.8-1.5,3.3-3.3,3.3s-3.3-1.5-3.3-3.3s1.5-3.3,3.3-3.3C182.4,17.2,183.9,18.7,183.9,20.6z"/>
	</g>
	<g>
		<defs>
			<rect id="SVGID_77_" y="0" width="469.3" height="462.1"/>
		</defs>
		<clipPath id="SVGID_78_">
			<use xlink:href="#SVGID_77_"  style="overflow:visible;"/>
		</clipPath>
		<circle class="st54" cx="195.1" cy="6.6" r="3.3"/>
	</g>
	<g>
		<defs>
			<rect id="SVGID_79_" y="0" width="469.3" height="462.1"/>
		</defs>
		<clipPath id="SVGID_80_">
			<use xlink:href="#SVGID_79_"  style="overflow:visible;"/>
		</clipPath>
		<path class="st55" d="M173-20.5c0,0,27.2,46.9,22.8,86.1"/>
	</g>
	<g>
		<defs>
			<rect id="SVGID_81_" y="0" width="469.3" height="462.1"/>
		</defs>
		<clipPath id="SVGID_82_">
			<use xlink:href="#SVGID_81_"  style="overflow:visible;"/>
		</clipPath>
		<path class="st56" d="M151-28.9c0,0,2.2,29.4,15.6,41.3"/>
	</g>
	<g>
		<defs>
			<rect id="SVGID_83_" y="0" width="469.3" height="462.1"/>
		</defs>
		<clipPath id="SVGID_84_">
			<use xlink:href="#SVGID_83_"  style="overflow:visible;"/>
		</clipPath>
		<path class="st57" d="M191.8-19.1c0,0,11.7,5.1,13.3,28"/>
	</g>
	<g>
		<defs>
			<rect id="SVGID_85_" y="0" width="469.3" height="462.1"/>
		</defs>
		<clipPath id="SVGID_86_">
			<use xlink:href="#SVGID_85_"  style="overflow:visible;"/>
		</clipPath>
		<g class="st58">
			<path class="st1" d="M337.4,23.3c-2.7,7.1-3.5,13.3,0.3,23.9c4.2,9.9,14.7,12.1,15.7,12.4c3.2,0.9,17.3,3.1,23.7-15.1
				c3.9-11.2-2.3-16.3-5.2-18c-0.4-0.2-9.4-4.7-14.9,1c-7.5,7.9-3.8,15.4-4.2,15.5c-8-6.3-3.3-18.7,4.9-26.5
				c7.6-7.2,26.4-8.5,42.1-18c16.7-10.1,14.4-23.8,14.4-23.8c0.1-0.2-6.3,16.2-23.7,18.4C347.2-1.6,342.3,10.3,337.4,23.3z"/>
			<path class="st9" d="M339.7,23.1c-1.8,6.4-3,13.3-0.3,22.4C342.6,54,352,57,352.8,57.2c2.5,0.7,17.5,1.6,21.5-11.3
				c3.1-9.9,1.9-14-3.7-16.9c-0.3-0.2-7.8-4.5-12.2,0.6c-6.1,7-3.2,16.2-3.6,16.3c-13.8-7.4-8.5-22-1.6-28.7
				c10.5-10.2,27.4-9.6,42.9-18c15.9-8.7,17.4-20.7,17.4-20.7c0-1.7-2.9,14.4-24.2,16.2C369.7-3.5,345.3,3.6,339.7,23.1z"/>
		</g>
	</g>
</g>
</svg>
