<?xml version="1.0" encoding="utf-8"?>
<!-- Generator: Adobe Illustrator 22.0.0, SVG Export Plug-In . SVG Version: 6.00 Build 0)  -->
<svg version="1.1" id="Layer_1" xmlns="http://www.w3.org/2000/svg" xmlns:xlink="http://www.w3.org/1999/xlink" x="0px" y="0px"
	 viewBox="0 0 181.2 137.6" style="enable-background:new 0 0 181.2 137.6;" xml:space="preserve">
<style type="text/css">
	.st0{clip-path:url(#SVGID_2_);}
	.st1{fill:none;stroke:#00C9C9;stroke-linecap:round;stroke-linejoin:round;stroke-miterlimit:10;}
	.st2{clip-path:url(#SVGID_4_);}
	.st3{fill:none;stroke:#00C9C9;stroke-width:0.25;stroke-linecap:round;stroke-linejoin:round;stroke-miterlimit:10;}
	.st4{clip-path:url(#SVGID_6_);}
	
		.st5{fill:none;stroke:#00C9C9;stroke-width:0.5;stroke-linecap:round;stroke-linejoin:round;stroke-miterlimit:10;stroke-dasharray:4;}
</style>
<g>
	<g>
		<defs>
			<rect id="SVGID_1_" y="0" width="181.2" height="137.6"/>
		</defs>
		<clipPath id="SVGID_2_">
			<use xlink:href="#SVGID_1_"  style="overflow:visible;"/>
		</clipPath>
		<g class="st0">
			<path class="st1" d="M189.9,174.5L189.9,174.5c-1-2.9-1.9-5.7-2.8-8.6c-9-27.5-44.5-23.3-68.2-42.5c-7.6-6.2-10.9-12.1-11.5-17.5
				c-5.7-0.8-11.5-0.3-17.4,2.1c-9.4,3.9-28.7,25-5,44.2c20.9,17,56.9,4.6,73.1,23.1c4.7-6.5,12.9-11,19.1-8.8
				c5,1.8,1.3,13.6,1.3,13.6S183.4,176.5,189.9,174.5z"/>
		</g>
	</g>
	<g>
		<defs>
			<rect id="SVGID_3_" y="0" width="181.2" height="137.6"/>
		</defs>
		<clipPath id="SVGID_4_">
			<use xlink:href="#SVGID_3_"  style="overflow:visible;"/>
		</clipPath>
		<g class="st2">
			<path class="st3" d="M188.8,174.8l-0.6,0.2c-0.9-2.5-3.1-7.8-4-10.2c-8.6-23.4-42.5-21.3-64.9-37.6c-7.2-5.3-12.6-13.8-13.2-18.3
				c-5.4-0.6-8.3,0-13.8,2c-8.9,3.3-27.2,21.3-4.8,37.6c19.8,14.4,54.1,7.4,71.9,24.9c4.5-5.5,11.8-8.8,17.7-7
				c4.8,1.5,1.3,13.6,1.3,13.6S182.7,176.5,188.8,174.8z"/>
		</g>
	</g>
	<g>
		<defs>
			<rect id="SVGID_5_" y="0" width="181.2" height="137.6"/>
		</defs>
		<clipPath id="SVGID_6_">
			<use xlink:href="#SVGID_5_"  style="overflow:visible;"/>
		</clipPath>
		<g class="st4">
			<g>
				<path class="st1" d="M41.8,149.2c0,0-42.4-79.3,65.3-80.5c0,0-9.2,10.6-12.1,21.8S84.3,101,81.7,94.9c0,0-15.3,14.5-11.9,23.2
					c0,0-4.6-5.7-3.4-8.7c0,0-7.9,6.4-1.1,17.2c6.8,10.7-9,22.8-18.6,8.7C46.7,135.2,40.8,143.1,41.8,149.2z"/>
				<path class="st3" d="M40.7,137.9c0,0-25.5-58.3,59.6-65.6c0,0-7.3,13.1-9.6,20.1c-2.3,7.1-7.6,2.2-9.2-1.5
					c0,0-14.9,13.7-12.8,19c0,0-0.8-6,0.2-8c0,0-15.7,13.3-8.4,23c4.7,6.3-4.2,16.6-14,3.9C46.3,128.9,40.2,134.1,40.7,137.9z"/>
			</g>
			<g>
				<path class="st1" d="M117,81.2c0,0,1.9-4.4-0.4-10.6c-2-5.3-3.6-6.2-9.1-9.8c-7.2-4.7-10.4-12.7-1.1-15.1
					c6.6-1.7,14.7,5.6,16.8,10.6C126.2,63.5,127.6,70.2,117,81.2z"/>
				<path class="st5" d="M119.3,76.3c0,0-1-6.5-2.4-10.1c0,0-1.4-2.9-8.3-6.3c-5-2.5-8.6-9.6-2.6-11.7s13.8,4.6,15.5,9.2
					C126.2,69.5,119.7,76.6,119.3,76.3z"/>
				<path class="st3" d="M119.7,72.7c0,0-0.5-4.5-2.9-8.4c-1.2-1.9-3.9-4-7.1-5.4c-3.9-1.7-7.1-7.1-2.6-8.8
					c4.5-1.6,11.7,4.8,13.1,8.3C123.8,67.7,119.6,72.5,119.7,72.7z"/>
			</g>
			<path class="st3" d="M187.7,161c1,2.6,3.4,10.2,4.3,12.9c2.4-0.7,4.9-0.7,7.5-0.7c7.3,0,13.6,4.4,18,12.2c0-4.4-0.3-5.6-0.8-10.9
				c-2-25.1-17.1-52.3-38.4-68.8c-12.1-9.4-32.9-25.9-50.7-18.7c-8.6,3.5-26.4,15.8-4.6,33.5C144.8,138.1,179.6,139.4,187.7,161z"/>
			<path class="st1" d="M187,165.9c0.9,2.8,1.9,5.7,2.8,8.6c2.6-0.8,5.4-1.4,8.2-1.3c8,0,16.2,4.3,21.3,16c0-4.8-0.2-10.1-0.6-15.8
				c-2.2-27.4-20.9-57.1-44-75.1C161.6,88,142,75.1,122.7,83c-9.4,3.9-27.5,21.1-3.8,40.3C142.5,142.6,178,138.4,187,165.9z"/>
			<g>
				<path class="st1" d="M15.5,212.6c4,5.5,8.3,9.2,18.1,11.6c9.6,1.8,16.4-5.1,17.1-5.7c2.3-2,10.9-11.5,0.4-25.3
					c-6.4-8.5-13.4-6.4-16.1-5c-0.4,0.2-8.2,4.8-6.6,11.7c2.2,9.5,9.7,10.5,9.6,10.9c-8.7,2.9-15.7-6.8-17.5-16.9
					c-1.7-9.3,6.7-24.1,7.3-40.6c0.7-17.6-10.8-22.7-10.8-22.7c-0.1-0.2,9.1,12.8,2.1,26.9C1.7,192.9,8.1,202.4,15.5,212.6z"/>
				<path class="st3" d="M16.5,210.7c3.9,4.5,8.5,8.9,16.7,11.3c8,1.9,14.9-3.7,15.5-4.2c1.8-1.6,9.9-12.4,2.1-21.8
					c-5.9-7.2-9.6-8.4-14.6-5.6c-0.3,0.2-7.2,3.6-5.6,9.5c2.3,8.1,10.6,10.5,10.5,10.8c-12.4,6.7-20.7-4.5-22.4-13
					c-2.5-12.9,6.4-25.4,7.7-41.2c1.4-16.2-6.9-23.3-6.9-23.3c-1.3-0.9,9.4,9.3,0.2,26.2C11.4,175,4.6,196.8,16.5,210.7z"/>
			</g>
			<path class="st1" d="M176.6,63.9c0,0,2.2,29.4,15.6,41.3"/>
			<path class="st1" d="M132,68.5c0,0,7.9-8.8,13.5-31.1s32-32.3,36.3-17.8c0,0,13.4-4.8,23.1,5.7c9.6,10.3-10.6,6.2-17.4,8.3
				c-2.4,0.7-3.2,2.1,0.2,5.2c1.8,1.6,12.7,10.1,10.9,11.1c0,0-12.6,1.1-31,10.3C153.4,67.4,139.6,70.4,132,68.5z"/>
			<path class="st1" d="M132,68.5c0,0,7.9-8.8,13.5-31.1s32-32.3,36.3-17.8c0,0,13.4-4.8,23.1,5.7c9.6,10.3-10.6,6.2-17.4,8.3
				c-2.4,0.7-3.2,2.1,0.2,5.2c1.8,1.6,12.7,10.1,10.9,11.1c0,0-12.6,1.1-31,10.3C153.4,67.4,139.6,70.4,132,68.5z"/>
			<path class="st5" d="M135.4,66.6c0,0,8.9-10.5,13.5-29.2c4.7-18.7,26.4-28.6,31.5-14.4c0,0,14.8-5.8,23,3
				c8.1,8.7-12.6,3.9-18.4,5.6c-2,0.6-2.7,4.8,0.1,7.4c1.5,1.4,10.1,7.9,8.5,8.7c0,0-13,2.4-28.7,9.6
				C148.7,64.9,140.5,67.7,135.4,66.6z"/>
		</g>
	</g>
</g>
</svg>
