<?xml version="1.0" encoding="UTF-8"?>
<!DOCTYPE svg PUBLIC "-//W3C//DTD SVG 1.1//EN" "http://www.w3.org/Graphics/SVG/1.1/DTD/svg11.dtd">
<!-- Creator: CorelDRAW X7 -->
<svg xmlns="http://www.w3.org/2000/svg" xml:space="preserve" width="400px" height="400px" version="1.1" style="shape-rendering:geometricPrecision; text-rendering:geometricPrecision; image-rendering:optimizeQuality; fill-rule:evenodd; clip-rule:evenodd"
viewBox="0 0 400 400"
 xmlns:xlink="http://www.w3.org/1999/xlink">
 <defs>
  <style type="text/css">
   <![CDATA[
    .fil0 {fill:none}
    .fil1 {fill:white;fill-rule:nonzero}
   ]]>
  </style>
 </defs>
 <g id="Layer_x0020_1">
  <metadata id="CorelCorpID_0Corel-Layer"/>
  <rect class="fil0" width="400" height="400"/>
  <path class="fil1" d="M64 66l26 0 0 79 -26 0 0 -79zm91 0l23 0 0 79 -22 0 -31 -40 0 40 -23 0 0 -79 21 0 32 41 0 -41zm91 31c-2,-3 -5,-6 -8,-8 -3,-2 -7,-3 -10,-3 -3,0 -5,1 -8,3 -2,1 -4,3 -6,6 -1,3 -2,6 -2,10 0,4 1,7 2,10 2,3 4,5 6,7 3,1 5,2 8,2 3,0 6,-1 10,-3 3,-1 6,-3 8,-6l15 16c-4,5 -9,9 -16,11 -6,3 -12,5 -18,5 -8,0 -15,-2 -21,-6 -7,-3 -12,-8 -15,-14 -4,-7 -6,-14 -6,-22 0,-7 2,-14 6,-21 4,-6 9,-11 15,-14 7,-4 14,-5 22,-5 6,0 12,1 18,4 6,2 11,6 15,10l-15 18zm-157 110c0,3 1,6 4,9 2,2 5,3 8,3 3,0 5,-1 7,-3 2,-2 3,-6 3,-9l0 -46 26 0 0 46c0,7 -1,13 -4,18 -3,5 -7,9 -13,12 -6,3 -12,4 -19,4 -8,0 -14,-1 -20,-4 -6,-3 -10,-7 -13,-12 -3,-5 -5,-11 -5,-18l0 -46 26 0 0 46zm59 -46l26 0 0 57 32 0 0 21 -58 0 0 -78zm60 0l71 0 0 20 -23 0 0 58 -26 0 0 -58 -22 0 0 -20zm-104 92c8,0 15,2 22,5 6,4 12,9 15,15 4,6 6,13 6,21 0,8 -2,15 -6,21 -3,7 -9,12 -15,15 -7,4 -14,5 -22,5 -9,0 -16,-1 -23,-5 -6,-3 -11,-8 -15,-15 -4,-6 -6,-13 -6,-21 0,-8 2,-15 6,-21 4,-6 9,-11 15,-15 7,-3 14,-5 23,-5zm0 22c-3,0 -6,1 -8,2 -3,2 -5,4 -7,7 -1,3 -2,7 -2,10 0,4 1,7 2,10 2,3 4,5 7,7 2,2 5,3 8,3 3,0 6,-1 8,-3 3,-1 5,-4 6,-7 1,-3 2,-6 2,-10 0,-3 -1,-7 -2,-10 -1,-3 -3,-5 -6,-7 -2,-1 -5,-2 -8,-2zm75 26c0,4 1,7 3,9 3,3 5,4 9,4 3,0 5,-1 7,-4 2,-2 3,-5 3,-9l0 -46 26 0 0 46c0,7 -1,13 -4,18 -3,5 -8,9 -13,12 -6,3 -12,4 -20,4 -7,0 -13,-1 -19,-4 -6,-3 -10,-7 -13,-12 -3,-5 -5,-11 -5,-18l0 -46 26 0 0 46zm104 33l-10 -21 -10 0 0 21 -26 0 0 -79 38 0c11,0 19,2 25,7 6,5 9,12 9,21 0,6 -1,11 -3,15 -2,4 -5,8 -9,10l15 26 -29 0zm-20 -41l12 0c3,0 6,0 7,-2 2,-2 2,-4 2,-7 0,-3 0,-5 -2,-7 -1,-2 -4,-2 -7,-2l-12 0 0 18zm65 19c3,0 6,1 8,3 3,2 4,5 4,8 0,3 -1,6 -4,8 -2,2 -5,4 -8,4 -3,0 -6,-2 -8,-4 -2,-2 -3,-5 -3,-8 0,-3 1,-6 3,-8 2,-2 5,-3 8,-3z"/>
 </g>
</svg>
