<?xml version="1.0" encoding="utf-8"?>
<!-- Generator: Adobe Illustrator 16.0.0, SVG Export Plug-In . SVG Version: 6.00 Build 0)  -->
<!DOCTYPE svg PUBLIC "-//W3C//DTD SVG 1.1//EN" "http://www.w3.org/Graphics/SVG/1.1/DTD/svg11.dtd">
<svg version="1.1" id="Layer_1" xmlns="http://www.w3.org/2000/svg" xmlns:xlink="http://www.w3.org/1999/xlink" x="0px" y="0px"
	 width="300px" height="300px" viewBox="0 0 300 300" enable-background="new 0 0 300 300" xml:space="preserve">
<g>
	<g>
		<defs>
			<circle id="SVGID_1_" cx="-170" cy="150" r="125"/>
		</defs>
		<clipPath id="SVGID_2_">
			<use xlink:href="#SVGID_1_"  overflow="visible"/>
		</clipPath>
		<circle clip-path="url(#SVGID_2_)" fill="#EBFEFF" cx="-158.211" cy="177.079" r="175.657"/>
	</g>
</g>
<g>
	<g>
		<defs>
			<circle id="SVGID_5_" cx="150" cy="149.999" r="125"/>
		</defs>
		<clipPath id="SVGID_4_">
			<use xlink:href="#SVGID_5_"  overflow="visible"/>
		</clipPath>
		<circle clip-path="url(#SVGID_4_)" fill="#D7F6FF" cx="150" cy="149.999" r="125"/>
		<polygon clip-path="url(#SVGID_4_)" fill="#D3E8EA" points="19.757,180.709 209.967,31.692 149.978,-19.697 2.472,2.831 
			-34.089,138.563 -9.913,194.714 		"/>
		<polygon clip-path="url(#SVGID_4_)" fill="#85E08D" points="283.241,154.313 44.883,216.908 90.039,268.943 127.449,289.183 
			232.944,271.633 278.036,198.944 		"/>
		<g opacity="0.2" clip-path="url(#SVGID_4_)">
			<path fill="#231F20" d="M267.258,186.34c0,0-79.084,16.715-102.852,29.902c0,0-2.76,4.438,4.183,2.278
				c25.217-7.842,91.755-26.656,101.206-22.779L267.258,186.34z"/>
			<path fill="#231F20" d="M262.678,204.183c0,0-9.756-10.742-23.673-9.307c0,0,20.721,6.582,20.243,15.896
				c-0.478,9.315-1.085,1.914-1.085,1.914L262.678,204.183z"/>
		</g>
		<path clip-path="url(#SVGID_4_)" fill="#39B54A" d="M175.942,155.124c0,0-5.553-29.951,36.519-25.048
			c0,0-2.565,11.759-9.936,21.173C195.185,160.629,188.915,157.658,175.942,155.124z"/>
		<path clip-path="url(#SVGID_4_)" fill="#39B54A" d="M140.375,139.594c0,0,4.922-54.587-69.626-38.743
			c0,0,6.572,20.635,21.353,36.266C106.827,152.687,117.561,146.314,140.375,139.594z"/>
		<g clip-path="url(#SVGID_4_)">
			<path fill="#2A9B35" d="M114.144,122.371c0,0,0.441,0.123,1.248,0.417c0.803,0.301,1.993,0.73,3.45,1.405
				c2.937,1.304,7.033,3.443,11.604,6.599c2.27,1.594,4.697,3.392,7.091,5.508c2.397,2.107,4.881,4.412,7.206,7.032
				c2.383,2.57,4.609,5.441,6.746,8.45c2.071,3.052,4.074,6.241,5.757,9.602c1.738,3.333,3.197,6.805,4.46,10.279
				c0.653,1.73,1.139,3.501,1.688,5.227c0.503,1.738,0.898,3.482,1.318,5.188c0.384,1.713,0.67,3.416,0.964,5.078
				c0.313,1.659,0.424,3.31,0.636,4.898c0.216,1.59,0.321,3.145,0.389,4.649c0.048,1.506,0.195,2.954,0.15,4.35
				c-0.012,2.787-0.009,5.337-0.236,7.586c-0.162,2.25-0.304,4.206-0.571,5.803c-0.457,3.198-0.776,5.007-0.776,5.007l-2.836-0.264
				c0,0-0.075-1.812-0.104-4.946c0.031-1.567-0.141-3.469-0.215-5.639c-0.045-2.174-0.345-4.607-0.535-7.259
				c-0.07-1.328-0.337-2.692-0.506-4.111c-0.088-0.709-0.177-1.43-0.268-2.161c-0.084-0.732-0.245-1.464-0.366-2.212
				c-0.469-2.995-1.183-6.104-1.945-9.303c-0.46-1.579-0.843-3.207-1.341-4.821c-0.263-0.803-0.527-1.61-0.793-2.422
				s-0.495-1.64-0.821-2.438c-1.2-3.227-2.481-6.486-4.049-9.615c-0.384-0.785-0.747-1.583-1.146-2.359l-1.252-2.302
				c-0.802-1.551-1.753-3.008-2.619-4.502c-1.863-2.904-3.764-5.737-5.812-8.332c-2.01-2.624-4.097-5.062-6.166-7.301
				c-1.043-1.112-2.079-2.175-3.105-3.184c-0.999-1.04-2.034-1.97-3.004-2.897c-1.999-1.777-3.845-3.42-5.564-4.777
				c-1.717-1.358-3.236-2.533-4.529-3.445C115.716,123.311,114.144,122.371,114.144,122.371z"/>
		</g>
		<g clip-path="url(#SVGID_4_)">
			<path fill="#2A9B35" d="M160.238,185.567c0,0,0.031-0.263,0.092-0.757c0.067-0.479,0.161-1.17,0.336-2.031
				c0.345-1.723,0.89-4.162,1.854-6.99c0.963-2.823,2.259-6.067,4.031-9.349c0.909-1.628,1.869-3.298,2.979-4.911
				c1.077-1.632,2.285-3.211,3.535-4.75c1.303-1.499,2.649-2.956,4.073-4.286c0.708-0.669,1.411-1.329,2.15-1.932
				c0.72-0.624,1.445-1.222,2.19-1.771c0.73-0.565,1.45-1.117,2.204-1.591c0.739-0.493,1.455-0.98,2.192-1.394
				c1.435-0.888,2.856-1.606,4.156-2.277c1.331-0.613,2.543-1.186,3.659-1.59c1.117-0.401,2.064-0.805,2.883-1.038
				c1.621-0.489,2.548-0.769,2.548-0.769s-0.871,0.416-2.396,1.142c-0.771,0.336-1.654,0.863-2.689,1.4
				c-0.521,0.263-1.051,0.59-1.609,0.932c-0.558,0.343-1.158,0.674-1.763,1.056c-1.194,0.791-2.491,1.632-3.779,2.636
				c-0.664,0.473-1.302,1.017-1.957,1.564c-0.328,0.271-0.66,0.546-0.995,0.824c-0.323,0.291-0.649,0.584-0.979,0.88
				c-0.669,0.579-1.314,1.205-1.95,1.854c-0.657,0.627-1.273,1.31-1.894,1.996c-1.248,1.366-2.404,2.848-3.521,4.351
				c-1.102,1.514-2.16,3.059-3.092,4.647c-0.963,1.568-1.78,3.188-2.554,4.758c-0.728,1.594-1.44,3.128-2.014,4.627
				c-0.596,1.49-1.084,2.928-1.502,4.262c-0.823,2.673-1.395,4.932-1.693,6.519c-0.154,0.793-0.271,1.411-0.335,1.826
				c-0.06,0.401-0.091,0.616-0.091,0.616L160.238,185.567z"/>
		</g>
		<path clip-path="url(#SVGID_4_)" fill="#2A9B35" d="M92.102,137.117c14.115,14.924,24.568,9.688,45.502,3.31l-4.285-5.053
			c0,0-35.619,23.373-62.569-34.523l5.481,12.967C79.723,120.821,84.948,129.552,92.102,137.117z"/>
		<path clip-path="url(#SVGID_4_)" fill="#2A9B35" d="M130.199,110.214c0.171,0.263,9.55,14.733,4.494,25.207l3.905,4.704
			c0.586-0.177,1.174-0.354,1.776-0.531C140.375,139.594,141.913,122.495,130.199,110.214z"/>
		<path clip-path="url(#SVGID_4_)" fill="#2A9B35" d="M177.892,153.676l-1.007,1.637c11.596,2.335,17.721,4.771,24.361-2.545l0,0
			C194.488,158.679,177.892,153.676,177.892,153.676z"/>
		<path clip-path="url(#SVGID_4_)" fill="#2A9B35" d="M179.79,138.679c-5.531,7.347-3.848,16.445-3.848,16.445
			c0.258,0.051,0.509,0.102,0.762,0.152l0.528-0.531C175.949,148.279,177.403,141.321,179.79,138.679z"/>
	</g>
	<circle fill="none" cx="150" cy="150" r="125"/>
</g>
</svg>
