<?xml version="1.0" encoding="utf-8"?>
<!-- Generator: Adobe Illustrator 16.0.0, SVG Export Plug-In . SVG Version: 6.00 Build 0)  -->
<!DOCTYPE svg PUBLIC "-//W3C//DTD SVG 1.1//EN" "http://www.w3.org/Graphics/SVG/1.1/DTD/svg11.dtd">
<svg version="1.1" id="Layer_1" xmlns="http://www.w3.org/2000/svg" xmlns:xlink="http://www.w3.org/1999/xlink" x="0px" y="0px"
	 width="300px" height="300px" viewBox="0 0 300 300" enable-background="new 0 0 300 300" xml:space="preserve">
<g>
	<g>
		<defs>
			<circle id="SVGID_1_" cx="150" cy="-170" r="125"/>
		</defs>
		<clipPath id="SVGID_2_">
			<use xlink:href="#SVGID_1_"  overflow="visible"/>
		</clipPath>
		<circle clip-path="url(#SVGID_2_)" fill="#EBFEFF" cx="161.789" cy="-142.921" r="175.657"/>
	</g>
</g>
<g>
	<defs>
		<circle id="SVGID_3_" cx="150" cy="470" r="125"/>
	</defs>
	<clipPath id="SVGID_4_">
		<use xlink:href="#SVGID_3_"  overflow="visible"/>
	</clipPath>
	<polygon clip-path="url(#SVGID_4_)" fill="#D1D3D4" points="25,524 237.105,340.789 228.555,275.327 106.776,280.533 
		0.002,336.898 -17.464,448.941 14.118,554.197 	"/>
</g>
<g>
	<circle fill="#F25165" cx="150" cy="150" r="125"/>
	<g>
		<defs>
			<circle id="SVGID_13_" cx="150" cy="150" r="125"/>
		</defs>
		<clipPath id="SVGID_6_">
			<use xlink:href="#SVGID_13_"  overflow="visible"/>
		</clipPath>
		<polygon clip-path="url(#SVGID_6_)" fill="#CC1F41" points="37.969,233.495 281,172.005 283.866,181.36 281.944,214.451 
			257.367,291.799 123.759,337.855 26.417,290.594 		"/>
		<polygon clip-path="url(#SVGID_6_)" fill="#FF8AA0" points="8.056,195.487 261.389,47.398 78.723,-25.936 -1.944,101.311 		"/>
	</g>
	<g>
		<polygon fill="#DB122A" points="189.524,207.238 113.71,209.045 100.563,101.296 176.378,99.49 		"/>
		<polygon fill="#DB122A" points="110.476,91.383 100.563,101.296 113.71,209.045 123.622,199.132 		"/>
		<polygon fill="#FF2E3E" points="199.437,197.326 123.622,199.132 110.476,91.383 186.29,89.578 		"/>
		<polygon fill="#FFFFFF" points="147.894,155.746 130.612,142.768 130.612,152.252 147.894,166.174 179.3,128.66 179.3,119.176 		
			"/>
		<polygon fill="#E6E7E8" points="193.675,197.463 186.932,204.207 116.609,206.423 123.622,199.093 		"/>
		<polygon fill="#8E0C21" points="133.002,203.163 126.11,202.875 126.442,210.134 129.782,208.01 133.333,210.422 		"/>
	</g>
</g>
</svg>
