<?xml version="1.0" encoding="utf-8"?>
<!-- Generator: Adobe Illustrator 16.0.0, SVG Export Plug-In . SVG Version: 6.00 Build 0)  -->
<!DOCTYPE svg PUBLIC "-//W3C//DTD SVG 1.1//EN" "http://www.w3.org/Graphics/SVG/1.1/DTD/svg11.dtd">
<svg version="1.1" id="Layer_1" xmlns="http://www.w3.org/2000/svg" xmlns:xlink="http://www.w3.org/1999/xlink" x="0px" y="0px"
	 width="300px" height="300px" viewBox="0 0 300 300" enable-background="new 0 0 300 300" xml:space="preserve">
<g>
	<circle fill="#BCBEC0" cx="150" cy="150" r="125"/>
	<g>
		<defs>
			<circle id="SVGID_19_" cx="150" cy="150" r="125"/>
		</defs>
		<clipPath id="SVGID_2_">
			<use xlink:href="#SVGID_19_"  overflow="visible"/>
		</clipPath>
		<polygon clip-path="url(#SVGID_2_)" fill="#808285" points="27.906,240.963 312.618,133.968 306.453,201.087 253.319,296.839 
			78.681,306 15.473,296.839 		"/>
		<polygon clip-path="url(#SVGID_2_)" fill="#D1D3D4" points="36.767,214.396 235.712,24.293 167.264,7.386 59.058,47.847 
			6.784,156.624 		"/>
		<polygon clip-path="url(#SVGID_2_)" fill="#E6E7E8" points="118.248,134.439 125.035,155.329 147,155.329 129.23,168.24 
			136.018,189.13 118.248,176.219 100.479,189.13 107.266,168.24 89.496,155.329 111.461,155.329 		"/>
		<polygon clip-path="url(#SVGID_2_)" fill="#E6E7E8" points="200.359,152.125 203.642,162.228 214.265,162.228 205.671,168.472 
			208.954,178.575 200.359,172.331 191.766,178.575 195.048,168.472 186.454,162.228 197.077,162.228 		"/>
		<polygon clip-path="url(#SVGID_2_)" fill="#E6E7E8" points="135.028,83.778 138.311,93.882 148.934,93.882 140.34,100.126 
			143.623,110.229 135.028,103.984 126.435,110.229 129.717,100.126 121.123,93.882 131.746,93.882 		"/>
	</g>
</g>
</svg>
